{
  "1011": {
      "enabled": false,
      "name": "Giant's Belt",
      "stats": {
          "hp": 380
      }
  },
  "1026": {
      "enabled": false,
      "name": "Blasting Wand",
      "stats": {
          "ap": 40
      }
  },
  "1028": {
      "enabled": false,
      "name": "Ruby Crystal",
      "stats": {
          "hp": 150
      }
  },
  "1031": {
      "enabled": false,
      "name": "Chain Vest",
      "stats": {
          "armor": 40
      }
  },
  "1037": {
      "enabled": false,
      "name": "Pickaxe",
      "stats": {
          "ad": 25
      }
  },
  "1038": {
      "enabled": false,
      "name": "B. F. Sword",
      "stats": {
          "ad": 40
      }
  },
  "1042": {
      "enabled": false,
      "name": "Dagger",
      "stats": {
          "aspd": 0.12
      }
  },
  "1043": {
      "enabled": false,
      "name": "Recurve Bow",
      "stats": {
          "aspd": 0.25
      },
      "unique": [
          {
              "stats": {
                  "on_hit_physical": 15
              }
          }
      ]
  },
  "1051": {
      "enabled": false,
      "name": "Brawler's Gloves",
      "unique": [
            {
              "stats": {
                "critchance": 0.10
              }
            }
      ]
  },
  "1052": {
      "enabled": false,
      "name": "Amplifying Tome",
      "stats": {
          "ap": 20
      }
  },
  "1053": {
      "enabled": false,
      "name": "Vampiric Scepter",
      "stats": {
          "ad": 15,
          "lifesteal": 0.1
      }
  },
  "1054": {
      "enabled": false,
      "name": "Doran's Shield",
      "stats": {
          "hp": 80,
          "regen": 6
      },
      "unique": [
          {
              "stats": {
                  "regen": {
                      "value": 10,
                      "mod": {
                          "meleechampion": 0.9,
                          "rangedchampion": 0.6
                      }
                  }
              }
          }
      ]
  },
  "1055": {
      "enabled": false,
      "name": "Doran's Blade",
      "stats": {
          "ad": 8,
          "hp": 80,
          "lifesteal": 0.03
      }
  },
  "1056": {
      "enabled": false,
      "name": "Doran's Ring",
      "stats": {
          "ap": 15,
          "hp": 60,
          "mpregen_flat": 5
      }
  },
  "1057": {
      "enabled": false,
      "name": "Negatron Cloak",
      "stats": {
          "mr": 40
      }
  },
  "1058": {
      "enabled": false,
      "name": "Needlessly Large Rod",
      "stats": {
          "ap": 60
      }
  },
  "1082": {
      "enabled": false,
      "name": "The Dark Seal",
      "stats": {
          "mp": 100,
          "ap": 15
      },
      "unique":[{
      	"name": "doOrDie",
      	"stats":{
      	  "ap": 0
      	}
      }
      ]
  },
  "1083": {
      "enabled": false,
      "name": "Cull",
      "stats": {
          "ad": 7,
          "healperhit": 3
      }
  },
  "1400": {
      "limit": "GoldItemLimit",
      "special": "jungleAcquired",
      "enabled": true,
      "name": "Enchantment: Warrior",

              "stats": {
                  "Jungling": {
                      "ad": 60,
                      "cdr": 0.1,
                      "utility": [0.45,0.10,0.10]
                  }
              }

  },
  "1401": {
      "limit": "GoldItemLimit",
      "special": ["jungleAcquired","cinderhulk_burn"],
      "enabled": true,
      "name": "Enchantment: Cinderhulk",

      "stats": {
          "Jungling": {
            "hp": 300,
            "percentbonushp": 0.15,
            "utility": [0.45,0.10,0.10]
          }
      },
      "unique": [
           {
              "name": "immolate",
              "stats": {
                  "utility": {
                      "value": 0,
                      "mod": {
                          "meleechampion": 1,
                          "rangedchampion": 0.4
                      }
                  }
              }
          }
      ]

  },
  "1402": {
      "limit": "GoldItemLimit",
      "special": ["jungleAcquired","runic_echoes_proc"],
      "enabled": true,
      "name": "Enchantment: Runic Echoes",

              "stats": {
                  "Jungling": {
                      "ap": 80,
                      "mp": 300,
                      "cdr": 0.10,
                      "utility": [0.45,0.10,0.10]
                  }
              }

  },
  "1419": {
      "limit": "GoldItemLimit",
      "special": ["jungleAcquired","blood_razor_proc"],
      "enabled": true,
      "name": "Enchantment: Bloodrazor",
              "stats": {
                  "Jungling": {
                      "aspd": 0.5,
                      "utility": [0.45,0.10,0.10]
                  }
              }

  },
  "3340": {
      "enabled": false,
      "name": "Blank"
  },
  "2015": {
      "special": "kircheis_proc",
      "enabled": false,
      "name": "Kircheis Shard",
      "stats": {
          "aspd": 0.15
      }
  },
  "2051": {
      "limit": "GuardianLimit",
      "enabled": true,
      "name": "Guardian's Horn",
     
              "stats": {
                  "hp": 150,
                  "regen": {
                      "value": 20,
                      "mod": {
                          "meleechampion": 4,
                          "rangedchampion": 3
                      }
                  }
              }

  },
  "2065": {
      "enabled": true,
      "name": "Shurelya's Reverie",
      "stats": {
          "ap": 40,
          "hp": 200,
          "basempregen": 1.00
      },
      "unique": [
          {
              "stats": {
                  "cdr": 0.10,
                  "percentmovementspeed": 0.05,
                  "utility": 0.015,
                  "Supporting": {
                      "utility": 0.05
                  }
              }
          }
      ]
  },
  "3001": {
      "enabled": true,
      "name": "Abyssal Mask",
      "stats": {
          "hp": 350,
          "mp": 300,
          "mr": 55,
          "cdr": 0.1
      },
      "unique": [
          {
              "name": "catalystvariants",
              "stats": {
                  "catalyst_eternity": 20
              }
          },
          {
              "name": "abyssal",
              "stats": {
                  "magicdamageamp": 0.15,
                  "utility": {
                      "value": 0.005,
                      "mod": {
                          "itemprof": "sunfire"
                      }
                  }
              }
          }
      ]
  },
  "3003": {
      "special": ["manaBeforeTear","archangelStaff"],
      "enabled": true,
      "name": "Archangel's Staff",
      "stats": {
          "ap": 50,
          "mp": 650,
          "cdr": 0.1
      },
      "unique": [
          {
              "name": "haste",
              "stats": {
                  "cdr": 0.1
              }
          },
          {
              "name": "awe",
              "stats": {
                  "manarefundamount": 0.25
              }
          }
      ]
  },
  "3004": {
      "special": ["manaBeforeTear","muramana"],
      "enabled": true,
      "name": "Manamune",
      "stats": {
          "ad": 25,
          "mp": 250
      },
      "unique": [
          {
              "name": "awe",
              "stats": {
                  "manarefundamount": 0.15
              }
          }
      ]
  },
  "3006": {
      "enabled": true,
      "name": "Berserker's Greaves",
      "stats": {
          "BootsMSBoost": 45,
          "aspd": 0.35
      },
      "limit": "boots"
  },
  "3009": {
      "enabled": true,
      "name": "Boots of Swiftness",
      "stats": {
          "BootsMSBoost": 55,
          "utility": {
              "value": 0.03,
              "mod": {
                  "itemprof": "tenacity"
              }
          }
      },
      "limit": "boots"
  },
  "3010": {
      "enabled": false,
      "name": "Catalyst of Aeons",
      "stats": {
          "hp": 225,
          "mp": 300
      },
      "unique": [
          {
              "name": "catalystvariants",
              "stats": {
                  "catalyst_eternity": 20
              }
          }
      ]
  },
  "3020": {
      "enabled": true,
      "name": "Sorcerer's Shoes",
      "stats": {
          "BootsMSBoost": 45,
          "magicpen": 18
      },
      "limit": "boots"
  },
  "3022": {
      "enabled": true,
      "name": "Frozen Mallet",
      "stats": {
          "ad": 30,
          "hp": 700
      },
      "unique": [
          {
              "name": "customPermaSlow",
              "stats": {
                  "utility": {
                      "value": 0.08,
                      "mod": {
                          "meleechampion": 1,
                          "rangedchampion": 0.75,
                          "itemprof": "unimparedMovement"
                      }
                  }
              }
          }
      ]
  },
  "3024": {
      "enabled": false,
      "name": "Glacial Shroud",
      "stats": {
          "mp": 250,
          "armor": 20
      },
      "unique": [
          {
              "stats": {
                  "cdr": 0.1
              }
          }
      ]
  },
  "3025": {
      "special": ["sheen","sheen_iceborn"],
      "enabled": true,
      "name": "Iceborn Gauntlet",
      "stats": {
          "armor": 65,
          "mp": 500,
          "cdr": 0.2
      },
      "unique": [
          {
              "name": "customPermaSlow",
              "stats": {
                  "utility": {
                      "value": 0.04,
                      "mod": {
                          "itemprof": "unimparedMovement"
                      }
                  }
              }
          }
      ]
  },
  "3026": {
      "special": [
          "stopwatch",
          "guardian_revive"
      ],
      "enabled": true,
      "name": "Guardian Angel",
      "stats": {
          "armor": 40,
          "ad": 40
      },
      "unique": [
          {
              "stats": {
                  "utility": [0.02,0.04,0.08]
              }
          }
      ]
  },
  "3027": {
      "special": "RoAScaling",
      "enabled": true,
      "name": "Rod of Ages",
      "stats": {
          "ap": 60,
          "hp": 300,
          "mp": 300
      },
      "unique": [
          {
              "name": "catalystvariants",
              "stats": {
                  "catalyst_eternity": 20,
                  "RoACount": 1,
                  "goldwhenRoAbought": 0
              }
          }
      ]
  },
  "3030": {
      "special": "glp_active",
      "enabled": true,
      "name": "Hextech GLP-800",
      "stats": {
          "mp": 600,
          "ap": 80,
          "cdr": 0.1
      },
      "unique": [
          {
              "stats": {
                  "utility": 0.015
              }
          },
          {
              "name": "haste",
              "stats": {
                  "cdr": 0.1
              }
          }
      ]
  },
  "3031": {
      "special": "infinityedge",
      "enabled": true,
      "name": "Infinity Edge",
      "stats": {
          "ad": 70
      }
  },
  "3033": {
      "enabled": true,
      "name": "Mortal Reminder",
      "stats": {
          "ad": 40
      },
      "unique": [
          {
              "name": "grievouswoundsitems",
              "stats": {
                  "utility": {
                      "value": 0.05,
                      "mod": {
                          "itemprof": "GrievousWoundsMultiplier"
                      }
                  }
              }
          },
          {
              "name": "lastwhisper",
              "stats": {
                  "percentagearmorpen": 0.25
              }
          }
      ]
  },
  "3035": {
      "enabled": true,
      "name": "Last Whisper",
      "stats": {
          "ad": 10
      },
      "unique": [
          {
              "name": "lastwhisper",
              "stats": {
                  "percentagearmorpen": 0.10
              }
          }
      ]
  },
  "3036": {
      "enabled": true,
      "name": "Lord Dominik's Regards",
      "stats": {
          "ad": 40
      },
      "unique": [
          {
              "name": "lastwhisper",
              "stats": {
                  "percentagearmorpen": 0.35
              }
          }
      ]
  },
  "3041": {
      "enabled": false,
      "name": "Mejai's Soulstealer",
      "stats": {
          "mp": 200,
          "ap": 20
      },
      "unique":[{
      	"name": "doOrDie",
      	"stats":{
      	  "ap": 125
      	}
      }
      ]
  },
  "3044": {
      "enabled": false,
      "name": "Phage",
      "stats": {
          "hp": 200,
          "ad": 15
      },
      "unique": [
          {
              "name": "rage",
              "stats": {
                  "utility": {
                      "value": 0.03,
                      "mod": {
                          "meleechampion": 1,
                          "rangedchampion": 0.5
                      }
                  }
              }
          }
      ]
  },
  "3046": {
      "enabled": true,
      "name": "Phantom Dancer",
      "stats": {
          "aspd": 0.45,
          "critchance": 0.3,
          "percentmovementspeed": 0.05
      },
      "unique": [
          {
              "stats": {
                  "utility": {
                      "value": 0.04,
                      "mod": {
                          "itemprof": "sunfire"
                      }
                  },
                  "damagereduction": [
                      0.096,
                      0.078,
                      0.06
                  ]
              }
          }
      ]
  },
  "3047": {
      "enabled": true,
      "name": "Ninja Tabi",
      "stats": {
          "BootsMSBoost": 45,
          "armor": 20,
          "tabiautoreduction": 0.12
      },
      "limit": "boots"
  },
  "3050": {
      "enabled": true,
      "name": "Zeke's Convergence",
      "stats": {
          "mp": 250,
          "armor": 60,
          "mr": 30,
          "cdr": 0.1
      },
      "unique": [
          {
              "stats": {
                  "utility": {
                  	"value": 0.05,
                  	"mod": {"meleechampion": 1 , "rangedchampion":0.4}
                  },
                  "Supporting": {
                    "utility": {
                      "value": 0.11,
                    	"mod": {"meleechampion": 1 , "rangedchampion":0.6}
                    }
                  }
              }
          }
      ]
  },
  "3053": {
      "special": "steraks_effect",
      "restrictions": "meleeOnly",
      "enabled": true,
      "name": "Sterak's Gage",
      "stats": {
         "hp": 450
      },
      "unique": [
          {
              "stats": {
                      "utility": {
                          "value": "TenacityBonus",
                          "mod": {
                              "itemprof": "tenacity",
                              "meleechampion": 0.5
                          }
                      }
              }
          }
      ]
  },
  "3056": {
      "enabled": true,
      "name": "Ohmwrecker",
      "stats": {
          "hp": 300,
          "armor": 50,
          "baseregen": 1.5,
          "cdr": 0.1
      },
      "unique": [
          {
              "stats": {
                  "utility": {
                      "value": 0.04,
                      "mod": {
                          "meleechampion": 1.5,
                          "rangedchampion": 1
                      }
                  }
              }
          }
      ]
  },
  "3057": {
      "special": ["sheen","sheen_sheen"],
      "enabled": false,
      "name": "Sheen",
      "stats": {
          "mp": 250,
          "cdr": 0.1
      }
  },
  "3065": {
      "enabled": true,
      "name": "Spirit Visage",
      "stats": {
          "hp": 450,
          "mr": 55,
          "baseregen": 1,
          "cdr": 0.1
      },
      "unique": [
          {
              "stats": {
                  "spiritvisageheal": 0.3
              }
          }
      ]
  },
  "3067": {
      "enabled": false,
      "name": "Kindlegem",
      "stats": {
          "hp": 200
      },
      "unique": [
          {
              "stats": {
                  "cdr": 0.1
              }
          }
      ]
  },
  "3068": {
      "special": "sunfire_aoe",
      "enabled": true,
      "name": "Sunfire Cape",
      "stats": {
          "armor": 60,
          "hp": 425
      },
      "unique": [
          {
              "name": "immolate",
              "stats": {
                  "utility": {
                      "value": 0.015,
                      "mod": {
                          "meleechampion": 1,
                          "rangedchampion": 0.4
                      }
                  }
              }
          }
      ]
  },
  "3069": {
      "enabled": true,
      "limit": "GoldItemLimit",
      "special": "ancientCoinMana",
      "name": "Remnant of the Ascended",

              "stats": {
                  "hp": 200,
                  "baseregen": 1.25,
                  "cdr": 0.1,
                  "flatMS": 10,
                  "GoldGenerationPerMinute": 12,
                  "utility": "SupportItemPenalty",
                  "Supporting": {
                      "GoldGenerationPerMinute": {
                          "value": 40,
                          "mod": {
                              "meleechampion": 1,
                              "rangedchampion": 1
                          }
                      },
                      "GoldDiscountOnPurchase": 350,
                      "utility": [0.20,0.05,0.05]
                  }
              },
          "unique":[
          	{
              "name": "sightstone",
              "stats": {
                  "utility": {
                      "value": "SightStoneBonus4",
                      "mod": {
                          "meleechampion": 0,
                          "rangedchampion": 0
                      }
                  },
                  "Supporting": {
                      "utility": {
                          "value": "SightStoneBonus4",
                          "mod": {
                              "meleechampion": 1,
                              "rangedchampion": 1
                          }
                      }
                  }
              }
          }
          ]
  },
  "3070": {
      "special": "manaBeforeTear",
      "enabled": false,
      "name": "Tear of the Goddess",
      "stats": {
          "mp": 250
      }
  },
  "3071": {
      "enabled": true,
      "name": "The Black Cleaver",
      "stats": {
          "ad": 40,
          "hp": 400,
          "cdr": 0.2
      },
      "unique": [
          {
              "name": "cleavershred",
              "stats": {
                  "percentagearmorreduction": {
                      "value": 0.24,
                      "mod": {
                          "itemprof": "cleaver"
                      }
                  }
              }
          },
          {
              "name": "rage",
              "stats": {
                  "utility": {
                      "value": 0.03,
                      "mod": {
                          "meleechampion": 1,
                          "rangedchampion": 0.5
                      }
                  }
              }
          }
      ]
  },
  "3072": {
      "special": "blood_thirster",
      "enabled": true,
      "name": "The Bloodthirster",
      "stats": {
          "ad": 80
      },
      "unique": [
          {
              "stats": {
                  "lifesteal": 0.2
              }
          }
      ]
  },
  "3074": {
      "special": ["tiamatactive","ravenousLifesteal"],
      "restrictions":"meleeOnly",
      "enabled": true,
      "name": "Ravenous Hydra",
      "stats": {
              "ad": 80,
              "baseregen": 1,
              "lifesteal": 0.12

      },
      "unique": [
          {
              "name": "tiamat",
              "stats": {
                      "utility": {
                          "value": [
                              0.08,
                              0.06,
                              0.04
                          ],
                          "mod": {
                              "itemprof": "tiamatproficiency"
                          }
                      }
              }
          }
      ]
  },
  "3075": {
      "special": [
          "coldsteel",
          "thorn_reflect"
      ],
      "enabled": true,
      "name": "Thornmail",
      "stats": {
          "armor": 80,
          "hp": 250
      },
      "unique": [
          {
              "name": "grievouswoundsitems",
              "stats": {
                  "utility": {
                      "value": 0.03,
                      "mod": {
                          "itemprof": "GrievousWoundsMultiplier"
                      }
                  }
              }
          }
      ]
  },
  "3076": {
      "special": "bramble_reflect",
      "enabled": false,
      "name": "Bramble Vest",
      "stats": {
          "armor": 35
      },
      "unique": [
          {
              "name": "grievouswoundsitems",
              "stats": {
                  "utility": {
                      "value": 0.02,
                      "mod": {
                          "itemprof": "GrievousWoundsMultiplier",
                          "meleechampion": 1.5,
                          "rangedchampion": 1
                      }
                  }
              }
          }
      ]
  },
  "3077": {
      "special": "tiamatactive",
      "restrictions": "meleeOnly",
      "enabled": true,
      "name": "Tiamat",
      "stats": {
              "ad": 25,
              "baseregen": 0.5
      },
      "unique": [
          {
              "name": "tiamat",
              "stats": {
                      "utility": {
                          "value": 0.02,
                          "mod": {
                              "itemprof": "tiamatproficiency"
                          }
                      }
              }
          }
      ]
  },
  "3078": {
      "special": ["sheen","sheen_trinity"],
      "enabled": true,
      "name": "Trinity Force",
      "stats": {
          "ad": 25,
          "aspd": 0.4,
          "hp": 250,
          "mp": 250,
          "cdr": 0.2,
          "percentmovementspeed": 0.05
      },
      "unique": [
          {
              "name": "rage",
              "stats": {
                  "utility": {
                      "value": 0.03,
                      "mod": {
                          "meleechampion": 1,
                          "rangedchampion": 0.5
                      }
                  }
              }
          }
      ]
  },
  "3082": {
      "special": "coldsteel",
      "enabled": false,
      "name": "Warden's Mail",
      "stats": {
          "armor": 40
      }
  },
  "3083": {
  	  "special": "warmogsRegen",
      "enabled": true,
      "name": "Warmog's Armor",
      "stats": {
          "hp": 800,
          "baseregen": 2
      },
      "unique": [
          {
              "stats": {
                  "utility": -0.01,
                  "cdr": 0.1
              }
          }
      ]
  },
  "3085": {
  	  "special": "runaan_proc",
  	  "restrictions": "rangedOnly",
      "enabled": true,
      "name": "Runaan's Hurricane",
      "stats": {
          "aspd": 0.4,
          "critchance": 0.3,
          "percentmovementspeed": 0.07
      },
      "unique": [
          {
              "stats": {
                  "utility": 0.015
              }
          }
      ]
  },
  "3086": {
      "enabled": false,
      "name": "Zeal",
      "stats": {
          "aspd": 0.15,
          "critchance": 0.15
      },
      "unique": [
          {
              "stats": {
                  "percentmovementspeed": 0.05
              }
          }
      ]
  },
  "3087": {
      "special": "statikk_proc",
      "enabled": true,
      "name": "Statikk Shiv",
      "stats": {
          "aspd": 0.35,
          "critchance": 0.3,
          "percentmovementspeed": 0.05
      },
      "unique": [
          {
              "stats": {
                  "utility": 0.035
              }
          }
      ]
  },
  "3089": {
      "enabled": true,
      "name": "Rabadon's Deathcap",
      "stats": {
          "ap": 120
      },
      "unique": [
          {
              "name": "rabadon",
              "stats": {
                  "ap_amplification": 0.4
              }
          }
      ]
  },
  "3090": {
      "special": "stopwatch",
      "enabled": true,
      "name": "Wooglet's Witchcap",
      "stats": {
          "ap": 100,
          "armor": 45
      },
      "unique": [
          {
              "stats": {
                  "ap_amplification": 0.25
              }
          },
          {
              "name": "zhonyasactive",
              "stats": {
                  "utility": {
                      "value": 0.16,
                      "mod": {
                          "itemprof": "zhonyas"
                      }
                  }
              }
          }
      ]
  },
  "3091": {
      "enabled": true,
      "name": "Wit's End",
      "stats": {
          "aspd": 0.4,
          "mr": 40
      },
      "unique": [
          {
              "stats": {
                  "on_hit_magical": 42,
                  "mr": {
                      "value": 30,
                      "mod": {
                          "itemprof": "witsend",
                          "meleechampion": 1,
                          "rangedchampion": 0.7
                      }
                  },
                  "mrreduction": {
                      "value": 25,
                      "mod": {
                          "itemprof": "witsend"
                      }
                  },
                  "utility": {
                      "value": 0.01,
                      "mod": {
                          "itemprof": "witsend"
                      }
                  }
              }
          }
      ]
  },
  "3092": {
      "enabled": true,
      "limit": "GoldItemLimit",
      "name": "Remnant of the Watchers",   
              "stats": {
                  "hp": 200,
                  "ap": 35,
                  "basempregen": 0.5,
                  "cdr": 0.1,
                  "tributedamage": 18,
                  "GoldGenerationPerMinute": 12,
                  "utility": "SupportItemPenalty",
                  "Supporting": {
                      "GoldGenerationPerMinute": {
                          "value": 20,
                          "mod": {
                              "meleechampion": 0.4,
                              "rangedchampion": 1,
                              "attackrangeSpecialMod": 1
                          }
                      },
                      "GoldDiscountOnPurchase": {
                          "value": 270,
                          "mod": {
                              "meleechampion": 0.4,
                              "rangedchampion": 1,
                              "attackrangeSpecialMod": 1
                          }
                      },
                      "utility": [0.20,0.05,0.05]
                  }
              },

      "unique": [
          {
              "name": "sightstone",
              "stats": {
                  "utility": {
                      "value": "SightStoneBonus4",
                      "mod": {
                          "meleechampion": 0,
                          "rangedchampion": 0
                      }
                  },
                  "Supporting": {
                      "utility": {
                          "value": "SightStoneBonus4",
                          "mod": {
                              "meleechampion": 1,
                              "rangedchampion": 1
                          }
                      }
                  }
              }
          }
      ]
  },
  "3094": {
      "special": "rapid_fire_proc",
      "enabled": true,
      "name": "Rapid Firecannon",
      "stats": {
          "aspd": 0.3,
          "critchance": 0.3,
          "percentmovementspeed": 0.05
      },
      "unique": [
          {
              "stats": {
                  "utility": {
                      "value": 0.07,
                      "mod": {
                          "meleechampion": 0.1,
                          "rangedchampion": 1
                      }
                  }
              }
          }
      ]
  },
  "3095": {
      "special": "stormrazor_proc",
      "enabled": true,
      "name": "Stormrazor",
      "stats": {
          "ad": 60,
          "aspd": 0.35
      },
      "unique": [
          {
            "stats":{
              "utility": 0.03
            }
          }
      ]
  },
  "3096": {
      "enabled": true,
      "special": "ancientCoinMana",
      "name": "Nomad's Medallion",
              "limit": "GoldItemLimit",
              "stats": {
                  "baseregen": 0.50,
                  "cdr": 0.1,
                  "flatMS": 10,
                  "GoldGenerationPerMinute": 12,
                  "utility": "SupportItemPenalty",
                  "Supporting": {
                      "GoldGenerationPerMinute": {
                          "value": 40,
                          "mod": {
                              "meleechampion": 1,
                              "rangedchampion": 1
                          }
                      },
                      "GoldDiscountOnPurchase": 50,
                      "utility": [0.20,0.05,0.05]
                  }
              },
      "unique": [
          
          {
              "name": "sightstone",
              "stats": {
                  "utility": {
                      "value": "SightStoneBonus4",
                      "mod": {
                          "meleechampion": 0,
                          "rangedchampion": 0
                      }
                  },
                  "Supporting": {
                      "utility": {
                          "value": "SightStoneBonus4",
                          "mod": {
                              "meleechampion": 1,
                              "rangedchampion": 1
                          }
                      }
                  }
              }
          }
      ]
  },
  "3097": {
      "enabled": true,
      "name": "Targon's Brace",
              "limit": "GoldItemLimit",
              "stats": {
                  "hp": 125,
                  "baseregen": 0.50,
                  "GoldGenerationPerMinute": 6,
                  "utility": "SupportItemPenalty",
                  "Supporting": {
                      "GoldGenerationPerMinute": {
                          "value": 40,
                          "mod": {
                              "meleechampion": 0.9,
                              "rangedchampion": 0.6
                          }
                      },
                      "GoldDiscountOnPurchase": 50,
                      "utility": [0.20,0.05,0.05]
                  }
              },
      "unique": [

          {
              "name": "sightstone",
              "stats": {
                  "utility": {
                      "value": "SightStoneBonus4",
                      "mod": {
                          "meleechampion": 0,
                          "rangedchampion": 0
                      }
                  },
                  "Supporting": {
                      "utility": {
                          "value": "SightStoneBonus4",
                          "mod": {
                              "meleechampion": 1,
                              "rangedchampion": 1
                          }
                      }
                  }
              }
          }
      ]
  },
  "3098": {
      "enabled": true,
      "name": "Frostfang",
              "limit": "GoldItemLimit",
              "stats": {
                  "ap": 20,
                  "basempregen": 0.5,
                  "cdr": 0.1,
                  "tributedamage": 18,
                  "GoldGenerationPerMinute": 12,
                  "utility": "SupportItemPenalty",
                  "Supporting": {
                      "GoldGenerationPerMinute": {
                          "value": 20,
                          "mod": {
                              "meleechampion": 0.4,
                              "rangedchampion": 1,
                              "attackrangeSpecialMod": 1
                          }
                      },

                      "utility": [0.20,0.05,0.05]
                  }

          },
      "unique": [  
          {
              "name": "sightstone",
              "stats": {
                  "utility": {
                      "value": "SightStoneBonus4",
                      "mod": {
                          "meleechampion": 0,
                          "rangedchampion": 0
                      }
                  },
                  "Supporting": {
                      "utility": {
                          "value": "SightStoneBonus4",
                          "mod": {
                              "meleechampion": 1,
                              "rangedchampion": 1
                          }
                      }
                  }
              }
          }
      ]
  },
  "3100": {
      "special": ["sheen","sheen_lich"],
      "enabled": true,
      "name": "Lich Bane",
      "stats": {
          "ap": 80,
          "mp": 250,
          "percentmovementspeed": 0.07,
          "cdr": 0.1
      }
  },
  "3101": {
      "enabled": false,
      "name": "Stinger",
      "stats": {
          "aspd": 0.35
      },
      "unique": [
          {
              "stats": {
                  "cdr": 0.1
              }
          }
      ]
  },
  "3102": {
      "enabled": true,
      "name": "Banshee's Veil",
      "stats": {
          "ap": 75,
          "mr": 60,
          "cdr": 0.1
      },
      "unique": [
          {
              "stats": {
                  "utility": {
                      "value": 0.1,
                      "mod": {
                          "meleechampion": 0.9,
                          "rangedchampion": 0.7
                      }
                  }
              }
          }
      ]
  },
  "3104": {
      "enabled": true,
      "name": "Lord Van Damm's Pillager",
      "stats": {
          "hp": 300,
          "ad": 50,
          "cdr": 0.1
      }
  },
  "3107": {
      "enabled": true,
      "name": "Redemption",
      "stats": {
          "hp": 200,
          "baseregen": 0.5,
          "basempregen": 1.5,
          "cdr": 0.1
      },
      "unique": [
          {
              "stats": {
                  "healshieldproficiency": 0.08
              }
          },
          {
              "name": "redemptionactive",
              "stats": {
                  "utility": 0.03,
                  "Supporting": {
                      "utility": 0.04
                  }
              }
          }
      ]
  },
  "3108": {
      "enabled": false,
      "name": "Fiendish Codex",
      "stats": {
          "ap": 35
      },
      "unique": [
          {
              "stats": {
                  "cdr": 0.1
              }
          }
      ]
  },
  "3109": {
      "enabled": true,
      "name": "Knight's Vow",
      "stats": {
          "hp": 250,
          "armor": 40,
          "cdr": 0.1
      },
      "unique": [
          {
              "stats": {
                  "armor": 14,
                  "utility": {
                      "value": 0.05,
                      "mod": {
                          "meleechampion": 1,
                          "rangedchampion": 0.6
                      }
                  },
                  "Supporting": {
                      "utility": {
                          "value": 0.06,
                          "mod": {
                              "meleechampion": 1,
                              "rangedchampion": 0.5
                          }
                      }
                  }
              }
          }
      ]
  },
  "3110": {
      "special": "frozen_aura",
      "enabled": true,
      "name": "Frozen Heart",
      "stats": {
          "armor": 100,
          "mp": 400,
          "cdr": 0.2
      },
      "unique": [
          {
              "stats": {
                  "utility": {
                      "value": 0.01,
                      "mod": {
                          "meleechampion": 1.5,
                          "rangedchampion": 1
                      }
                  },
                  "Supporting": {
                      "utility": {
                          "value": 0.01,
                          "mod": {
                              "meleechampion": 1.5,
                              "rangedchampion": 1
                          }
                      }
                  }
              }
          }
      ]
  },
  "3111": {
      "enabled": true,
      "name": "Mercury's Treads",
      "stats": {
          "BootsMSBoost": 45,
          "mr": 25
      },
      "unique": [
          {
              "name": "tenacity",
              "stats": {
                  "utility": {
                      "value": "TenacityBonus",
                      "mod": {
                          "itemprof": "tenacity"
                      }
                  }
              }
          }
      ],
      "limit": "boots"
  },
  "3112": {
      "limit": "GuardianLimit",
      "enabled": true,
      "name": "Guardian's Orb",

              "stats": {
                  "hp": 150,
                  "ap": 35,
                  "mpregen_flat": 10
              }

  },
  "3113": {
      "enabled": false,
      "name": "Aether Wisp",
      "stats": {
          "ap": 30
      },
      "unique": [
          {
              "stats": {
                  "percentmovementspeed": 0.05
              }
          }
      ]
  },
  "3115": {
      "special": "nashors",
      "enabled": true,
      "name": "Nashor's Tooth",
      "stats": {
          "ap": 80,
          "aspd": 0.5
      },
      "unique": [
          {
              "stats": {
                  "cdr": 0.2
              }
          }
      ]
  },
  "3116": {
      "enabled": true,
      "name": "Rylai's Crystal Scepter",
      "stats": {
          "hp": 300,
          "ap": 90
      },
      "unique": [
          {
              "name": "customPermaSlow",
              "stats": {
                  "utility": {
                      "value": 0.14,
                      "mod": {
                          "itemprof": ["unimparedMovement", "rylais"]
                      }
                  }
              }
          }
      ]
  },
  "3117": {
      "enabled": true,
      "name": "Boots of Mobility",
      "stats": {
          "BootsMSBoost": 25,
          "outofcombatms": 90,
          "Supporting": {
              "utility": [
                  0.06,
                  0.04,
                  0.02
              ]
          },
          "Jungling": {
              "utility": {
                  "value": 0.03,
                  "mod": {
                      "itemprof": "movementspeedproficiency"
                  }
              }
          }
      },
      "limit": "boots"
  },
  "3123": {
      "enabled": true,
      "name": "Executioner's Calling",
      "stats": {
          "ad": 15
      },
      "unique": [
          {
              "name": "grievouswoundsitems",
              "stats": {
                  "utility": {
                      "value": "executionersCallingUtility",
                      "mod": {
                          "itemprof": "GrievousWoundsMultiplier",
                          "champspec": "ADchampion"
                      }
                  }
              }
          }
      ]
  },
  "3124": {
      "special": "guinsoo",
      "enabled": true,
      "name": "Guinsoo's Rageblade",
      "stats": {
          "ad": 25,
          "ap": 25,
          "aspd": 0.25
      }
  },
  "3133": {
      "enabled": false,
      "name": "Caulfield's Warhammer",
      "stats": {
          "ad": 25
      },
      "unique": [
          {
              "stats": {
                  "cdr": 0.10
              }
          }
      ]
  },
  "3134": {
      "special": "serrated_proc",
      "enabled": false,
      "name": "Serrated Dirk",
      "stats": {
          "ad": 25
      },
      "unique": [
          {
              "stats": {
                  "lethality": 10
              }
          }
      ]
  },
  "3135": {
      "enabled": true,
      "name": "Void Staff",
      "stats": {
          "ap": 70
      },
      "unique": [
          {
              "stats": {
                  "percentagemagicpen": 0.4
              }
          }
      ]
  },
  "3136": {
      "special": "madness",
      "enabled": true,
      "name": "Haunting Guise",
      "stats": {
          "hp": 200,
          "ap": 35
      }
  },
  "3139": {
      "enabled": true,
      "name": "Mercurial Scimitar",
      "stats": {
          "ad": 50,
          "mr": 35,
          "lifesteal": 0.1
      },
      "unique": [
          {
              "stats": {
                  "utility": 0.04
              }
          },
          {
              "name": "quicksilver",
              "stats": {
                  "utility": 0.06
              }
          }
      ]
  },
  "3140": {
      "enabled": true,
      "name": "Quicksilver Sash",
      "stats": {
          "mr": 30
      },
      "unique": [
          {
              "name": "quicksilver",
              "stats": {
                  "utility": 0.06
              }
          }
      ]
  },
  "3142": {
      "enabled": true,
      "name": "Youmuu's Ghostblade",
      "stats": {
          "ad": 55,
          "cdr": 0.1
      },
      "unique": [
          {
              "stats": {
                  "lethality": 18,
                  "outofcombatms": 40,
                  "utility": {
                      "value": 0.05,
                      "mod": {
                          "itemprof": "movementspeedproficiency",
                          "meleechampion": 1.3,
                          "rangedchampion": 1
                      }
                  }
              }
          }
      ]
  },
  "3143": {
      "special": "coldsteel",
      "enabled": true,
      "name": "Randuin's Omen",
      "stats": {
          "armor": 60,
          "hp": 400
      },
      "unique": [
          {
              "stats": {
                  "critblock": 0.2,
                  "utility": {
                      "value": 0.04,
                      "mod": {
                          "meleechampion": 1,
                          "rangedchampion": 0.5
                      }
                  }
              }
          }
      ]
  },
  "3145": {
      "special": "revolver_proc",
      "enabled": false,
      "name": "Hextech Revolver",
      "stats": {
          "ap": 40
      }
  },
  "3146": {
      "special": "gunblade",
      "enabled": true,
      "name": "Hextech Gunblade",
      "stats": {
          "ad": 40,
          "ap": 80
      },
      "unique": [
          {
              "stats": {
                  "omnivamp": 0.15,
                  "utility": 0.02
              }
          }
      ]
  },
  "3147": {
      "special": "dusk_proc",
      "enabled": true,
      "name": "Duskblade of Draktharr",
      "stats": {
          "ad": 55,
          "cdr": 0.1
      },
      "unique": [
          {
              "stats": {
                  "lethality": 21,
                  "utility": 0.01
              }
          }
      ]
  },
  "3151": {
      "special": ["madness","liandriesBurn"],
      "enabled": true,
      "name": "Liandry's Torment",
      "stats": {
          "ap": 80,
          "hp": 300
      }
  },
  "3152": {
      "special": "protobelt",
      "enabled": true,
      "name": "Hextech Protobelt-01",
      "stats": {
          "ap": 60,
          "hp": 300,
          "cdr": 0.1
      },
      "unique": [
          {
              "stats": {
                  "utility": 0.02
              }
          }
      ]
  },
  "3153": {
      "special": "ruined_king",
      "enabled": true,
      "name": "Blade of the Ruined King",
      "stats": {
          "ad": 40,
          "aspd": 0.25,
          "lifesteal": 0.12
      },
      "unique": [
          {
              "stats": {
                  "utility": {
                      "value": 0.03,
                      "mod": {
                          "itemprof": "movementspeedproficiency"
                      }
                  }
              }
          }
      ]
  },
  "3155": {
      "special": "lifeline_hexdrinker",
      "enabled": true,
      "name": "Hexdrinker",
      "stats": {
          "ad": 20,
          "mr": 35,
          "utility": -0.03
      }
  },
  "3156": {
      "special": "lifeline_mawofmalmortius",
      "enabled": true,
      "name": "Maw of Malmortius",
      "stats": {
          "ad": 50,
          "mr": 50,
          "cdr": 0.1
      },
      "unique": [
          {
              "stats": {
                  "ad": 6,
                  "lifesteal": 0.03,
                  "spellvamp": 0.03
              }
          }
      ]
  },
  "3157": {
      "special": "stopwatch",
      "enabled": true,
      "name": "Zhonya's Hourglass",
      "stats": {
          "ap": 75,
          "armor": 45,
          "cdr": 0.1
      },
      "unique": [
          {
              "name": "zhonyasactive",
              "stats": {
                  "utility": {
                      "value": 0.16,
                      "mod": {
                          "itemprof": "zhonyas"
                      }
                  }
              }
          }
      ]
  },
  "3158": {
      "enabled": true,
      "name": "Ionian Boots of Lucidity",
      "stats": {
          "BootsMSBoost": 45,
          "cdr": 0.1,
          "utility": 0.015
      },
      "limit": "boots"
  },
  "3165": {
      "enabled": true,
      "name": "Morellonomicon",
      "stats": {
          "ap": 80,
          "hp": 300
      },
      "unique": [
          {
              "name": "touchofdeath",
              "stats": {
                  "magicpen": 15
              }
          },
          {
              "name": "grievouswoundsitems",
              "stats": {
                  "utility": {
                      "value": 0.05,
                      "mod": {
                          "itemprof": "GrievousWoundsMultiplier"
                      }
                  }
              }
          }
      ]
  },
  "3170": {
      "enabled": true,
      "name": "Moonflair Spellblade",
      "stats": {
          "ap": 50,
          "armor": 50,
          "mr": 50
      },
      "unique": [
          {
              "name": "tenacity",
              "stats": {
                  "utility": {
                      "value": "TenacityBonus",
                      "mod": {
                          "itemprof": "tenacity"
                      }
                  }
              }
          }
      ]
  },
  "3174": {
      "enabled": true,
      "name": "Athene's Unholy Grail",
      "stats": {
          "ap": 30,
          "mr": 30,
          "basempregen": 1,
          "cdr": 0.1
      },
      "unique": [
          {
              "stats": {
                  "dissonance": 1,
                  "mpregen_to_ap": 20,
                  "utility": {
                      "value": 0.04,
                      "mod": {
                          "itemprof": "ardentcenser"
                      }
                  }
              }
          }
      ]
  },
  "3184": {
      "limit": "GuardianLimit",
      "enabled": true,
      "name": "Guardian's Hammer",

              "stats": {
                  "hp": 150,
                  "ad": 20,
                  "lifesteal": 0.1
              }

  },
  "3190": {
      "enabled": true,
      "name": "Locket of the Iron Solari",
      "stats": {
          "armor": 30,
          "mr": 60
      },
      "unique": [
          {
              "name": "solariactive",
              "stats": {
                  "utility": [
                      0,
                      0.015,
                      0.03
                  ],
                  "Supporting": {
                      "utility": 0.02
                  }
              }
          }
      ]
  },
  "3191": {
      "enabled": false,
      "name": "Seeker's Armguard",
      "stats": {
          "armor": 30,
          "ap": 20
      },
      "unique": [
          {
              "stats": {
                  "armor": 15,
                  "ap": 15
              }
          }
      ]
  },
  "3193": {
      "special": ["stopwatch","stonePlateActive"],
      "enabled": true,
      "name": "Gargoyle Stoneplate",
      "stats": {
          "armor": 40,
          "mr": 40
      },
      "unique": [
          {
              "stats": {
                  "armor": [
                      0,
                      15,
                      30
                  ],
                  "mr": [
                      0,
                      15,
                      30
                  ],
                  "utility": {
                      "value": 0.05,
                      "mod": {
                          "meleechampion": 1,
                          "rangedchampion": 0.4
                      }
                  }
              }
          }
      ]
  },
  "3194": {
      "enabled": true,
      "name": "Adaptive Helm",
      "stats": {
          "hp": 350,
          "mr": 55,
          "baseregen": 1,
          "cdr": 0.1
      },
      "unique": [
          {
              "stats": {
                  "utility": 0.08
              }
          }
      ]
  },
  "3198": {
      "special": "perfecthex",
      "enabled": true,
      "name": "Perfect Hex Core"
  },
  "3222": {
      "special": "chalice",
      "enabled": true,
      "name": "Mikael's Crucible",
      "stats": {
          "mr": 40,
          "basempregen": 1,
          "cdr": 0.1
      },
      "unique": [
          {
              "stats": {
                  "healshieldproficiency": 0.15,
                  "utility": 0.05,
                  "Supporting": {
                      "utility": 0.08
                  }
              }
          }
      ]
  },
  "3285": {
      "special": "luden_proc",
      "enabled": true,
      "name": "Luden's Echo",
      "stats": {
          "ap": 90,
          "mp": 600,
          "cdr": 0.1
      },
      "unique": [
          {
              "name": "haste",
              "stats": {
                  "cdr": 0.1
              }
          }
      ]
  },
  "3306": {
      "special": "ancientCoinMana",
      "enabled": true,
      "name": "Timeworn Talisman of Ascension",

      "limit": "GoldItemLimit",
              "stats": {
                  "armor": 45,
                  "baseregen": 1.75,
                  "cdr": 0.1,
                  "flatMS": 10,
                  "utility": {
                      "value": 0.04,
                      "mod": {
                          "itemprof": "movementspeedproficiency"
                      }
                  },
                  "GoldGenerationPerMinute": 12,
                  "Supporting": {
                      "GoldGenerationPerMinute": 40,
                      "GoldDiscountOnPurchase": 300,
                      "utility": [0.20,0.05,0.05]
                  }
              
          },
      "unique": [
          {
              "name": "pointrunner",
              "stats": {
                  "utility": {
                      "value": 0.05,
                      "mod": {
                          "itemprof": "movementspeedproficiency"
                      }
                  }
              }
          }
      ]
  },
  "3309": {
      "special": "faceOfTheMountainShield",
      "limit": "GoldItemLimit",
      "enabled": true,
      "name": "Timeworn Face of the Mountain",

              "stats": {
                  "hp": 300,
                  "baseregen": 1,
                  "cdr": 0.1,
                  "utility": {
                      "value": 0.04,
                      "mod": {
                          "meleechampion": 1,
                          "rangedchampion": 0.75
                      }
                  },
                  "GoldGenerationPerMinute": 12,
                  "Supporting": {
                      "GoldGenerationPerMinute": {
                          "value": 20,
                          "mod": {
                              "meleechampion": 0.95,
                              "rangedchampion": 0.55
                          }
                      },
                      "GoldDiscountOnPurchase": 220,
                      "utility": [0.20,0.05,0.05]
                  }
              }

  },
  "3312": {
      "limit": "GoldItemLimit",
      "enabled": true,
      "name": "Timeworn Frost Queen's Claim",
      "stats":{
            "ap": 60,
            "basempregen": 0.5,
            "cdr": 0.1,
            "tributedamage": 18,
            "utility": 0.03,
            "GoldGenerationPerMinute": 12,
            "Supporting": {
            	"GoldGenerationPerMinute": {
		            "value": 20,
		            "mod": {
		           	 "meleechampion": 0.4,
		           	 "rangedchampion": 1
		           	}
                },
                "GoldDiscountOnPurchase": 270,
                "utility": [0.20,0.05,0.05]
            }
      }
  },
  "3371": {
      "limit": "OrnnLimit",
      "name": "Molten Edge",
      "special": "infinityedge",
      "stats": {
          "ad": 110
      }
  },
  "3373": {
      "limit": "OrnnLimit",
      "name": "Forgefire Cape",
      "special": "sunfire_aoe",
      "stats": {
          "armor": 90,
          "hp": 625
      },
      "unique": [
          {
              "name": "immolate",
              "stats": {
                  "utility": {
                      "value": 0.015,
                      "mod": {
                          "meleechampion": 1,
                          "rangedchampion": 0.4
                      }
                  }
              }
          }
      ]
  },
  "3374": {
      "limit": "OrnnLimit",
      "name": "Rabadon's Deathcrown",
      "stats": {
          "ap": 175
      },
      "unique": [
          {
              "name": "rabadon",
              "stats": {
                  "ap_amplification": 0.4
              }
          }
      ]
  },
  "3379": {
      "limit": "OrnnLimit",
      "name": "Infernal Mask",
      "stats": {
          "hp": 550,
          "mp": 300,
          "mr": 90,
          "cdr": 0.1
      },
      "unique": [
          {
              "name": "catalystvariants",
              "stats": {
                  "catalyst_eternity": 20
              }
          },
          {
              "name": "abyssal",
              "stats": {
                  "magicdamageamp": 0.15,
                  "utility": {
                      "value": 0.005,
                      "mod": {
                          "itemprof": "sunfire"
                      }
                  }
              }
          }
      ]
  },
  "3380": {
      "limit": "OrnnLimit",
      "name": "Obsidian Cleaver",
      "stats": {
          "ad": 60,
          "hp": 550,
          "cdr": 0.2
      },
      "unique": [
          {
              "name": "cleavershred",
              "stats": {
                  "percentagearmorreduction": {
                      "value": 0.24,
                      "mod": {
                          "itemprof": "cleaver"
                      }
                  }
              }
          },
          {
              "name": "rage",
              "stats": {
                  "utility": {
                      "value": 0.03,
                      "mod": {
                          "meleechampion": 1,
                          "rangedchampion": 0.5
                      }
                  }
              }
          }
      ]
  },
  "3382": {
      "limit": "OrnnLimit",
      "name": "Salvation",
      "stats": {
          "hp": 300,
          "baseregen": 1.5,
          "basempregen": 2,
          "cdr": 0.1
      },
      "unique": [
          {
              "stats": {
                  "healshieldproficiency": 0.08
              }
          },
          {
              "name": "redemptionactive",
              "stats": {
                  "utility": 0.03,
                  "Supporting": {
                      "utility": 0.03
                  }
              }
          }
      ]
  },
  "3383": {
      "limit": "OrnnLimit",
      "name": "Circlet of the Iron Solari",
      "stats": {
          "armor": 45,
          "mr": 75
      },
      "unique": [
          {
              "name": "solariactive",
              "stats": {
                  "utility": [
                      0,
                      0.015,
                      0.03
                  ],
                  "Supporting": {
                      "utility": 0.02
                  }
              }
          }
      ]
  },
  "3384": {
      "limit": "OrnnLimit",
      "special": ["sheen","sheen_trinity"],
      "name": "Trinity Fusion",
      "stats": {
          "ad": 35,
          "aspd": 0.5,
          "hp": 350,
          "mp": 350,
          "cdr": 0.2,
          "percentmovementspeed": 0.08
      },
      "unique": [
          {
              "name": "rage",
              "stats": {
                  "utility": {
                      "value": 0.03,
                      "mod": {
                          "meleechampion": 1,
                          "rangedchampion": 0.5
                      }
                  }
              }
          }
      ]
  },
  "3386": {
      "limit": "OrnnLimit",
      "name": "Zhonya's Paradox",
      "stats": {
          "ap": 100,
          "armor": 60,
          "cdr": 0.1
      },
      "unique": [
          {
              "name": "zhonyasactive",
              "stats": {
                  "utility": {
                      "value": 0.16,
                      "mod": {
                          "itemprof": "zhonyas"
                      }
                  }
              }
          }
      ]
  },
  "3401": {
      "enabled": true,
      "name": "Remnant of the Aspect",

              "limit": "GoldItemLimit",
              "stats": {
                  "hp": 350,
                  "baseregen": 2,
                  "cdr": 0.1,
                  "GoldGenerationPerMinute": 6,
                  "utility": "SupportItemPenalty",
                  "Supporting": {
                      "GoldGenerationPerMinute": {
                          "value": 40,
                          "mod": {
                              "meleechampion": 0.9,
                              "rangedchampion": 0.6
                          }
                      },
                      "GoldDiscountOnPurchase": 300,
                      "utility": [0.20,0.05,0.05]
                  }
              
          },
      "unique": [
          
          {
              "name": "sightstone",
              "stats": {
                  "utility": {
                      "value": "SightStoneBonus4",
                      "mod": {
                          "meleechampion": 0,
                          "rangedchampion": 0
                      }
                  },
                  "Supporting": {
                      "utility": {
                          "value": "SightStoneBonus4",
                          "mod": {
                              "meleechampion": 1,
                              "rangedchampion": 1
                          }
                      }
                  }
              }
          }
      ]
  },
  "3504": {
      "special": "ardentcenserbuff",
      "enabled": true,
      "name": "Ardent Censer",
      "stats": {
          "ap": 60,
          "basempregen": 0.5,
          "cdr": 0.1,
          "percentmovementspeed": 0.08
      },
      "unique": [
          {
              "stats": {
                  "healshieldproficiency": 0.08,
                  "utility": {
                      "value": 0.01,
                      "mod": {
                          "itemprof": "ardentcenser"
                      }
                  },
                  "Supporting": {
                      "utility": {
                          "value": 0.04,
                          "mod": {
                              "itemprof": "ardentcenser"
                          }
                      }
                  }
              }
          }
      ]
  },
  "3508": {
      "special": "essencereaver",
      "enabled": true,
      "name": "Essence Reaver",
      "stats": {
          "ad": 75,
          "cdr": 0.2,
          "mp": 300
      },
      "unique": [
          {
              "stats": {
                  "utility": 0.01
              }
          }
      ]
  },
  "3512": {
      "enabled": true,
      "name": "Zz'Rot Portal",
      "stats": {
          "armor": 55,
          "mr": 55,
          "baseregen": 1.25
      },
      "unique": [
          {
              "stats": {
                  "utility": 0.02,
                  "GoldGenerationPerMinute": 13
              }
          },
          {
              "name": "pointrunner",
              "stats": {
                  "utility": {
                      "value": 0.05,
                      "mod": {
                          "itemprof": "movementspeedproficiency"
                      }
                  }
              }
          }
      ]
  },
  "3742": {
      "special": "deadman_proc",
      "enabled": true,
      "name": "Dead Man's Plate",
      "stats": {
          "hp": 425,
          "armor": 60
      },
      "unique": [
          {
              "stats": {
                  "utility": {
                      "value": 0.1,
                      "mod": {
                          "itemprof": "movementspeedproficiency",
                          "meleechampion": 1.1,
                          "rangedchampion": 0.7
                      }
                  }
              }
          }
      ]
  },
  "3748": {
      "special": "titanichydra",
      "restrictions": "meleeOnly",
      "enabled": true,
      "name": "Titanic Hydra",
      "stats": {
              "hp": 450,
              "ad": 40,
              "baseregen": 1
      },
      "unique": [
          {
              "name": "tiamat",
              "stats": {
                      "utility": {
                          "value": [
                              0.05,
                              0.04,
                              0.03
                          ],
                          "mod": {
                              "itemprof": "tiamatproficiency"
                          }
                      }
              }
          }
      ]
  },
  "3751": {
      "special": "bami_aoe",
      "enabled": false,
      "name": "Bami's Cinder",
      "stats": {
          "hp": 200
      },
      "unique": [
          {
              "name": "immolate",
              "stats": {
                  "utility": {
                      "value": 0.01,
                      "mod": {
                          "meleechampion": 1,
                          "rangedchampion": 0.4
                      }
                  }
              }
          }
      ]
  },
  "3800": {
      "enabled": true,
      "name": "Righteous Glory",
      "stats": {
          "hp": 400,
          "mp": 300,
          "armor": 30,
          "baseregen": 1,
          "cdr": 0.1
      },
      "unique": [
          {
              "stats": {
                  "utility": {
                      "value": 0.1,
                      "mod": {
                          "meleechampion": 1,
                          "rangedchampion": 0.5
                      }
                  }
              }
          }
      ]
  },
  "3802": {
      "special": "lostchaptermanaregen",
      "enabled": false,
      "name": "Lost Chapter",
      "stats": {
          "ap": 40,
          "mp": 300
      },
      "unique": [
          {
              "name": "haste",
              "stats": {
                  "cdr": 0.1
              }
          }
      ]
  },
  "3812": {
      "enabled": true,
      "name": "Death's Dance",
      "stats": {
          "ad": 80,
          "cdr": 0.1
      },
      "unique": [
          {
              "stats": {
                  "physicalvamp": 0.15,
                  "utility": 0.05
              }
          }
      ]
  },
  "3814": {
      "enabled": true,
      "name": "Edge of Night",
      "stats": {
          "ad": 55,
          "hp": 250
      },
      "unique": [
          {
              "stats": {
                  "lethality": 18,
                  "utility": {
                      "value": 0.05,
                      "mod": {
                          "meleechampion": 0.9,
                          "rangedchampion": 0.7
                      }
                  }
              }
          }
      ]
  },
  "3905": {
      "enabled": true,
      "name": "Twin Shadows",
      "stats": {
          "ap": 70,
          "cdr": 0.1
      },
      "unique": [
          {
              "stats": {
                  "percentmovementspeed": 0.07,
                  "utility": 0.04
              }
          }
      ]
  },
  "3907": {
      "enabled": true,
      "name": "Spellbinder",
      "stats": {
          "ap": 120,
          "percentmovementspeed": 0.1
      },
      "unique": [
          {
              "name": "spellbinder",
              "stats": {
                  "utility": 0.02
              }
          }
      ]
  },
  "3916": {
      "enabled": true,
      "name": "Oblivion Orb",
      "stats": {
          "hp": 200,
          "ap": 25
      },
      "unique": [
          {
              "name": "touchofdeath",
              "stats": {
                  "magicpen": 15
              }
          }
      ]
  },
  "4001": {
      "enabled": false,
      "restrictions": "meleeOnly",
      "name": "Ghostwalkers",
      "stats": {
            "BootsMSBoost": 45,
            "utility": {
              "value":0.13,
              "mod": {"itemprof": "zhonyas"}
            }
      },
      "limit": "boots"
  },
  "4004": {
      "enabled": false,
      "name": "Spectral Cutlass",
      "stats": {
          "ad": 70
      },
      "unique": [
          {
              "stats": {
                  "lethality": 18,
                  "utility": 0.07
              }
          }
      ]
  }



}