{
	"General":{

		[
			"NoManaEarly:
			{
				"Question" : "Why is this building lacking in Mana until late game?",
				"Answer": "The program assumes you acquire mana through Doran's Ring, Corrupting Potion, Tear of the Goddess, or Sapphire Crystal";

			};
		]
	}
}