{
  "Aatrox": {
    "HasHardCC": true,
    "SuddenImpact": 1.0,
    "cdrGeneral": 0.5,
    "cdrP": 0,
    "cdrQ": 0.65,
    "cdrW": 0.75,
    "cdrE": 0.9,
    "cdrR": 0,
    "tear": 0,
    "guinsoo": 0.3,
    "rylais": 0.4,
    "zhonyas": 0.75,
    "liandry": 0.5,
    "movementimpair": 0.15,
    "movementspeedproficiency": 1,
    "cleaver": 0.55,
    "witsend": 0.3,
    "meleechampion": true,
    "sunfire": 0.6,
    "abyssalproficiency": 0.6,
    "tiamatproficiency": 0.8,
    "ardentcenser": 0,
    "awakenedDragon": 0.8,
    "duskblade": 0.5,
    "conquerorPrestack": 0,
    "tenacity": 0.6
  },
  "Ahri": {
    "HasHardCC": true,
    "SuddenImpact": 1.0,
    "cdrGeneral": 0.4,
    "cdrP": 0.8,
    "cdrQ": 0.8,
    "cdrW": 0.8,
    "cdrE": 0.75,
    "cdrR": 0,
    "tear": 0.7,
    "guinsoo": 0.3,
    "rylais": 0.6,
    "zhonyas": 0.75,
    "liandry": 0.6,
    "movementimpair": 0.15,
    "movementspeedproficiency": 0.8,
    "cleaver": 0.2,
    "witsend": 0.2,
    "meleechampion": false,
    "sunfire": 0.25,
    "abyssalproficiency": 0.8,
    "tiamatproficiency": 0,
    "ardentcenser": 0,
    "awakenedDragon": 0.8,
    "duskblade": 0.5,
    "conquerorPrestack": 0,
    "tenacity": 0.5
  },
  "Akali": {
    "HasHardCC": true,
    "SuddenImpact": 0.7,
    "cdrGeneral": 0.2,
    "cdrP": 0,
    "cdrQ": 0.4,
    "cdrW": 0.7,
    "cdrE": 0.4,
    "cdrR": 0,
    "tear": 0,
    "guinsoo": 0.3,
    "rylais": 0.6,
    "zhonyas": 0.8,
    "liandry": 0.6,
    "movementimpair": 0.10,
    "movementspeedproficiency": 1,
    "cleaver": 0.3,
    "witsend": 0.2,
    "meleechampion": true,
    "sunfire": 0.4,
    "abyssalproficiency": 0.4,
    "tiamatproficiency": 0.8,
    "ardentcenser": 0,
    "awakenedDragon": 0.6,
    "duskblade": 1,
    "conquerorPrestack": 0,
    "tenacity": 0.6
  },
  "Alistar": {
    "HasHardCC": true,
    "SuddenImpact": 1.0,
    "cdrGeneral": 0.8,
    "cdrP": 0,
    "cdrQ": 0.85,
    "cdrW": 0.8,
    "cdrE": 0.7,
    "cdrR": 0,
    "tear": 0.65,
    "guinsoo": 0.2,
    "rylais": 0.3,
    "zhonyas": 0.7,
    "liandry": 0.5,
    "movementimpair": 0.2,
    "movementspeedproficiency": 1,
    "cleaver": 0.3,
    "witsend": 0.3,
    "meleechampion": true,
    "sunfire": 1,
    "abyssalproficiency": 1,
    "tiamatproficiency": 1,
    "ardentcenser": 1,
    "awakenedDragon": 1,
    "duskblade": 0.5,
    "conquerorPrestack": 0,
    "tenacity": 0.5
  },
  "Amumu": {
    "HasHardCC": true,
    "SuddenImpact": 1.0,
    "cdrGeneral": 0.5,
    "cdrP": 0,
    "cdrQ": 0.75,
    "cdrW": 0,
    "cdrE": 0.85,
    "cdrR": 0,
    "tear": 1,
    "guinsoo": 0.2,
    "rylais": 0.3,
    "zhonyas": 0.7,
    "liandry": 0.8,
    "movementimpair": 0.2,
    "movementspeedproficiency": 1,
    "cleaver": 0.3,
    "witsend": 0.3,
    "meleechampion": true,
    "sunfire": 1,
    "abyssalproficiency": 1,
    "tiamatproficiency": 0.8,
    "ardentcenser": 0,
    "awakenedDragon": 0.8,
    "duskblade": 0.5,
    "conquerorPrestack": 0,
    "tenacity": 0.7
  },
  "Anivia": {
    "HasHardCC": true,
    "SuddenImpact": 0,
    "cdrGeneral": 0.3,
    "cdrP": 0,
    "cdrQ": 0.85,
    "cdrW": 0.75,
    "cdrE": 0.8,
    "cdrR": 0,
    "tear": 0.9,
    "guinsoo": 0.3,
    "rylais": 0.4,
    "zhonyas": 0.75,
    "liandry": 0.75,
    "movementimpair": 0.4,
    "movementspeedproficiency": 1,
    "cleaver": 0.1,
    "witsend": 0.1,
    "meleechampion": false,
    "sunfire": 0.2,
    "abyssalproficiency": 0.6,
    "tiamatproficiency": 0,
    "ardentcenser": 0,
    "awakenedDragon": 0.3,
    "duskblade": 0.5,
    "conquerorPrestack": 0,
    "tenacity": 0.4
  },
  "Annie": {
    "HasHardCC": true,
    "SuddenImpact": 0,
    "cdrGeneral": 0.2,
    "cdrP": 0,
    "cdrQ": 0.8,
    "cdrW": 0.9,
    "cdrE": 0.8,
    "cdrR": 0,
    "tear": 0.85,
    "guinsoo": 0.3,
    "rylais": 0.7,
    "zhonyas": 0.75,
    "liandry": 0.75,
    "movementimpair": 0.2,
    "movementspeedproficiency": 1,
    "cleaver": 0.1,
    "witsend": 0.1,
    "meleechampion": false,
    "sunfire": 0.2,
    "abyssalproficiency": 0.8,
    "tiamatproficiency": 0,
    "ardentcenser": 0,
    "awakenedDragon": 1,
    "duskblade": 0.5,
    "conquerorPrestack": 0,
    "tenacity": 0.6
  },
  "Ashe": {
    "HasHardCC": true,
    "SuddenImpact": 0,
    "cdrGeneral": 0.35,
    "cdrP": 0,
    "cdrQ": 0.8,
    "cdrW": 0.85,
    "cdrE": 0.5,
    "cdrR": 0,
    "tear": 0.4,
    "guinsoo": 0.7,
    "rylais": 0.01,
    "zhonyas": 0.6,
    "liandry": 0.75,
    "movementimpair": 1,
    "movementspeedproficiency": 1,
    "cleaver": 0.9,
    "witsend": 0.5,
    "meleechampion": false,
    "sunfire": 0.15,
    "abyssalproficiency": 0.3,
    "tiamatproficiency": 0,
    "ardentcenser": 0,
    "awakenedDragon": 0.7,
    "duskblade": 0.5,
    "conquerorPrestack": 0,
    "tenacity": 0.6
  },
  "AurelionSol": {
    "HasHardCC": true,
    "SuddenImpact": 0,
    "cdrGeneral": 0.45,
    "cdrP": 0,
    "cdrQ": 0.85,
    "cdrW": 0.2,
    "cdrE": 0.75,
    "cdrR": 0,
    "tear": 0.9,
    "guinsoo": 0.3,
    "rylais": 1,
    "zhonyas": 0.85,
    "liandry": 1,
    "movementimpair": 0.15,
    "movementspeedproficiency": 1,
    "cleaver": 0.15,
    "witsend": 0.15,
    "meleechampion": false,
    "sunfire": 0.2,
    "abyssalproficiency": 0.9,
    "tiamatproficiency": 0,
    "ardentcenser": 0,
    "awakenedDragon": 0.5,
    "duskblade": 0.5,
    "conquerorPrestack": 0,
    "tenacity": 0.4
  },
  "Azir": {
    "HasHardCC": true,
    "SuddenImpact": 0.5,
    "cdrGeneral": 0.8,
    "cdrP": 0.3,
    "cdrQ": 0.75,
    "cdrW": 0.3,
    "cdrE": 0.65,
    "cdrR": 0,
    "tear": 0.75,
    "guinsoo": 0.6,
    "rylais": 0.7,
    "zhonyas": 0.75,
    "liandry": 1,
    "movementimpair": 0.15,
    "movementspeedproficiency": 1,
    "cleaver": 0.4,
    "witsend": 0.4,
    "meleechampion": false,
    "sunfire": 0.35,
    "abyssalproficiency": 0.8,
    "tiamatproficiency": 0,
    "ardentcenser": 0,
    "awakenedDragon": 0.5,
    "duskblade": 0.5,
    "conquerorPrestack": 0,
    "tenacity": 0.5
  },
  "Bard": {
    "HasHardCC": true,
    "SuddenImpact": 0,
    "cdrGeneral": 0.8,
    "cdrP": 0,
    "cdrQ": 0.85,
    "cdrW": 0.8,
    "cdrE": 0.7,
    "cdrR": 0,
    "tear": 0.65,
    "guinsoo": 0.5,
    "rylais": 0.35,
    "zhonyas": 0.75,
    "liandry": 0.5,
    "movementimpair": 0.4,
    "movementspeedproficiency": 0.8,
    "cleaver": 0.35,
    "witsend": 0.35,
    "meleechampion": false,
    "sunfire": 0.15,
    "abyssalproficiency": 0.65,
    "tiamatproficiency": 0,
    "ardentcenser": 0.25,
    "awakenedDragon": 0.5,
    "duskblade": 0.5,
    "conquerorPrestack": 0,
    "tenacity": 0.6
  },
  "Blitzcrank": {
    "HasHardCC": true,
    "SuddenImpact": 0,
    "cdrGeneral": 0.9,
    "cdrP": 0,
    "cdrQ": 0.7,
    "cdrW": 0.95,
    "cdrE": 0.75,
    "cdrR": 0.15,
    "tear": 0.75,
    "guinsoo": 0.2,
    "rylais": 0.4,
    "zhonyas": 0.6,
    "liandry": 0.7,
    "movementimpair": 0.2,
    "movementspeedproficiency": 1.4,
    "cleaver": 0.5,
    "witsend": 0.5,
    "meleechampion": true,
    "sunfire": 0.6,
    "abyssalproficiency": 0.7,
    "tiamatproficiency": 0.5,
    "ardentcenser": 0,
    "awakenedDragon": 0.3,
    "duskblade": 0.5,
    "conquerorPrestack": 0,
    "tenacity": 0.5
  },
  "Brand": {
    "HasHardCC": true,
    "SuddenImpact": 0,
    "cdrGeneral": 0.2,
    "cdrP": 0,
    "cdrQ": 0.8,
    "cdrW": 0.8,
    "cdrE": 0.8,
    "cdrR": 0,
    "tear": 0.75,
    "guinsoo": 0.3,
    "rylais": 0.75,
    "zhonyas": 0.8,
    "liandry": 1,
    "movementimpair": 0.2,
    "movementspeedproficiency": 1,
    "cleaver": 0.2,
    "witsend": 0.2,
    "meleechampion": false,
    "sunfire": 0.15,
    "abyssalproficiency": 0.7,
    "tiamatproficiency": 0,
    "ardentcenser": 0,
    "awakenedDragon": 0.8,
    "duskblade": 0.5,
    "conquerorPrestack": 0,
    "tenacity": 0.5
  },
  "Braum": {
    "HasHardCC": true,
    "SuddenImpact": 0.5,
    "cdrGeneral": 0.8,
    "cdrP": 0,
    "cdrQ": 0.85,
    "cdrW": 0.7,
    "cdrE": 0.75,
    "cdrR": 0,
    "tear": 0.55,
    "guinsoo": 0.2,
    "rylais": 0.1,
    "zhonyas": 0.7,
    "liandry": 0.5,
    "movementimpair": 0.3,
    "movementspeedproficiency": 1,
    "cleaver": 0.3,
    "witsend": 0.3,
    "meleechampion": true,
    "sunfire": 0.7,
    "abyssalproficiency": 0.75,
    "tiamatproficiency": 1,
    "ardentcenser": 0,
    "awakenedDragon": 0.7,
    "duskblade": 0.5,
    "conquerorPrestack": 0,
    "tenacity": 0.5
  },
  "Caitlyn": {
    "HasHardCC": false,
    "SuddenImpact": 0.4,
    "cdrGeneral": 0.3,
    "cdrP": 0,
    "cdrQ": 0.65,
    "cdrW": 0.85,
    "cdrE": 0.8,
    "cdrR": 0.05,
    "tear": 0.4,
    "guinsoo": 0.7,
    "rylais": 0.2,
    "zhonyas": 0.75,
    "liandry": 0.3,
    "movementimpair": 0.3,
    "movementspeedproficiency": 1,
    "cleaver": 0.55,
    "witsend": 0.45,
    "meleechampion": false,
    "sunfire": 0.25,
    "abyssalproficiency": 0.8,
    "tiamatproficiency": 0,
    "ardentcenser": 0,
    "awakenedDragon": 0.1,
    "duskblade": 0.3,
    "conquerorPrestack": 0,
    "tenacity": 0.5
  },
  "Camille": {
    "HasHardCC": false,
    "SuddenImpact": 0.9,
    "cdrGeneral": 0.5,
    "cdrP": 0.75,
    "cdrQ": 0.75,
    "cdrW": 0.8,
    "cdrE": 0.8,
    "cdrR": 0,
    "tear": 0.65,
    "guinsoo": 0.6,
    "rylais": 0.1,
    "zhonyas": 0.85,
    "liandry": 0.3,
    "movementimpair": 0.25,
    "movementspeedproficiency": 1,
    "cleaver": 0.55,
    "witsend": 0.5,
    "meleechampion": true,
    "sunfire": 0.85,
    "abyssalproficiency": 1,
    "tiamatproficiency": 1,
    "ardentcenser": 0,
    "awakenedDragon": 0.6,
    "duskblade": 0.5,
    "conquerorPrestack": 0,
    "tenacity": 0.65
  },
  "Cassiopeia": {
    "HasHardCC": true,
    "SuddenImpact": 0,
    "cdrGeneral": 0.25,
    "cdrP": 0,
    "cdrQ": 0.25,
    "cdrW": 0.7,
    "cdrE": 0.1,
    "cdrR": 0,
    "tear": 0.9,
    "guinsoo": 0.2,
    "rylais": 1,
    "zhonyas": 0.7,
    "liandry": 1,
    "movementimpair": 0.15,
    "movementspeedproficiency": 0.8,
    "cleaver": 0.1,
    "witsend": 0.1,
    "meleechampion": false,
    "sunfire": 0.15,
    "abyssalproficiency": 0.9,
    "tiamatproficiency": 0,
    "ardentcenser": 0,
    "awakenedDragon": 0.5,
    "duskblade": 0.5,
    "conquerorPrestack": 0,
    "tenacity": 0.8
  },
  "Chogath": {
    "HasHardCC": true,
    "SuddenImpact": 0,
    "cdrGeneral": 0.6,
    "cdrP": 0,
    "cdrQ": 0.8,
    "cdrW": 0.9,
    "cdrE": 0,
    "cdrR": 0.05,
    "tear": 0.6,
    "guinsoo": 0.5,
    "rylais": 0.5,
    "zhonyas": 0.7,
    "liandry": 0.4,
    "movementimpair": 0.2,
    "movementspeedproficiency": 1,
    "cleaver": 0.4,
    "witsend": 0.4,
    "meleechampion": true,
    "sunfire": 0.5,
    "abyssalproficiency": 0.7,
    "tiamatproficiency": 1,
    "ardentcenser": 0,
    "awakenedDragon": 0.2,
    "duskblade": 0.5,
    "conquerorPrestack": 0,
    "tenacity": 0.6
  },
  "Corki": {
    "HasHardCC": false,
    "SuddenImpact": 0.4,
    "cdrGeneral": 0.3,
    "cdrP": 0,
    "cdrQ": 0.9,
    "cdrW": 0.7,
    "cdrE": 0.8,
    "cdrR": 0,
    "tear": 0.65,
    "guinsoo": 0.5,
    "rylais": 0.5,
    "zhonyas": 0.7,
    "liandry": 0.9,
    "movementimpair": 0,
    "movementspeedproficiency": 1,
    "cleaver": 0.75,
    "witsend": 0.4,
    "meleechampion": false,
    "sunfire": 0.25,
    "abyssalproficiency": 0.6,
    "tiamatproficiency": 0,
    "ardentcenser": 0,
    "awakenedDragon": 0.4,
    "duskblade": 0.5,
    "conquerorPrestack": 0,
    "tenacity": 0.3
  },
  "Darius": {
    "HasHardCC": true,
    "SuddenImpact": 0,
    "cdrGeneral": 0.35,
    "cdrP": 0,
    "cdrQ": 0.85,
    "cdrW": 0.75,
    "cdrE": 0.8,
    "cdrR": 0,
    "tear": 0.75,
    "guinsoo": 0.5,
    "rylais": 0.4,
    "zhonyas": 0.65,
    "liandry": 0.4,
    "movementimpair": 0.25,
    "movementspeedproficiency": 1,
    "cleaver": 0.75,
    "witsend": 0.3,
    "meleechampion": true,
    "sunfire": 0.75,
    "abyssalproficiency": 0.8,
    "tiamatproficiency": 0.8,
    "ardentcenser": 0,
    "awakenedDragon": 0.3,
    "duskblade": 0.5,
    "conquerorPrestack": 0,
    "tenacity": 0.75
  },
  "Diana": {
    "HasHardCC": true,
    "SuddenImpact": 0.8,
    "cdrGeneral": 0.4,
    "cdrP": 0,
    "cdrQ": 0.8,
    "cdrW": 0.8,
    "cdrE": 0.7,
    "cdrR": 0.4,
    "tear": 0.65,
    "guinsoo": 0.6,
    "rylais": 0.4,
    "zhonyas": 0.6,
    "liandry": 0.7,
    "movementimpair": 0.2,
    "movementspeedproficiency": 1,
    "cleaver": 0.5,
    "witsend": 0.5,
    "meleechampion": true,
    "sunfire": 0.8,
    "abyssalproficiency": 1,
    "tiamatproficiency": 1,
    "ardentcenser": 0,
    "awakenedDragon": 0.5,
    "duskblade": 0.5,
    "conquerorPrestack": 0,
    "tenacity": 0.7
  },
  "Draven": {
    "HasHardCC": true,
    "SuddenImpact": 0,
    "cdrGeneral": 0.2,
    "cdrP": 0,
    "cdrQ": 0.9,
    "cdrW": 0.35,
    "cdrE": 0.6,
    "cdrR": 0,
    "tear": 0.7,
    "guinsoo": 0.7,
    "rylais": 0.1,
    "zhonyas": 0.4,
    "liandry": 0.25,
    "movementimpair": 0.15,
    "movementspeedproficiency": 0.8,
    "cleaver": 0.6,
    "witsend": 0.5,
    "meleechampion": false,
    "sunfire": 0.3,
    "abyssalproficiency": 0.8,
    "tiamatproficiency": 0,
    "ardentcenser": 0,
    "awakenedDragon": 0.5,
    "duskblade": 0.5,
    "conquerorPrestack": 0,
    "tenacity": 0.7
  },
  "DrMundo": {
    "HasHardCC": false,
    "SuddenImpact": 0,
    "cdrGeneral": 0.3,
    "cdrP": 0,
    "cdrQ": 0.9,
    "cdrW": 0,
    "cdrE": 0.75,
    "cdrR": 0,
    "tear": 0,
    "guinsoo": 0.4,
    "rylais": 0.5,
    "zhonyas": 0.6,
    "liandry": 1,
    "movementimpair": 0.4,
    "movementspeedproficiency": 0.8,
    "cleaver": 0.4,
    "witsend": 0.4,
    "meleechampion": true,
    "sunfire": 0.8,
    "abyssalproficiency": 0.8,
    "tiamatproficiency": 1,
    "ardentcenser": 0,
    "awakenedDragon": 0.7,
    "duskblade": 0.5,
    "conquerorPrestack": 0,
    "tenacity": 0.65
  },
  "Ekko": {
    "HasHardCC": false,
    "SuddenImpact": 1.0,
    "cdrGeneral": 0.4,
    "cdrP": 0.2,
    "cdrQ": 0.9,
    "cdrW": 0.8,
    "cdrE": 0.8,
    "cdrR": 0,
    "tear": 0.65,
    "guinsoo": 0.5,
    "rylais": 0.3,
    "zhonyas": 0.8,
    "liandry": 0.7,
    "movementimpair": 0.3,
    "movementspeedproficiency": 1,
    "cleaver": 0.35,
    "witsend": 0.25,
    "meleechampion": true,
    "sunfire": 0.85,
    "abyssalproficiency": 0.9,
    "tiamatproficiency": 1,
    "ardentcenser": 0,
    "awakenedDragon": 0.2,
    "duskblade": 0.5,
    "conquerorPrestack": 0,
    "tenacity": 0.5
  },
  "Elise": {
    "HasHardCC": true,
    "SuddenImpact": 0.8,
    "cdrGeneral": 0.3,
    "cdrP": 0,
    "cdrQ": 0.7,
    "cdrW": 0.7,
    "cdrE": 0.7,
    "cdrR": 0.7,
    "tear": 0.75,
    "guinsoo": 0.4,
    "rylais": 0.7,
    "zhonyas": 0.7,
    "liandry": 0.7,
    "movementimpair": 0.15,
    "movementspeedproficiency": 1,
    "cleaver": 0.2,
    "witsend": 0.2,
    "meleechampion": false,
    "sunfire": 0.5,
    "abyssalproficiency": 1,
    "tiamatproficiency": 0,
    "ardentcenser": 0,
    "awakenedDragon": 0.3,
    "duskblade": 0.5,
    "conquerorPrestack": 0,
    "tenacity": 0.55
  },
  "Evelynn": {
    "HasHardCC": false,
    "SuddenImpact": 1.0,
    "cdrGeneral": 0.45,
    "cdrP": 0,
    "cdrQ": 0.85,
    "cdrW": 0.8,
    "cdrE": 0.9,
    "cdrR": 0,
    "tear": 0.85,
    "guinsoo": 0.5,
    "rylais": 0.8,
    "zhonyas": 0.6,
    "liandry": 0.8,
    "movementimpair": 0.15,
    "movementspeedproficiency": 1,
    "cleaver": 0.3,
    "witsend": 0.3,
    "meleechampion": true,
    "sunfire": 0.8,
    "abyssalproficiency": 1,
    "tiamatproficiency": 1,
    "ardentcenser": 0,
    "awakenedDragon": 0.1,
    "duskblade": 1,
    "conquerorPrestack": 0,
    "tenacity": 0.35
  },
  "Ezreal": {
    "HasHardCC": false,
    "SuddenImpact": 0.6,
    "cdrGeneral": 0.5,
    "cdrP": 0,
    "cdrQ": 0.9,
    "cdrW": 0.7,
    "cdrE": 0.7,
    "cdrR": 0,
    "tear": 1,
    "guinsoo": 0.7,
    "rylais": 0.3,
    "zhonyas": 0.7,
    "liandry": 0.4,
    "movementimpair": 0,
    "movementspeedproficiency": 1,
    "cleaver": 0.35,
    "witsend": 0.3,
    "meleechampion": false,
    "sunfire": 0.15,
    "abyssalproficiency": 0.7,
    "tiamatproficiency": 0,
    "ardentcenser": 0,
    "awakenedDragon": 0.8,
    "duskblade": 0.5,
    "conquerorPrestack": 0,
    "tenacity": 0.3
  },
  "Fiddlesticks": {
    "HasHardCC": true,
    "SuddenImpact": 0.2,
    "cdrGeneral": 0.6,
    "cdrP": 0,
    "cdrQ": 0.8,
    "cdrW": 0.35,
    "cdrE": 0.8,
    "cdrR": 0,
    "tear": 0.75,
    "guinsoo": 0.3,
    "rylais": 0.75,
    "zhonyas": 1,
    "liandry": 0.9,
    "movementimpair": 0.15,
    "movementspeedproficiency": 1,
    "cleaver": 0.05,
    "witsend": 0.05,
    "meleechampion": false,
    "sunfire": 0.3,
    "abyssalproficiency": 0.9,
    "tiamatproficiency": 0,
    "ardentcenser": 0,
    "awakenedDragon": 0.8,
    "duskblade": 0.5,
    "conquerorPrestack": 0,
    "tenacity": 0.55
  },
  "Fiora": {
    "HasHardCC": false,
    "SuddenImpact": 1.0,
    "cdrGeneral": 0.5,
    "cdrP": 0,
    "cdrQ": 0.6,
    "cdrW": 0.7,
    "cdrE": 0.7,
    "cdrR": 0,
    "tear": 0.65,
    "guinsoo": 0.6,
    "rylais": 0.4,
    "zhonyas": 0.7,
    "liandry": 0.2,
    "movementimpair": 0,
    "movementspeedproficiency": 1,
    "cleaver": 0.5,
    "witsend": 0.5,
    "meleechampion": true,
    "sunfire": 0.85,
    "abyssalproficiency": 1,
    "tiamatproficiency": 1,
    "ardentcenser": 0,
    "awakenedDragon": 0.8,
    "duskblade": 0.5,
    "conquerorPrestack": 0,
    "tenacity": 0.65
  },
  "Fizz": {
    "HasHardCC": true,
    "SuddenImpact": 1.0,
    "cdrGeneral": 0.6,
    "cdrP": 0,
    "cdrQ": 0.8,
    "cdrW": 0.8,
    "cdrE": 0.8,
    "cdrR": 0,
    "tear": 0.65,
    "guinsoo": 0.6,
    "rylais": 0.4,
    "zhonyas": 0.9,
    "liandry": 1,
    "movementimpair": 0.3,
    "movementspeedproficiency": 1,
    "cleaver": 0.55,
    "witsend": 0.55,
    "meleechampion": true,
    "sunfire": 0.85,
    "abyssalproficiency": 1,
    "tiamatproficiency": 1,
    "ardentcenser": 0,
    "awakenedDragon": 0.9,
    "duskblade": 0.5,
    "conquerorPrestack": 0,
    "tenacity": 0.55
  },
  "Galio": {
    "HasHardCC": true,
    "SuddenImpact": 0.6,
    "cdrGeneral": 0.8,
    "cdrP": 0.8,
    "cdrQ": 0.8,
    "cdrW": 0.8,
    "cdrE": 0.8,
    "cdrR": 0,
    "tear": 0.7,
    "guinsoo": 0.3,
    "rylais": 0.5,
    "zhonyas": 0.7,
    "liandry": 0.6,
    "movementimpair": 0.2,
    "movementspeedproficiency": 1,
    "cleaver": 0.2,
    "witsend": 0.2,
    "meleechampion": true,
    "sunfire": 0.7,
    "abyssalproficiency": 0.85,
    "tiamatproficiency": 1,
    "ardentcenser": 0,
    "awakenedDragon": 0.5,
    "duskblade": 0.5,
    "conquerorPrestack": 0,
    "tenacity": 0.7
  },
  "Gangplank": {
    "HasHardCC": false,
    "SuddenImpact": 0,
    "cdrGeneral": 0.4,
    "cdrP": 0,
    "cdrQ": 0.9,
    "cdrW": 0.7,
    "cdrE": 0.35,
    "cdrR": 0,
    "tear": 0.8,
    "guinsoo": 0.5,
    "rylais": 0.05,
    "zhonyas": 0.65,
    "liandry": 0,
    "movementimpair": 0.2,
    "movementspeedproficiency": 0.8,
    "cleaver": 0.5,
    "witsend": 0.5,
    "meleechampion": true,
    "sunfire": 0.6,
    "abyssalproficiency": 0.8,
    "tiamatproficiency": 0.8,
    "ardentcenser": 0,
    "awakenedDragon": 0.5,
    "duskblade": 0.5,
    "conquerorPrestack": 0,
    "tenacity": 0.3
  },
  "Garen": {
    "HasHardCC": false,
    "SuddenImpact": 0,
    "cdrGeneral": 0.5,
    "cdrP": 0,
    "cdrQ": 0.7,
    "cdrW": 0.9,
    "cdrE": 0.65,
    "cdrR": 0.05,
    "tear": 0,
    "guinsoo": 0.4,
    "rylais": 0.2,
    "zhonyas": 0.2,
    "liandry": 0.4,
    "movementimpair": 0,
    "movementspeedproficiency": 0.8,
    "cleaver": 0.8,
    "witsend": 0.4,
    "meleechampion": true,
    "sunfire": 0.9,
    "abyssalproficiency": 1,
    "tiamatproficiency": 1,
    "ardentcenser": 0,
    "awakenedDragon": 0.1,
    "duskblade": 0.5,
    "conquerorPrestack": 0,
    "tenacity": 0.6
  },
  "Gnar": {
    "HasHardCC": true,
    "SuddenImpact": 0.6,
    "cdrGeneral": 0.7,
    "cdrP": 0,
    "cdrQ": 0.9,
    "cdrW": 0.75,
    "cdrE": 0.75,
    "cdrR": 0,
    "tear": 0,
    "guinsoo": 0.7,
    "rylais": 0.15,
    "zhonyas": 0.75,
    "liandry": 0.7,
    "movementimpair": 0.6,
    "movementspeedproficiency": 0.8,
    "cleaver": 0.65,
    "witsend": 0.5,
    "meleechampion": false,
    "sunfire": 0.6,
    "abyssalproficiency": 0.8,
    "tiamatproficiency": 0,
    "ardentcenser": 0,
    "awakenedDragon": 0.6,
    "duskblade": 0.5,
    "conquerorPrestack": 0,
    "tenacity": 0.7
  },
  "Gragas": {
    "HasHardCC": true,
    "SuddenImpact": 0.6,
    "cdrGeneral": 0.6,
    "cdrP": 0,
    "cdrQ": 0.8,
    "cdrW": 0.8,
    "cdrE": 0.8,
    "cdrR": 0,
    "tear": 0.7,
    "guinsoo": 0.3,
    "rylais": 0.1,
    "zhonyas": 0.7,
    "liandry": 0.5,
    "movementimpair": 0.3,
    "movementspeedproficiency": 0.8,
    "cleaver": 0.3,
    "witsend": 0.3,
    "meleechampion": true,
    "sunfire": 0.75,
    "abyssalproficiency": 0.7,
    "tiamatproficiency": 1,
    "ardentcenser": 0,
    "awakenedDragon": 0.6,
    "duskblade": 0.5,
    "conquerorPrestack": 0,
    "tenacity": 0.65
  },
  "Graves": {
    "HasHardCC": false,
    "SuddenImpact": 0.65,
    "cdrGeneral": 0.45,
    "cdrP": 0,
    "cdrQ": 0.85,
    "cdrW": 0.75,
    "cdrE": 0.9,
    "cdrR": 0,
    "tear": 0.6,
    "guinsoo": 0.5,
    "rylais": 0.15,
    "zhonyas": 0.7,
    "liandry": 0.35,
    "movementimpair": 0.1,
    "movementspeedproficiency": 1,
    "cleaver": 0.7,
    "witsend": 0.25,
    "meleechampion": false,
    "sunfire": 0.3,
    "abyssalproficiency": 0.7,
    "tiamatproficiency": 0,
    "ardentcenser": 0,
    "awakenedDragon": 0.5,
    "duskblade": 0.5,
    "conquerorPrestack": 0,
    "tenacity": 0.6
  },
  "Hecarim": {
    "HasHardCC": true,
    "SuddenImpact": 1,
    "cdrGeneral": 0.3,
    "cdrP": 0,
    "cdrQ": 0.9,
    "cdrW": 0.8,
    "cdrE": 0.8,
    "cdrR": 0,
    "tear": 0.9,
    "guinsoo": 0.4,
    "rylais": 0.3,
    "zhonyas": 0.65,
    "liandry": 0.9,
    "movementimpair": 0.1,
    "movementspeedproficiency": 0.8,
    "cleaver": 0.5,
    "witsend": 0.35,
    "meleechampion": true,
    "sunfire": 0.85,
    "abyssalproficiency": 1,
    "tiamatproficiency": 1,
    "ardentcenser": 0,
    "awakenedDragon": 0.7,
    "duskblade": 0.5,
    "conquerorPrestack": 0,
    "tenacity": 0.8
  },
  "Heimerdinger": {
    "HasHardCC": true,
    "SuddenImpact": 0,
    "cdrGeneral": 0.5,
    "cdrP": 0,
    "cdrQ": 0.95,
    "cdrW": 0.85,
    "cdrE": 0.75,
    "cdrR": 0,
    "tear": 0.75,
    "guinsoo": 0.3,
    "rylais": 0.2,
    "zhonyas": 1,
    "liandry": 0.3,
    "movementimpair": 0.15,
    "movementspeedproficiency": 1,
    "cleaver": 0.2,
    "witsend": 0.2,
    "meleechampion": false,
    "sunfire": 0.2,
    "abyssalproficiency": 0.4,
    "tiamatproficiency": 0,
    "ardentcenser": 0,
    "awakenedDragon": 0.7,
    "duskblade": 0.5,
    "conquerorPrestack": 0,
    "tenacity": 0.3
  },
  "Illaoi": {
    "HasHardCC": false,
    "SuddenImpact": 0.7,
    "cdrGeneral": 0.35,
    "cdrP": 0,
    "cdrQ": 0.85,
    "cdrW": 0.85,
    "cdrE": 0.8,
    "cdrR": 0,
    "tear": 0.75,
    "guinsoo": 0.5,
    "rylais": 0.3,
    "zhonyas": 0.8,
    "liandry": 0.5,
    "movementimpair": 0.1,
    "movementspeedproficiency": 1,
    "cleaver": 0.6,
    "witsend": 0.35,
    "meleechampion": true,
    "sunfire": 0.75,
    "abyssalproficiency": 1,
    "tiamatproficiency": 1,
    "ardentcenser": 0,
    "awakenedDragon": 0.7,
    "duskblade": 0.5,
    "conquerorPrestack": 0,
    "tenacity": 0.75
  },
  "Irelia": {
    "HasHardCC": true,
    "SuddenImpact": 0.9,
    "cdrGeneral": 0.60,
    "cdrP": 0,
    "cdrQ": 0.6,
    "cdrW": 0.75,
    "cdrE": 0.8,
    "cdrR": 0,
    "tear": 0.6,
    "guinsoo": 0.7,
    "rylais": 0.2,
    "zhonyas": 0.65,
    "liandry": 0.6,
    "movementimpair": 0.25,
    "movementspeedproficiency": 1,
    "cleaver": 0.6,
    "witsend": 0.6,
    "meleechampion": true,
    "sunfire": 0.8,
    "abyssalproficiency": 1,
    "tiamatproficiency": 1,
    "ardentcenser": 0,
    "awakenedDragon": 0.6,
    "duskblade": 0.5,
    "conquerorPrestack": 0,
    "tenacity": 0.75
  },
  "Ivern": {
    "HasHardCC": true,
    "SuddenImpact": 0.3,
    "cdrGeneral": 0.7,
    "cdrP": 0,
    "cdrQ": 0.8,
    "cdrW": 0,
    "cdrE": 0.8,
    "cdrR": 0,
    "tear": 0.6,
    "guinsoo": 0.35,
    "rylais": 0.2,
    "zhonyas": 0.65,
    "liandry": 0.35,
    "movementimpair": 0.3,
    "movementspeedproficiency": 1,
    "cleaver": 0.3,
    "witsend": 0.3,
    "meleechampion": false,
    "sunfire": 0.3,
    "abyssalproficiency": 0.6,
    "tiamatproficiency": 0.5,
    "ardentcenser": 0.75,
    "awakenedDragon": 0.4,
    "duskblade": 0.5,
    "conquerorPrestack": 0,
    "tenacity": 0.6
  },
  "Janna": {
    "HasHardCC": true,
    "SuddenImpact": 0,
    "cdrGeneral": 0.8,
    "cdrP": 0,
    "cdrQ": 0.8,
    "cdrW": 0.85,
    "cdrE": 0.85,
    "cdrR": 0,
    "tear": 0.75,
    "guinsoo": 0.3,
    "rylais": 0.2,
    "zhonyas": 0.7,
    "liandry": 0.4,
    "movementimpair": 0.25,
    "movementspeedproficiency": 0.8,
    "cleaver": 0.2,
    "witsend": 0.2,
    "meleechampion": false,
    "sunfire": 0.15,
    "abyssalproficiency": 0.4,
    "tiamatproficiency": 0,
    "ardentcenser": 1,
    "awakenedDragon": 0.5,
    "duskblade": 0.5,
    "conquerorPrestack": 0,
    "tenacity": 0.4
  },
  "JarvanIV": {
    "HasHardCC": true,
    "SuddenImpact": 0.5,
    "cdrGeneral": 0.5,
    "cdrP": 0,
    "cdrQ": 0.9,
    "cdrW": 0.75,
    "cdrE": 0.7,
    "cdrR": 0,
    "tear": 0.65,
    "guinsoo": 0.5,
    "rylais": 0.3,
    "zhonyas": 0.6,
    "liandry": 0.5,
    "movementimpair": 0.15,
    "movementspeedproficiency": 1,
    "cleaver": 0.7,
    "witsend": 0.5,
    "meleechampion": true,
    "sunfire": 0.8,
    "abyssalproficiency": 1,
    "tiamatproficiency": 1,
    "ardentcenser": 0,
    "awakenedDragon": 0.7,
    "duskblade": 0.5,
    "conquerorPrestack": 0,
    "tenacity": 0.7
  },
  "Jax": {
    "HasHardCC": true,
    "SuddenImpact": 1.0,
    "cdrGeneral": 0.5,
    "cdrP": 0,
    "cdrQ": 0.8,
    "cdrW": 0.75,
    "cdrE": 0.8,
    "cdrR": 0,
    "tear": 0.75,
    "guinsoo": 0.65,
    "rylais": 0.75,
    "zhonyas": 0.6,
    "liandry": 0.8,
    "movementimpair": 0.15,
    "movementspeedproficiency": 1,
    "cleaver": 0.55,
    "witsend": 0.6,
    "meleechampion": true,
    "sunfire": 1,
    "abyssalproficiency": 1,
    "tiamatproficiency": 0.5,
    "ardentcenser": 0,
    "awakenedDragon": 0.8,
    "duskblade": 0.5,
    "conquerorPrestack": 0,
    "tenacity": 0.85
  },
  "Jayce": {
    "HasHardCC": true,
    "SuddenImpact": 0.5,
    "cdrGeneral": 0.5,
    "cdrP": 0.6,
    "cdrQ": 0.8,
    "cdrW": 0.6,
    "cdrE": 0.6,
    "cdrR": 0.75,
    "tear": 0.8,
    "guinsoo": 0.7,
    "rylais": 0.15,
    "zhonyas": 0.7,
    "liandry": 0.6,
    "movementimpair": 0.15,
    "movementspeedproficiency": 0.8,
    "cleaver": 0.7,
    "witsend": 0.55,
    "meleechampion": false,
    "sunfire": 0.3,
    "abyssalproficiency": 1,
    "tiamatproficiency": 0,
    "ardentcenser": 0,
    "awakenedDragon": 0,
    "duskblade": 0.5,
    "conquerorPrestack": 0,
    "tenacity": 0.6
  },
  "Jhin": {
    "HasHardCC": true,
    "SuddenImpact": 0,
    "cdrGeneral": 0.3,
    "cdrP": 0,
    "cdrQ": 0.85,
    "cdrW": 0.75,
    "cdrE": 0.6,
    "cdrR": 0,
    "tear": 0.6,
    "guinsoo": 0.5,
    "rylais": 0.15,
    "zhonyas": 0.6,
    "liandry": 0.4,
    "movementimpair": 0.2,
    "movementspeedproficiency": 1,
    "cleaver": 0.4,
    "witsend": 0.25,
    "meleechampion": false,
    "sunfire": 0.2,
    "abyssalproficiency": 0.7,
    "tiamatproficiency": 0,
    "ardentcenser": 0,
    "awakenedDragon": 0.2,
    "duskblade": 0.5,
    "conquerorPrestack": 0,
    "tenacity": 0.6
  },
  "Jinx": {
    "HasHardCC": true,
    "SuddenImpact": 0,
    "cdrGeneral": 0.3,
    "cdrP": 0,
    "cdrQ": 0,
    "cdrW": 0.7,
    "cdrE": 0.6,
    "cdrR": 0,
    "tear": 0.45,
    "guinsoo": 0.65,
    "rylais": 0.05,
    "zhonyas": 0.55,
    "liandry": 0.35,
    "movementimpair": 0.15,
    "movementspeedproficiency": 1,
    "cleaver": 0.55,
    "witsend": 0.45,
    "meleechampion": false,
    "sunfire": 0.15,
    "abyssalproficiency": 0.7,
    "tiamatproficiency": 0,
    "ardentcenser": 0,
    "awakenedDragon": 0.2,
    "duskblade": 0.5,
    "conquerorPrestack": 0,
    "tenacity": 0.6
  },
  "Kaisa": {
    "HasHardCC": false,
    "SuddenImpact": 0.7,
    "cdrGeneral": 0.3,
    "cdrP": 0,
    "cdrQ": 0.9,
    "cdrW": 0.75,
    "cdrE": 0.8,
    "cdrR": 0,
    "tear": 0.75,
    "guinsoo": 0.8,
    "rylais": 0.5,
    "zhonyas": 0.65,
    "liandry": 0.7,
    "movementimpair": 0,
    "movementspeedproficiency": 0.8,
    "cleaver": 0.85,
    "witsend": 0.4,
    "meleechampion": false,
    "sunfire": 0.3,
    "abyssalproficiency": 0.8,
    "tiamatproficiency": 0,
    "ardentcenser": 0,
    "awakenedDragon": 0.5,
    "duskblade": 0.5,
    "conquerorPrestack": 0,
    "tenacity": 0.6
  },
  "Kalista": {
    "HasHardCC": false,
    "SuddenImpact": 1.0,
    "cdrGeneral": 0.35,
    "cdrP": 0,
    "cdrQ": 0.85,
    "cdrW": 0,
    "cdrE": 0.65,
    "cdrR": 0,
    "tear": 0.55,
    "guinsoo": 0.7,
    "rylais": 0.3,
    "zhonyas": 0.6,
    "liandry": 0.5,
    "movementimpair": 0.2,
    "movementspeedproficiency": 0.8,
    "cleaver": 0.55,
    "witsend": 0.4,
    "meleechampion": false,
    "sunfire": 0.15,
    "abyssalproficiency": 0.7,
    "tiamatproficiency": 0,
    "ardentcenser": 0,
    "awakenedDragon": 0.5,
    "duskblade": 0.5,
    "conquerorPrestack": 0,
    "tenacity": 0.5
  },
  "Karma": {
    "HasHardCC": true,
    "SuddenImpact": 0,
    "cdrGeneral": 0.6,
    "cdrP": 0,
    "cdrQ": 0.85,
    "cdrW": 0.8,
    "cdrE": 0.85,
    "cdrR": 0.3,
    "tear": 0.80,
    "guinsoo": 0.4,
    "rylais": 0.35,
    "zhonyas": 0.75,
    "liandry": 0.7,
    "movementimpair": 0.35,
    "movementspeedproficiency": 1,
    "cleaver": 0.15,
    "witsend": 0.15,
    "meleechampion": false,
    "sunfire": 0.15,
    "abyssalproficiency": 0.55,
    "tiamatproficiency": 0,
    "ardentcenser": 1,
    "awakenedDragon": 0.6,
    "duskblade": 0.5,
    "conquerorPrestack": 0,
    "tenacity": 0.45
  },
  "Karthus": {
    "HasHardCC": false,
    "SuddenImpact": 0,
    "cdrGeneral": 0.3,
    "cdrP": 0,
    "cdrQ": 0.8,
    "cdrW": 0.7,
    "cdrE": 0,
    "cdrR": 0,
    "tear": 1,
    "guinsoo": 0.1,
    "rylais": 1,
    "zhonyas": 0.7,
    "liandry": 0.9,
    "movementimpair": 0.3,
    "movementspeedproficiency": 1,
    "cleaver": 0.1,
    "witsend": 0.1,
    "meleechampion": false,
    "sunfire": 0.3,
    "abyssalproficiency": 0.85,
    "tiamatproficiency": 0,
    "ardentcenser": 0,
    "awakenedDragon": 0.2,
    "duskblade": 0.5,
    "conquerorPrestack": 0,
    "tenacity": 0.55
  },
  "Kassadin": {
    "HasHardCC": false,
    "SuddenImpact": 0.8,
    "cdrGeneral": 0.3,
    "cdrP": 0,
    "cdrQ": 0.85,
    "cdrW": 0.7,
    "cdrE": 0.8,
    "cdrR": 0,
    "tear": 0.75,
    "guinsoo": 0.4,
    "rylais": 0.6,
    "zhonyas": 0.7,
    "liandry": 0.5,
    "movementimpair": 0.25,
    "movementspeedproficiency": 0.6,
    "cleaver": 0.3,
    "witsend": 0.3,
    "meleechampion": true,
    "sunfire": 0.6,
    "abyssalproficiency": 1,
    "tiamatproficiency": 0.5,
    "ardentcenser": 0,
    "awakenedDragon": 0.7,
    "duskblade": 0.5,
    "conquerorPrestack": 0,
    "tenacity": 0.4
  },
  "Katarina": {
    "HasHardCC": false,
    "SuddenImpact": 0.85,
    "cdrGeneral": 0.2,
    "cdrP": 0.8,
    "cdrQ": 0.8,
    "cdrW": 0.7,
    "cdrE": 0.65,
    "cdrR": 0,
    "tear": 0,
    "guinsoo": 0.4,
    "rylais": 0.85,
    "zhonyas": 0.8,
    "liandry": 0.7,
    "movementimpair": 0,
    "movementspeedproficiency": 1,
    "cleaver": 0.2,
    "witsend": 0.2,
    "meleechampion": true,
    "sunfire": 0.4,
    "abyssalproficiency": 0.9,
    "tiamatproficiency": 0.5,
    "ardentcenser": 0,
    "awakenedDragon": 0.5,
    "duskblade": 0.5,
    "conquerorPrestack": 0,
    "tenacity": 0.6
  },
  "Kayle": {
    "HasHardCC": false,
    "SuddenImpact": 0,
    "cdrGeneral": 0.9,
    "cdrP": 0,
    "cdrQ": 0.9,
    "cdrW": 0.85,
    "cdrE": 1,
    "cdrR": 0,
    "tear": 0.75,
    "guinsoo": 0.7,
    "rylais": 0.3,
    "zhonyas": 0.6,
    "liandry": 0.5,
    "movementimpair": 0.35,
    "movementspeedproficiency": 0.8,
    "cleaver": 0.6,
    "witsend": 0.6,
    "meleechampion": false,
    "sunfire": 0.15,
    "abyssalproficiency": 1,
    "tiamatproficiency": 0.5,
    "ardentcenser": 0,
    "awakenedDragon": 0.5,
    "duskblade": 0.5,
    "conquerorPrestack": 0,
    "tenacity": 0.8
  },
  "Kayn": {
    "HasHardCC": true,
    "SuddenImpact": 0.8,
    "cdrGeneral": 0.4,
    "cdrP": 0,
    "cdrQ": 0.80,
    "cdrW": 0.80,
    "cdrE": 0.65,
    "cdrR": 0,
    "tear": 0.65,
    "guinsoo": 0.5,
    "rylais": 0.5,
    "zhonyas": 0.7,
    "liandry": 0.4,
    "movementimpair": 0.2,
    "movementspeedproficiency": 1,
    "cleaver": 0.5,
    "witsend": 0.2,
    "meleechampion": true,
    "sunfire": 0.8,
    "abyssalproficiency": 1,
    "tiamatproficiency": 1,
    "ardentcenser": 0,
    "awakenedDragon": 0.4,
    "duskblade": 0.5,
    "conquerorPrestack": 0,
    "tenacity": 0.7
  },
  "Kennen": {
    "HasHardCC": true,
    "SuddenImpact": 0,
    "cdrGeneral": 0.4,
    "cdrP": 0,
    "cdrQ": 0.65,
    "cdrW": 0.5,
    "cdrE": 0.4,
    "cdrR": 0,
    "tear": 0,
    "guinsoo": 0.6,
    "rylais": 0.65,
    "zhonyas": 0.9,
    "liandry": 0.8,
    "movementimpair": 0.2,
    "movementspeedproficiency": 0.8,
    "cleaver": 0.25,
    "witsend": 0.25,
    "meleechampion": false,
    "sunfire": 0.25,
    "abyssalproficiency": 0.85,
    "tiamatproficiency": 0,
    "ardentcenser": 0,
    "awakenedDragon": 0.9,
    "duskblade": 0.5,
    "conquerorPrestack": 0,
    "tenacity": 0.5
  },
  "Khazix": {
    "HasHardCC": false,
    "SuddenImpact": 1.0,
    "cdrGeneral": 0.3,
    "cdrP": 0,
    "cdrQ": 0.85,
    "cdrW": 0.85,
    "cdrE": 0.35,
    "cdrR": 0.85,
    "tear": 0.75,
    "guinsoo": 0.4,
    "rylais": 0.4,
    "zhonyas": 0.8,
    "liandry": 0.8,
    "movementimpair": 0.25,
    "movementspeedproficiency": 1,
    "cleaver": 0.35,
    "witsend": 0.2,
    "meleechampion": true,
    "sunfire": 0.7,
    "abyssalproficiency": 1,
    "tiamatproficiency": 1,
    "ardentcenser": 0,
    "awakenedDragon": 0.7,
    "duskblade": 1,
    "conquerorPrestack": 0,
    "tenacity": 0.6
  },
  "Kindred": {
    "HasHardCC": false,
    "SuddenImpact": 1.0,
    "cdrGeneral": 0.35,
    "cdrP": 0,
    "cdrQ": 0.5,
    "cdrW": 0.65,
    "cdrE": 0.75,
    "cdrR": 0,
    "tear": 0.8,
    "guinsoo": 0.5,
    "rylais": 0.4,
    "zhonyas": 0.65,
    "liandry": 0.6,
    "movementimpair": 0.1,
    "movementspeedproficiency": 1,
    "cleaver": 0.6,
    "witsend": 0.4,
    "meleechampion": false,
    "sunfire": 0.2,
    "abyssalproficiency": 1,
    "tiamatproficiency": 0,
    "ardentcenser": 0,
    "awakenedDragon": 0.3,
    "duskblade": 0.5,
    "conquerorPrestack": 0,
    "tenacity": 0.5
  },
  "Kled": {
    "HasHardCC": true,
    "SuddenImpact": 0.9,
    "cdrGeneral": 0.5,
    "cdrP": 0.85,
    "cdrQ": 0.85,
    "cdrW": 0.8,
    "cdrE": 0.8,
    "cdrR": 0,
    "tear": 0,
    "guinsoo": 0.5,
    "rylais": 0.6,
    "zhonyas": 0.7,
    "liandry": 0.5,
    "movementimpair": 0.2,
    "movementspeedproficiency": 1,
    "cleaver": 0.75,
    "witsend": 0.45,
    "meleechampion": true,
    "sunfire": 0.75,
    "abyssalproficiency": 1,
    "tiamatproficiency": 1,
    "ardentcenser": 0,
    "awakenedDragon": 0.8,
    "duskblade": 0.5,
    "conquerorPrestack": 0,
    "tenacity": 0.7
  },
  "KogMaw": {
    "HasHardCC": false,
    "SuddenImpact": 0,
    "cdrGeneral": 0.5,
    "cdrP": 0,
    "cdrQ": 0.8,
    "cdrW": 0.95,
    "cdrE": 0.9,
    "cdrR": 0.3,
    "tear": 0.7,
    "guinsoo": 0.8,
    "rylais": 0.6,
    "zhonyas": 0.65,
    "liandry": 0.85,
    "movementimpair": 0.15,
    "movementspeedproficiency": 1,
    "cleaver": 0.5,
    "witsend": 0.5,
    "meleechampion": false,
    "sunfire": 0.15,
    "abyssalproficiency": 0.4,
    "tiamatproficiency": 0,
    "ardentcenser": 0,
    "awakenedDragon": 0.5,
    "duskblade": 0.5,
    "conquerorPrestack": 0,
    "tenacity": 0.6
  },
  "Leblanc": {
    "HasHardCC": true,
    "SuddenImpact": 0.75,
    "cdrGeneral": 0.6,
    "cdrP": 0,
    "cdrQ": 0.9,
    "cdrW": 0.9,
    "cdrE": 0.85,
    "cdrR": 0,
    "tear": 0.75,
    "guinsoo": 0.3,
    "rylais": 0.6,
    "zhonyas": 0.7,
    "liandry": 0.5,
    "movementimpair": 0.3,
    "movementspeedproficiency": 0.8,
    "cleaver": 0.1,
    "witsend": 0.1,
    "meleechampion": false,
    "sunfire": 0.3,
    "abyssalproficiency": 1,
    "tiamatproficiency": 0,
    "ardentcenser": 0,
    "awakenedDragon": 0.5,
    "duskblade": 0.5,
    "conquerorPrestack": 0,
    "tenacity": 0.4
  },
  "LeeSin": {
    "HasHardCC": true,
    "SuddenImpact": 0.8,
    "cdrGeneral": 0.4,
    "cdrP": 0,
    "cdrQ": 0.8,
    "cdrW": 0.8,
    "cdrE": 0.7,
    "cdrR": 0,
    "tear": 0,
    "guinsoo": 0.5,
    "rylais": 0.3,
    "zhonyas": 0.7,
    "liandry": 0.4,
    "movementimpair": 0.2,
    "movementspeedproficiency": 1,
    "cleaver": 0.55,
    "witsend": 0.35,
    "meleechampion": true,
    "sunfire": 0.7,
    "abyssalproficiency": 1,
    "tiamatproficiency": 1,
    "ardentcenser": 0,
    "awakenedDragon": 0.5,
    "duskblade": 0.5,
    "conquerorPrestack": 0,
    "tenacity": 0.65
  },
  "Leona": {
    "HasHardCC": true,
    "SuddenImpact": 0.9,
    "cdrGeneral": 0.8,
    "cdrP": 0,
    "cdrQ": 0.75,
    "cdrW": 0.8,
    "cdrE": 0.8,
    "cdrR": 0,
    "tear": 0.65,
    "guinsoo": 0.4,
    "rylais": 0.25,
    "zhonyas": 0.75,
    "liandry": 0.5,
    "movementimpair": 0.3,
    "movementspeedproficiency": 1,
    "cleaver": 0.3,
    "witsend": 0.3,
    "meleechampion": true,
    "sunfire": 1,
    "abyssalproficiency": 1,
    "tiamatproficiency": 0.5,
    "ardentcenser": 0,
    "awakenedDragon": 0.8,
    "duskblade": 0.5,
    "conquerorPrestack": 0,
    "tenacity": 0.6
  },
  "Lillia": {
    "HasHardCC": true,
    "SuddenImpact": 0.4,
    "cdrGeneral": 0.7,
    "cdrP": 0,
    "cdrQ": 0.9,
    "cdrW": 0.8,
    "cdrE": 0.8,
    "cdrR": 0,
    "tear": 0.8,
    "guinsoo": 0.4,
    "rylais": 0.8,
    "zhonyas": 0.7,
    "liandry": 1,
    "movementimpair": 0.1,
    "movementspeedproficiency": 0.8,
    "cleaver": 0.1,
    "witsend": 0.1,
    "meleechampion": false,
    "sunfire": 0.3,
    "abyssalproficiency": 0.3,
    "tiamatproficiency": 0,
    "ardentcenser": 0,
    "awakenedDragon": 0.7,
    "duskblade": 0.5,
    "conquerorPrestack": 0,
    "tenacity": 0.6
  },
  "Lissandra": {
    "HasHardCC": true,
    "SuddenImpact": 0.6,
    "cdrGeneral": 0.7,
    "cdrP": 0,
    "cdrQ": 0.85,
    "cdrW": 0.8,
    "cdrE": 0.75,
    "cdrR": 0,
    "tear": 0.8,
    "guinsoo": 0.4,
    "rylais": 0.2,
    "zhonyas": 0.8,
    "liandry": 0.75,
    "movementimpair": 0.5,
    "movementspeedproficiency": 1,
    "cleaver": 0.15,
    "witsend": 0.15,
    "meleechampion": false,
    "sunfire": 0.35,
    "abyssalproficiency": 0.85,
    "tiamatproficiency": 0,
    "ardentcenser": 0,
    "awakenedDragon": 0.6,
    "duskblade": 0.5,
    "conquerorPrestack": 0,
    "tenacity": 0.4
  },
  "Lucian": {
    "HasHardCC": false,
    "SuddenImpact": 0.8,
    "cdrGeneral": 0.65,
    "cdrP": 0,
    "cdrQ": 0.8,
    "cdrW": 0.8,
    "cdrE": 0.8,
    "cdrR": 0,
    "tear": 0.65,
    "guinsoo": 0.7,
    "rylais": 0.2,
    "zhonyas": 0.65,
    "liandry": 0.35,
    "movementimpair": 0,
    "movementspeedproficiency": 1,
    "cleaver": 0.65,
    "witsend": 0.45,
    "meleechampion": false,
    "sunfire": 0.2,
    "abyssalproficiency": 0.7,
    "tiamatproficiency": 0,
    "ardentcenser": 0,
    "awakenedDragon": 0.3,
    "duskblade": 0.5,
    "conquerorPrestack": 0,
    "tenacity": 0.5
  },
  "Lulu": {
    "HasHardCC": true,
    "SuddenImpact": 0,
    "cdrGeneral": 0.7,
    "cdrP": 0,
    "cdrQ": 0.8,
    "cdrW": 0.8,
    "cdrE": 0.75,
    "cdrR": 0,
    "tear": 0.8,
    "guinsoo": 0.7,
    "rylais": 0.2,
    "zhonyas": 0.8,
    "liandry": 0.6,
    "movementimpair": 0.35,
    "movementspeedproficiency": 0.8,
    "cleaver": 0.4,
    "witsend": 0.4,
    "meleechampion": false,
    "sunfire": 0.2,
    "abyssalproficiency": 0.8,
    "tiamatproficiency": 0,
    "ardentcenser": 0.75,
    "awakenedDragon": 0.5,
    "duskblade": 0.5,
    "conquerorPrestack": 0,
    "tenacity": 0.6
  },
  "Lux": {
    "HasHardCC": true,
    "SuddenImpact": 0,
    "cdrGeneral": 0.55,
    "cdrP": 0,
    "cdrQ": 0.85,
    "cdrW": 0.85,
    "cdrE": 0.85,
    "cdrR": 0.30,
    "tear": 0.7,
    "guinsoo": 0.4,
    "rylais": 0.35,
    "zhonyas": 0.75,
    "liandry": 0.3,
    "movementimpair": 0.35,
    "movementspeedproficiency": 1,
    "cleaver": 0.25,
    "witsend": 0.25,
    "meleechampion": false,
    "sunfire": 0.15,
    "abyssalproficiency": 0.4,
    "tiamatproficiency": 0,
    "ardentcenser": 0.25,
    "awakenedDragon": 0.8,
    "duskblade": 0.5,
    "conquerorPrestack": 0,
    "tenacity": 0.35
  },
  "Malphite": {
    "HasHardCC": true,
    "SuddenImpact": 0.3,
    "cdrGeneral": 0.35,
    "cdrP": 0,
    "cdrQ": 0.85,
    "cdrW": 0.7,
    "cdrE": 0.8,
    "cdrR": 0,
    "tear": 0.4,
    "guinsoo": 0.4,
    "rylais": 0.3,
    "zhonyas": 0.6,
    "liandry": 0.5,
    "movementimpair": 0.5,
    "movementspeedproficiency": 1,
    "cleaver": 0.25,
    "witsend": 0.25,
    "meleechampion": true,
    "sunfire": 0.75,
    "abyssalproficiency": 1,
    "tiamatproficiency": 1,
    "ardentcenser": 0,
    "awakenedDragon": 1,
    "duskblade": 0.5,
    "conquerorPrestack": 0,
    "tenacity": 0.5
  },
  "Malzahar": {
    "HasHardCC": true,
    "SuddenImpact": 0,
    "cdrGeneral": 0.25,
    "cdrP": 0,
    "cdrQ": 0.8,
    "cdrW": 0.75,
    "cdrE": 0.8,
    "cdrR": 0,
    "tear": 0.7,
    "guinsoo": 0.2,
    "rylais": 1.0,
    "zhonyas": 0.6,
    "liandry": 0.7,
    "movementimpair": 0.1,
    "movementspeedproficiency": 1,
    "cleaver": 0.7,
    "witsend": 0.4,
    "meleechampion": false,
    "sunfire": 0.15,
    "abyssalproficiency": 0.7,
    "tiamatproficiency": 0,
    "ardentcenser": 0,
    "awakenedDragon": 0.8,
    "duskblade": 0.5,
    "conquerorPrestack": 0,
    "tenacity": 0.4
  },
  "MasterYi": {
    "HasHardCC": false,
    "SuddenImpact": 0.85,
    "cdrGeneral": 0.5,
    "cdrP": 0,
    "cdrQ": 0.9,
    "cdrW": 0.7,
    "cdrE": 0.85,
    "cdrR": 0,
    "tear": 0.3,
    "guinsoo": 0.6,
    "rylais": 0.25,
    "zhonyas": 0.6,
    "liandry": 0.3,
    "movementimpair": 0,
    "movementspeedproficiency": 0.5,
    "cleaver": 0.7,
    "witsend": 0.6,
    "meleechampion": true,
    "sunfire": 1,
    "abyssalproficiency": 1,
    "tiamatproficiency": 0.8,
    "ardentcenser": 0,
    "awakenedDragon": 0.7,
    "duskblade": 0.5,
    "conquerorPrestack": 0,
    "tenacity": 0.85
  },
  "Maokai": {
    "HasHardCC": true,
    "SuddenImpact": 1.0,
    "cdrGeneral": 0.7,
    "cdrP": 0,
    "cdrQ": 0.85,
    "cdrW": 0.9,
    "cdrE": 0.8,
    "cdrR": 0.2,
    "tear": 0.75,
    "guinsoo": 0.3,
    "rylais": 0.3,
    "zhonyas": 0.6,
    "liandry": 0.75,
    "movementimpair": 0.3,
    "movementspeedproficiency": 1,
    "cleaver": 0.2,
    "witsend": 0.2,
    "meleechampion": true,
    "sunfire": 0.9,
    "abyssalproficiency": 1,
    "tiamatproficiency": 1,
    "ardentcenser": 0,
    "awakenedDragon": 0.7,
    "duskblade": 0.5,
    "conquerorPrestack": 0,
    "tenacity": 0.65
  },
  "MissFortune": {
    "HasHardCC": false,
    "SuddenImpact": 0,
    "cdrGeneral": 0.3,
    "cdrP": 0,
    "cdrQ": 0.9,
    "cdrW": 0.65,
    "cdrE": 0.85,
    "cdrR": 0,
    "tear": 0.7,
    "guinsoo": 0.7,
    "rylais": 0.5,
    "zhonyas": 0.6,
    "liandry": 0.4,
    "movementimpair": 0.25,
    "movementspeedproficiency": 1,
    "cleaver": 0.75,
    "witsend": 0.65,
    "meleechampion": false,
    "sunfire": 0.15,
    "abyssalproficiency": 0.7,
    "tiamatproficiency": 0,
    "ardentcenser": 0,
    "awakenedDragon": 0.6,
    "duskblade": 0.5,
    "conquerorPrestack": 0,
    "tenacity": 0.6
  },
  "Mordekaiser": {
    "HasHardCC": false,
    "SuddenImpact": 0,
    "cdrGeneral": 0.25,
    "cdrP": 0,
    "cdrQ": 0.85,
    "cdrW": 0.8,
    "cdrE": 0.8,
    "cdrR": 0,
    "tear": 0,
    "guinsoo": 0.6,
    "rylais": 0.9,
    "zhonyas": 0.7,
    "liandry": 0.85,
    "movementimpair": 0,
    "movementspeedproficiency": 1,
    "cleaver": 0.5,
    "witsend": 0.5,
    "meleechampion": true,
    "sunfire": 0.65,
    "abyssalproficiency": 0.7,
    "tiamatproficiency": 0.8,
    "ardentcenser": 0,
    "awakenedDragon": 1,
    "duskblade": 0.5,
    "conquerorPrestack": 0.3,
    "tenacity": 0.7
  },
  "Morgana": {
    "HasHardCC": true,
    "SuddenImpact": 0,
    "cdrGeneral": 0.6,
    "cdrP": 0,
    "cdrQ": 0.8,
    "cdrW": 0.8,
    "cdrE": 0.8,
    "cdrR": 0,
    "tear": 0.75,
    "guinsoo": 0.3,
    "rylais": 0.2,
    "zhonyas": 1,
    "liandry": 0.5,
    "movementimpair": 0.4,
    "movementspeedproficiency": 1,
    "cleaver": 0.2,
    "witsend": 0.2,
    "meleechampion": false,
    "sunfire": 0.3,
    "abyssalproficiency": 0.8,
    "tiamatproficiency": 0,
    "ardentcenser": 1,
    "awakenedDragon": 0.8,
    "duskblade": 0.5,
    "conquerorPrestack": 0,
    "tenacity": 0.3
  },
  "Nami": {
    "HasHardCC": true,
    "SuddenImpact": 0,
    "cdrGeneral": 0.75,
    "cdrP": 0,
    "cdrQ": 0.8,
    "cdrW": 0.85,
    "cdrE": 0.8,
    "cdrR": 0,
    "tear": 0.8,
    "guinsoo": 0.4,
    "rylais": 0.2,
    "zhonyas": 0.7,
    "liandry": 0.5,
    "movementimpair": 0.45,
    "movementspeedproficiency": 1,
    "cleaver": 0.2,
    "witsend": 0.2,
    "meleechampion": false,
    "sunfire": 0.15,
    "abyssalproficiency": 0.6,
    "tiamatproficiency": 0,
    "ardentcenser": 1,
    "awakenedDragon": 0.7,
    "duskblade": 0.5,
    "conquerorPrestack": 0,
    "tenacity": 0.5
  },
  "Nasus": {
    "HasHardCC": false,
    "SuddenImpact": 0,
    "cdrGeneral": 0.75,
    "cdrP": 0,
    "cdrQ": 0.85,
    "cdrW": 0.8,
    "cdrE": 0.6,
    "cdrR": 0,
    "tear": 0.75,
    "guinsoo": 0.4,
    "rylais": 0.2,
    "zhonyas": 0.3,
    "liandry": 0.5,
    "movementimpair": 0.7,
    "movementspeedproficiency": 1,
    "cleaver": 0.5,
    "witsend": 0.5,
    "meleechampion": true,
    "sunfire": 0.8,
    "abyssalproficiency": 0.9,
    "tiamatproficiency": 0.8,
    "ardentcenser": 0,
    "awakenedDragon": 0.8,
    "duskblade": 0.5,
    "conquerorPrestack": 0,
    "tenacity": 1
  },
  "Nautilus": {
    "HasHardCC": true,
    "SuddenImpact": 1.0,
    "cdrGeneral": 0.6,
    "cdrP": 0,
    "cdrQ": 0.8,
    "cdrW": 0.95,
    "cdrE": 0.8,
    "cdrR": 0,
    "tear": 0.55,
    "guinsoo": 0.3,
    "rylais": 0.05,
    "zhonyas": 0.7,
    "liandry": 0.5,
    "movementimpair": 0.35,
    "movementspeedproficiency": 1,
    "cleaver": 0.3,
    "witsend": 0.3,
    "meleechampion": true,
    "sunfire": 1,
    "abyssalproficiency": 1,
    "tiamatproficiency": 0.8,
    "ardentcenser": 0,
    "awakenedDragon": 0.7,
    "duskblade": 0.5,
    "conquerorPrestack": 0,
    "tenacity": 0.5
  },
  "Neeko": {
    "HasHardCC": true,
    "SuddenImpact": 0.8,
    "cdrGeneral": 0.4,
    "cdrP": 0,
    "cdrQ": 0.8,
    "cdrW": 0.7,
    "cdrE": 0.8,
    "cdrR": 0,
    "tear": 0.7,
    "guinsoo": 0.2,
    "rylais": 0.3,
    "zhonyas": 0.75,
    "liandry": 0.4,
    "movementimpair": 0.15,
    "movementspeedproficiency": 1,
    "cleaver": 0.2,
    "witsend": 0.2,
    "meleechampion": false,
    "sunfire": 0.2,
    "abyssalproficiency": 0.3,
    "tiamatproficiency": 0,
    "ardentcenser": 0,
    "awakenedDragon": 0.8,
    "duskblade": 0.5,
    "conquerorPrestack": 0,
    "tenacity": 0.4
  },
  "Nidalee": {
    "HasHardCC": false,
    "SuddenImpact": 0.6,
    "cdrGeneral": 0.35,
    "cdrP": 0.8,
    "cdrQ": 0.8,
    "cdrW": 0.85,
    "cdrE": 0.85,
    "cdrR": 0.85,
    "tear": 0.6,
    "guinsoo": 0.4,
    "rylais": 0.4,
    "zhonyas": 0.75,
    "liandry": 0.5,
    "movementimpair": 0,
    "movementspeedproficiency": 0.8,
    "cleaver": 0.3,
    "witsend": 0.3,
    "meleechampion": false,
    "sunfire": 0.4,
    "abyssalproficiency": 0.65,
    "tiamatproficiency": 0,
    "ardentcenser": 0.5,
    "awakenedDragon": 0,
    "duskblade": 0.5,
    "conquerorPrestack": 0,
    "tenacity": 0.5
  },
  "Nocturne": {
    "HasHardCC": true,
    "SuddenImpact": 0.3,
    "cdrGeneral": 0.35,
    "cdrP": 0,
    "cdrQ": 0.9,
    "cdrW": 0.75,
    "cdrE": 0.75,
    "cdrR": 0,
    "tear": 0.65,
    "guinsoo": 0.5,
    "rylais": 0.4,
    "zhonyas": 0.6,
    "liandry": 0.4,
    "movementimpair": 0.15,
    "movementspeedproficiency": 0.8,
    "cleaver": 0.5,
    "witsend": 0.35,
    "meleechampion": true,
    "sunfire": 0.75,
    "abyssalproficiency": 1,
    "tiamatproficiency": 1,
    "ardentcenser": 0,
    "awakenedDragon": 1,
    "duskblade": 0.5,
    "conquerorPrestack": 0,
    "tenacity": 0.75
  },
  "Nunu": {
    "HasHardCC": true,
    "SuddenImpact": 0,
    "cdrGeneral": 0.65,
    "cdrP": 0,
    "cdrQ": 0.8,
    "cdrW": 0.8,
    "cdrE": 0.65,
    "cdrR": 0,
    "tear": 0.6,
    "guinsoo": 0.4,
    "rylais": 0.50,
    "zhonyas": 0.6,
    "liandry": 0.6,
    "movementimpair": 0.2,
    "movementspeedproficiency": 1,
    "cleaver": 0.3,
    "witsend": 0.3,
    "meleechampion": true,
    "sunfire": 0.8,
    "abyssalproficiency": 0.8,
    "tiamatproficiency": 0.8,
    "ardentcenser": 0,
    "awakenedDragon": 0.6,
    "duskblade": 0.5,
    "conquerorPrestack": 0,
    "tenacity": 0.7
  },
  "Olaf": {
    "HasHardCC": false,
    "SuddenImpact": 0,
    "cdrGeneral": 0.3,
    "cdrP": 0,
    "cdrQ": 0.75,
    "cdrW": 0.75,
    "cdrE": 0.85,
    "cdrR": 0,
    "tear": 0.75,
    "guinsoo": 0.6,
    "rylais": 0.3,
    "zhonyas": 0.6,
    "liandry": 0.8,
    "movementimpair": 0.4,
    "movementspeedproficiency": 1,
    "cleaver": 0.55,
    "witsend": 0.45,
    "meleechampion": true,
    "sunfire": 0.9,
    "abyssalproficiency": 1,
    "tiamatproficiency": 1,
    "ardentcenser": 0,
    "awakenedDragon": 0.9,
    "duskblade": 0.5,
    "conquerorPrestack": 0,
    "tenacity": 0.5
  },
  "Orianna": {
    "HasHardCC": true,
    "SuddenImpact": 0,
    "cdrGeneral": 0.45,
    "cdrP": 0,
    "cdrQ": 0.85,
    "cdrW": 0.85,
    "cdrE": 0.85,
    "cdrR": 0.05,
    "tear": 0.8,
    "guinsoo": 0.5,
    "rylais": 0.4,
    "zhonyas": 0.65,
    "liandry": 0.8,
    "movementimpair": 0.2,
    "movementspeedproficiency": 0.8,
    "cleaver": 0.25,
    "witsend": 0.25,
    "meleechampion": false,
    "sunfire": 0.2,
    "abyssalproficiency": 0.5,
    "tiamatproficiency": 0,
    "ardentcenser": 0,
    "awakenedDragon": 0.9,
    "duskblade": 0.5,
    "conquerorPrestack": 0,
    "tenacity": 0.5
  },
  "Ornn": {
    "HasHardCC": true,
    "SuddenImpact": 0.5,
    "cdrGeneral": 0.6,
    "cdrP": 0.65,
    "cdrQ": 0.8,
    "cdrW": 0.8,
    "cdrE": 0.7,
    "cdrR": 0,
    "tear": 0.7,
    "guinsoo": 0.2,
    "rylais": 0.3,
    "zhonyas": 0.7,
    "liandry": 0.4,
    "movementimpair": 0.3,
    "movementspeedproficiency": 1,
    "cleaver": 0.4,
    "witsend": 0.2,
    "meleechampion": true,
    "sunfire": 0.8,
    "abyssalproficiency": 0.85,
    "tiamatproficiency": 1,
    "ardentcenser": 0,
    "awakenedDragon": 0.9,
    "duskblade": 0.5,
    "conquerorPrestack": 0,
    "tenacity": 0.65
  },
  "Pantheon": {
    "HasHardCC": true,
    "SuddenImpact": 0.9,
    "cdrGeneral": 0.3,
    "cdrP": 0,
    "cdrQ": 0.85,
    "cdrW": 0.8,
    "cdrE": 0.8,
    "cdrR": 0,
    "tear": 0.7,
    "guinsoo": 0.4,
    "rylais": 0.6,
    "zhonyas": 0.6,
    "liandry": 0.5,
    "movementimpair": 0.15,
    "movementspeedproficiency": 1,
    "cleaver": 0.8,
    "witsend": 0.5,
    "meleechampion": true,
    "sunfire": 0.7,
    "abyssalproficiency": 1,
    "tiamatproficiency": 0.8,
    "ardentcenser": 0,
    "awakenedDragon": 0.8,
    "duskblade": 0.5,
    "conquerorPrestack": 0,
    "tenacity": 0.75
  },
  "Poppy": {
    "HasHardCC": true,
    "SuddenImpact": 0.9,
    "cdrGeneral": 0.4,
    "cdrP": 0,
    "cdrQ": 0.85,
    "cdrW": 0.7,
    "cdrE": 0.75,
    "cdrR": 0,
    "tear": 0.6,
    "guinsoo": 0.35,
    "rylais": 0.2,
    "zhonyas": 0.7,
    "liandry": 0.65,
    "movementimpair": 0.2,
    "movementspeedproficiency": 1,
    "cleaver": 0.5,
    "witsend": 0.25,
    "meleechampion": true,
    "sunfire": 1,
    "abyssalproficiency": 1,
    "tiamatproficiency": 1,
    "ardentcenser": 0,
    "awakenedDragon": 0.5,
    "duskblade": 0.5,
    "conquerorPrestack": 0,
    "tenacity": 0.6
  },
  "Pyke": {
    "HasHardCC": true,
    "SuddenImpact": 0.65,
    "cdrGeneral": 0.6,
    "cdrP": 0,
    "cdrQ": 0.80,
    "cdrW": 0.7,
    "cdrE": 0.75,
    "cdrR": 0,
    "tear": 0.6,
    "guinsoo": 0.35,
    "rylais": 0.1,
    "zhonyas": 0.80,
    "liandry": 0.65,
    "movementimpair": 0.2,
    "movementspeedproficiency": 1,
    "cleaver": 0.5,
    "witsend": 0.25,
    "meleechampion": true,
    "sunfire": 0.6,
    "abyssalproficiency": 0.6,
    "tiamatproficiency": 1,
    "ardentcenser": 0,
    "awakenedDragon": 0.3,
    "duskblade": 0.75,
    "conquerorPrestack": 0,
    "tenacity": 0.7
  },
  "Qiyana": {
    "HasHardCC": true,
    "SuddenImpact": 1,
    "cdrGeneral": 0.5,
    "cdrP": 0,
    "cdrQ": 0.85,
    "cdrW": 0.8,
    "cdrE": 0.8,
    "cdrR": 0,
    "tear": 0.65,
    "guinsoo": 0.7,
    "rylais": 0.4,
    "zhonyas": 0.6,
    "liandry": 0.5,
    "movementimpair": 0.1,
    "movementspeedproficiency": 1,
    "cleaver": 0.65,
    "witsend": 0.5,
    "meleechampion": true,
    "sunfire": 0.6,
    "abyssalproficiency": 0.6,
    "tiamatproficiency": 0.8,
    "ardentcenser": 0,
    "awakenedDragon": 0.8,
    "duskblade": 0.5,
    "conquerorPrestack": 0,
    "tenacity": 0.6
  },
  "Quinn": {
    "HasHardCC": true,
    "SuddenImpact": 0.8,
    "cdrGeneral": 0.5,
    "cdrP": 0,
    "cdrQ": 0.9,
    "cdrW": 0.7,
    "cdrE": 0.7,
    "cdrR": 0,
    "tear": 0.65,
    "guinsoo": 0.7,
    "rylais": 0.2,
    "zhonyas": 0.6,
    "liandry": 0.5,
    "movementimpair": 0.2,
    "movementspeedproficiency": 1,
    "cleaver": 0.6,
    "witsend": 0.5,
    "meleechampion": false,
    "sunfire": 0.3,
    "abyssalproficiency": 0.8,
    "tiamatproficiency": 0,
    "ardentcenser": 0,
    "awakenedDragon": 0.5,
    "duskblade": 0.5,
    "conquerorPrestack": 0,
    "tenacity": 0.6
  },
  "Rakan": {
    "HasHardCC": true,
    "SuddenImpact": 0.9,
    "cdrGeneral": 0.6,
    "cdrP": 0.85,
    "cdrQ": 0.85,
    "cdrW": 0.8,
    "cdrE": 0.7,
    "cdrR": 0,
    "tear": 0.7,
    "guinsoo": 0.4,
    "rylais": 0.4,
    "zhonyas": 0.7,
    "liandry": 0.5,
    "movementimpair": 0.2,
    "movementspeedproficiency": 1,
    "cleaver": 0.3,
    "witsend": 0.3,
    "meleechampion": false,
    "sunfire": 0.7,
    "abyssalproficiency": 1,
    "tiamatproficiency": 0,
    "ardentcenser": 1,
    "awakenedDragon": 1,
    "duskblade": 0.5,
    "conquerorPrestack": 0,
    "tenacity": 0.6
  },
  "Rammus": {
    "HasHardCC": true,
    "SuddenImpact": 0,
    "cdrGeneral": 0.6,
    "cdrP": 0,
    "cdrQ": 0.6,
    "cdrW": 0.45,
    "cdrE": 0.75,
    "cdrR": 0.05,
    "tear": 0.55,
    "guinsoo": 0.3,
    "rylais": 0.25,
    "zhonyas": 0.7,
    "liandry": 0.85,
    "movementimpair": 0.2,
    "movementspeedproficiency": 0.8,
    "cleaver": 0.3,
    "witsend": 0.3,
    "meleechampion": true,
    "sunfire": 1,
    "abyssalproficiency": 1,
    "tiamatproficiency": 1,
    "ardentcenser": 0,
    "awakenedDragon": 0.8,
    "duskblade": 0.5,
    "conquerorPrestack": 0,
    "tenacity": 0.6
  },
  "RekSai": {
    "HasHardCC": true,
    "SuddenImpact": 0.9,
    "cdrGeneral": 0.4,
    "cdrP": 0.8,
    "cdrQ": 0.75,
    "cdrW": 0.4,
    "cdrE": 0.6,
    "cdrR": 0,
    "tear": 0,
    "guinsoo": 0.5,
    "rylais": 0.3,
    "zhonyas": 0.5,
    "liandry": 0.4,
    "movementimpair": 0.1,
    "movementspeedproficiency": 1,
    "cleaver": 0.6,
    "witsend": 0.6,
    "meleechampion": true,
    "sunfire": 0.9,
    "abyssalproficiency": 0.5,
    "tiamatproficiency": 1,
    "ardentcenser": 0,
    "awakenedDragon": 0.5,
    "duskblade": 0.5,
    "conquerorPrestack": 0,
    "tenacity": 0.5
  },
  "Renekton": {
    "HasHardCC": true,
    "SuddenImpact": 0.8,
    "cdrGeneral": 0.35,
    "cdrP": 0.2,
    "cdrQ": 0.85,
    "cdrW": 0.8,
    "cdrE": 0.75,
    "cdrR": 0,
    "tear": 0,
    "guinsoo": 0.6,
    "rylais": 0.3,
    "zhonyas": 0.7,
    "liandry": 0.9,
    "movementimpair": 0.15,
    "movementspeedproficiency": 1,
    "cleaver": 0.75,
    "witsend": 0.5,
    "meleechampion": true,
    "sunfire": 1,
    "abyssalproficiency": 1,
    "tiamatproficiency": 1,
    "ardentcenser": 0,
    "awakenedDragon": 0.8,
    "duskblade": 0.5,
    "conquerorPrestack": 0,
    "tenacity": 0.7
  },
  "Rengar": {
    "HasHardCC": true,
    "SuddenImpact": 1.0,
    "cdrGeneral": 0.8,
    "cdrP": 0.3,
    "cdrQ": 0.75,
    "cdrW": 0.8,
    "cdrE": 0.6,
    "cdrR": 0.3,
    "tear": 0,
    "guinsoo": 0.5,
    "rylais": 0.1,
    "zhonyas": 0.8,
    "liandry": 0.5,
    "movementimpair": 0.3,
    "movementspeedproficiency": 1,
    "cleaver": 0.4,
    "witsend": 0.3,
    "meleechampion": true,
    "sunfire": 0.7,
    "abyssalproficiency": 1,
    "tiamatproficiency": 1,
    "ardentcenser": 0,
    "awakenedDragon": 0.8,
    "duskblade": 1,
    "conquerorPrestack": 0,
    "tenacity": 0.5
  },
  "Riven": {
    "HasHardCC": true,
    "SuddenImpact": 0.9,
    "cdrGeneral": 0.75,
    "cdrP": 0,
    "cdrQ": 0.85,
    "cdrW": 0.8,
    "cdrE": 0.8,
    "cdrR": 0,
    "tear": 0,
    "guinsoo": 0.5,
    "rylais": 0.3,
    "zhonyas": 0.7,
    "liandry": 0.6,
    "movementimpair": 0.2,
    "movementspeedproficiency": 1,
    "cleaver": 0.75,
    "witsend": 0.45,
    "meleechampion": true,
    "sunfire": 0.8,
    "abyssalproficiency": 1,
    "tiamatproficiency": 1,
    "ardentcenser": 0,
    "awakenedDragon": 0.9,
    "duskblade": 0.5,
    "conquerorPrestack": 0,
    "tenacity": 0.5
  },
  "Rumble": {
    "HasHardCC": false,
    "SuddenImpact": 0,
    "cdrGeneral": 0.3,
    "cdrP": 0,
    "cdrQ": 0.65,
    "cdrW": 0.6,
    "cdrE": 0.5,
    "cdrR": 0,
    "tear": 0,
    "guinsoo": 0.2,
    "rylais": 0.2,
    "zhonyas": 0.8,
    "liandry": 0.7,
    "movementimpair": 0.4,
    "movementspeedproficiency": 1,
    "cleaver": 0.3,
    "witsend": 0.3,
    "meleechampion": true,
    "sunfire": 0.6,
    "abyssalproficiency": 0.7,
    "tiamatproficiency": 1,
    "ardentcenser": 0,
    "awakenedDragon": 0.5,
    "duskblade": 0.5,
    "conquerorPrestack": 0,
    "tenacity": 0.5
  },
  "Ryze": {
    "HasHardCC": true,
    "SuddenImpact": 0.1,
    "cdrGeneral": 0.3,
    "cdrP": 0,
    "cdrQ": 0.85,
    "cdrW": 0.45,
    "cdrE": 0.75,
    "cdrR": 0,
    "tear": 0.95,
    "guinsoo": 0.2,
    "rylais": 0.65,
    "zhonyas": 0.7,
    "liandry": 0.9,
    "movementimpair": 0.35,
    "movementspeedproficiency": 0.8,
    "cleaver": 0.1,
    "witsend": 0.1,
    "meleechampion": false,
    "sunfire": 0.3,
    "abyssalproficiency": 1,
    "tiamatproficiency": 0,
    "ardentcenser": 0,
    "awakenedDragon": 0.5,
    "duskblade": 0.5,
    "conquerorPrestack": 0,
    "tenacity": 0.75
  },
  "Sejuani": {
    "HasHardCC": true,
    "SuddenImpact": 1.0,
    "cdrGeneral": 0.7,
    "cdrP": 0.75,
    "cdrQ": 0.85,
    "cdrW": 0.75,
    "cdrE": 0.8,
    "cdrR": 0,
    "tear": 0.65,
    "guinsoo": 0.2,
    "rylais": 0.3,
    "zhonyas": 0.6,
    "liandry": 0.8,
    "movementimpair": 0.4,
    "movementspeedproficiency": 1,
    "cleaver": 0.2,
    "witsend": 0.2,
    "meleechampion": true,
    "sunfire": 0.8,
    "abyssalproficiency": 0.9,
    "tiamatproficiency": 0.5,
    "ardentcenser": 0,
    "awakenedDragon": 0.8,
    "duskblade": 0.5,
    "conquerorPrestack": 0,
    "tenacity": 0.7
  },
  "Senna": {
    "HasHardCC": true,
    "SuddenImpact": 0,
    "cdrGeneral": 0.5,
    "cdrP": 0,
    "cdrQ": 0.9,
    "cdrW": 0.8,
    "cdrE": 0.75,
    "cdrR": 0,
    "tear": 0.65,
    "guinsoo": 0.5,
    "rylais": 0.2,
    "zhonyas": 0.7,
    "liandry": 0.35,
    "movementimpair": 0.15,
    "movementspeedproficiency": 1,
    "cleaver": 0.35,
    "witsend": 0.25,
    "meleechampion": false,
    "sunfire": 0.15,
    "abyssalproficiency": 0.15,
    "tiamatproficiency": 0,
    "ardentcenser": 0,
    "awakenedDragon": 0.8,
    "duskblade": 0.5,
    "conquerorPrestack": 0,
    "tenacity": 0.5
  },
  "Sett": {
    "HasHardCC": true,
    "SuddenImpact": 0.4,
    "cdrGeneral": 0.35,
    "cdrP": 0,
    "cdrQ": 0.75,
    "cdrW": 0.8,
    "cdrE": 0.8,
    "cdrR": 0,
    "tear": 0,
    "guinsoo": 0.5,
    "rylais": 0.2,
    "zhonyas": 0.7,
    "liandry": 0.4,
    "movementimpair": 0.25,
    "movementspeedproficiency": 1,
    "cleaver": 0.55,
    "witsend": 0.4,
    "meleechampion": true,
    "sunfire": 0.70,
    "abyssalproficiency": 0.7,
    "tiamatproficiency": 0.8,
    "ardentcenser": 0,
    "awakenedDragon": 0.8,
    "duskblade": 0.5,
    "conquerorPrestack": 0,
    "tenacity": 0.70
  },
  "Shaco": {
    "HasHardCC": true,
    "SuddenImpact": 1.0,
    "cdrGeneral": 0.4,
    "cdrP": 0,
    "cdrQ": 0.8,
    "cdrW": 0.7,
    "cdrE": 0.95,
    "cdrR": 0,
    "tear": 0.7,
    "guinsoo": 0.6,
    "rylais": 0.3,
    "zhonyas": 0.85,
    "liandry": 0.3,
    "movementimpair": 0.35,
    "movementspeedproficiency": 1,
    "cleaver": 0.5,
    "witsend": 0.5,
    "meleechampion": true,
    "sunfire": 0.8,
    "abyssalproficiency": 0.8,
    "tiamatproficiency": 1,
    "ardentcenser": 0,
    "awakenedDragon": 0.6,
    "duskblade": 1,
    "conquerorPrestack": 0,
    "tenacity": 0.5
  },
  "Shen": {
    "HasHardCC": true,
    "SuddenImpact": 1.0,
    "cdrGeneral": 0.3,
    "cdrP": 0.7,
    "cdrQ": 0.7,
    "cdrW": 0.6,
    "cdrE": 0.7,
    "cdrR": 0,
    "tear": 0,
    "guinsoo": 0.5,
    "rylais": 0.1,
    "zhonyas": 0.7,
    "liandry": 0.2,
    "movementimpair": 0.15,
    "movementspeedproficiency": 1,
    "cleaver": 0.35,
    "witsend": 0.3,
    "meleechampion": true,
    "sunfire": 1,
    "abyssalproficiency": 1,
    "tiamatproficiency": 1,
    "ardentcenser": 0,
    "awakenedDragon": 0.8,
    "duskblade": 0.5,
    "conquerorPrestack": 0,
    "tenacity": 0.8
  },
  "Shyvana": {
    "HasHardCC": true,
    "SuddenImpact": 0.4,
    "cdrGeneral": 0.5,
    "cdrP": 0,
    "cdrQ": 0.85,
    "cdrW": 0.5,
    "cdrE": 0.8,
    "cdrR": 0,
    "tear": 0,
    "guinsoo": 0.7,
    "rylais": 0.5,
    "zhonyas": 0.6,
    "liandry": 0.65,
    "movementimpair": 0,
    "movementspeedproficiency": 0.8,
    "cleaver": 0.5,
    "witsend": 0.5,
    "meleechampion": true,
    "sunfire": 0.85,
    "abyssalproficiency": 0.8,
    "tiamatproficiency": 0.8,
    "ardentcenser": 0,
    "awakenedDragon": 0.7,
    "duskblade": 0.5,
    "conquerorPrestack": 0,
    "tenacity": 0.8
  },
  "Sion": {
    "HasHardCC": true,
    "SuddenImpact": 0.2,
    "cdrGeneral": 0.35,
    "cdrP": 0,
    "cdrQ": 0.7,
    "cdrW": 0.65,
    "cdrE": 0.85,
    "cdrR": 0,
    "tear": 0.7,
    "guinsoo": 0.2,
    "rylais": 0.2,
    "zhonyas": 0.7,
    "liandry": 0.65,
    "movementimpair": 0.35,
    "movementspeedproficiency": 1,
    "cleaver": 0.4,
    "witsend": 0.25,
    "meleechampion": true,
    "sunfire": 0.8,
    "abyssalproficiency": 0.8,
    "tiamatproficiency": 1,
    "ardentcenser": 0,
    "awakenedDragon": 1,
    "duskblade": 0.5,
    "conquerorPrestack": 0,
    "tenacity": 0.65
  },
  "Singed": {
    "HasHardCC": true,
    "SuddenImpact": 0,
    "cdrGeneral": 0.7,
    "cdrP": 0,
    "cdrQ": 0,
    "cdrW": 0.8,
    "cdrE": 0.85,
    "cdrR": 0,
    "tear": 1,
    "guinsoo": 0.2,
    "rylais": 1,
    "zhonyas": 0.65,
    "liandry": 1,
    "movementimpair": 0.2,
    "movementspeedproficiency": 1,
    "cleaver": 0.2,
    "witsend": 0.2,
    "meleechampion": true,
    "sunfire": 0.5,
    "abyssalproficiency": 0.85,
    "tiamatproficiency": 1,
    "ardentcenser": 0,
    "awakenedDragon": 0.8,
    "duskblade": 0.5,
    "conquerorPrestack": 0,
    "tenacity": 0.8
  },
  "Sivir": {
    "HasHardCC": false,
    "SuddenImpact": 0,
    "cdrGeneral": 0.6,
    "cdrP": 0,
    "cdrQ": 0.9,
    "cdrW": 0.85,
    "cdrE": 0.8,
    "cdrR": 0,
    "tear": 0.7,
    "guinsoo": 0.7,
    "rylais": 0.2,
    "zhonyas": 0.7,
    "liandry": 0.25,
    "movementimpair": 0,
    "movementspeedproficiency": 0.8,
    "cleaver": 0.7,
    "witsend": 0.55,
    "meleechampion": false,
    "sunfire": 0.2,
    "abyssalproficiency": 0.7,
    "tiamatproficiency": 0,
    "ardentcenser": 0,
    "awakenedDragon": 0.7,
    "duskblade": 0.5,
    "conquerorPrestack": 0,
    "tenacity": 0.5
  },
  "Skarner": {
    "HasHardCC": true,
    "SuddenImpact": 0,
    "cdrGeneral": 0.7,
    "cdrP": 0.8,
    "cdrQ": 0.8,
    "cdrW": 0.9,
    "cdrE": 0.75,
    "cdrR": 0,
    "tear": 0.9,
    "guinsoo": 0.5,
    "rylais": 0.5,
    "zhonyas": 0.7,
    "liandry": 1,
    "movementimpair": 0.2,
    "movementspeedproficiency": 0.8,
    "cleaver": 0.7,
    "witsend": 0.5,
    "meleechampion": true,
    "sunfire": 0.8,
    "abyssalproficiency": 0.9,
    "tiamatproficiency": 0,
    "ardentcenser": 0,
    "awakenedDragon": 0.7,
    "duskblade": 0.5,
    "conquerorPrestack": 0,
    "tenacity": 0.8
  },
  "Sona": {
    "HasHardCC": true,
    "SuddenImpact": 0,
    "cdrGeneral": 0.3,
    "cdrP": 0,
    "cdrQ": 0.9,
    "cdrW": 0.9,
    "cdrE": 0.9,
    "cdrR": 0,
    "tear": 0.7,
    "guinsoo": 0.4,
    "rylais": 0.3,
    "zhonyas": 0.7,
    "liandry": 0.4,
    "movementimpair": 0.1,
    "movementspeedproficiency": 1,
    "cleaver": 0.2,
    "witsend": 0.2,
    "meleechampion": false,
    "sunfire": 0.15,
    "abyssalproficiency": 0.75,
    "tiamatproficiency": 0,
    "ardentcenser": 0.75,
    "awakenedDragon": 0.7,
    "duskblade": 0.5,
    "conquerorPrestack": 0,
    "tenacity": 0.5
  },
  "Soraka": {
    "HasHardCC": false,
    "SuddenImpact": 0,
    "cdrGeneral": 0.3,
    "cdrP": 0,
    "cdrQ": 0.8,
    "cdrW": 0.8,
    "cdrE": 0.8,
    "cdrR": 0,
    "tear": 0.8,
    "guinsoo": 0.3,
    "rylais": 0.3,
    "zhonyas": 0.7,
    "liandry": 0.4,
    "movementimpair": 0.4,
    "movementspeedproficiency": 1,
    "cleaver": 0.2,
    "witsend": 0.2,
    "meleechampion": false,
    "sunfire": 0.15,
    "abyssalproficiency": 0.5,
    "tiamatproficiency": 0,
    "ardentcenser": 1,
    "awakenedDragon": 0.3,
    "duskblade": 0.5,
    "conquerorPrestack": 0,
    "tenacity": 0.5
  },
  "Swain": {
    "HasHardCC": true,
    "SuddenImpact": 0,
    "cdrGeneral": 0.35,
    "cdrP": 0.65,
    "cdrQ": 0.9,
    "cdrW": 0.8,
    "cdrE": 0.85,
    "cdrR": 0.15,
    "tear": 0.8,
    "guinsoo": 0.2,
    "rylais": 0.3,
    "zhonyas": 0.85,
    "liandry": 1,
    "movementimpair": 0.2,
    "movementspeedproficiency": 1,
    "cleaver": 0.15,
    "witsend": 0.15,
    "meleechampion": false,
    "sunfire": 0.35,
    "abyssalproficiency": 0.85,
    "tiamatproficiency": 0,
    "ardentcenser": 0,
    "awakenedDragon": 0.7,
    "duskblade": 0.5,
    "conquerorPrestack": 0,
    "tenacity": 0.5
  },
  "Sylas": {
    "HasHardCC": false,
    "SuddenImpact": 1.0,
    "cdrGeneral": 0.5,
    "cdrP": 0,
    "cdrQ": 0.85,
    "cdrW": 0.8,
    "cdrE": 0.8,
    "cdrR": 0,
    "tear": 0.65,
    "guinsoo": 0.3,
    "rylais": 0.3,
    "zhonyas": 0.75,
    "liandry": 0.6,
    "movementimpair": 0.3,
    "movementspeedproficiency": 1,
    "cleaver": 0.2,
    "witsend": 0.2,
    "meleechampion": true,
    "sunfire": 0.75,
    "abyssalproficiency": 0.8,
    "tiamatproficiency": 0.8,
    "ardentcenser": 0,
    "awakenedDragon": 0.6,
    "duskblade": 0.5,
    "conquerorPrestack": 0,
    "tenacity": 0.5
  },
  "Syndra": {
    "HasHardCC": true,
    "SuddenImpact": 0,
    "cdrGeneral": 0.45,
    "cdrP": 0,
    "cdrQ": 0.75,
    "cdrW": 0.7,
    "cdrE": 0.8,
    "cdrR": 0,
    "tear": 0.9,
    "guinsoo": 0.3,
    "rylais": 0.35,
    "zhonyas": 0.75,
    "liandry": 0.6,
    "movementimpair": 0.25,
    "movementspeedproficiency": 1,
    "cleaver": 0.2,
    "witsend": 0.2,
    "meleechampion": false,
    "sunfire": 0.15,
    "abyssalproficiency": 0.8,
    "tiamatproficiency": 0,
    "ardentcenser": 0,
    "awakenedDragon": 0.3,
    "duskblade": 0.5,
    "conquerorPrestack": 0,
    "tenacity": 0.5
  },
  "TahmKench": {
    "HasHardCC": true,
    "SuddenImpact": 0.2,
    "cdrGeneral": 0.8,
    "cdrP": 0,
    "cdrQ": 0.85,
    "cdrW": 0.8,
    "cdrE": 0.35,
    "cdrR": 0,
    "tear": 0.65,
    "guinsoo": 0.35,
    "rylais": 0.15,
    "zhonyas": 0.7,
    "liandry": 0.6,
    "movementimpair": 0.4,
    "movementspeedproficiency": 1,
    "cleaver": 0.3,
    "witsend": 0.3,
    "meleechampion": true,
    "sunfire": 0.8,
    "abyssalproficiency": 0.9,
    "tiamatproficiency": 1,
    "ardentcenser": 0,
    "awakenedDragon": 0.6,
    "duskblade": 0.5,
    "conquerorPrestack": 0,
    "tenacity": 0.55
  },
  "Taliyah": {
    "HasHardCC": true,
    "SuddenImpact": 0.2,
    "cdrGeneral": 0.35,
    "cdrP": 0,
    "cdrQ": 0.85,
    "cdrW": 0.85,
    "cdrE": 0.85,
    "cdrR": 0,
    "tear": 0.7,
    "guinsoo": 0.4,
    "rylais": 0.9,
    "zhonyas": 0.75,
    "liandry": 0.75,
    "movementimpair": 0.15,
    "movementspeedproficiency": 0.8,
    "cleaver": 0.2,
    "witsend": 0.2,
    "meleechampion": false,
    "sunfire": 0.25,
    "abyssalproficiency": 0.8,
    "tiamatproficiency": 0,
    "ardentcenser": 0,
    "awakenedDragon": 0.8,
    "duskblade": 0.5,
    "conquerorPrestack": 0,
    "tenacity": 0.5
  },
  "Talon": {
    "HasHardCC": false,
    "SuddenImpact": 1.0,
    "cdrGeneral": 0.6,
    "cdrP": 0,
    "cdrQ": 0.9,
    "cdrW": 0.8,
    "cdrE": 0.9,
    "cdrR": 0,
    "tear": 0.65,
    "guinsoo": 0.4,
    "rylais": 0.5,
    "zhonyas": 0.75,
    "liandry": 0.45,
    "movementimpair": 0.15,
    "movementspeedproficiency": 1,
    "cleaver": 0.5,
    "witsend": 0.3,
    "meleechampion": true,
    "sunfire": 0.75,
    "abyssalproficiency": 1,
    "tiamatproficiency": 1,
    "ardentcenser": 0,
    "awakenedDragon": 0.5,
    "duskblade": 1,
    "conquerorPrestack": 0,
    "tenacity": 0.7
  },
  "Taric": {
    "HasHardCC": true,
    "SuddenImpact": 0,
    "cdrGeneral": 0.45,
    "cdrP": 0,
    "cdrQ": 0.25,
    "cdrW": 0.8,
    "cdrE": 0.8,
    "cdrR": 0,
    "tear": 0.75,
    "guinsoo": 0.3,
    "rylais": 0,
    "zhonyas": 0.75,
    "liandry": 0.25,
    "movementimpair": 0.1,
    "movementspeedproficiency": 1,
    "cleaver": 0.3,
    "witsend": 0.3,
    "meleechampion": true,
    "sunfire": 0.7,
    "abyssalproficiency": 1,
    "tiamatproficiency": 1,
    "ardentcenser": 1,
    "awakenedDragon": 0.7,
    "duskblade": 0.5,
    "conquerorPrestack": 0,
    "tenacity": 0.8
  },
  "Teemo": {
    "HasHardCC": false,
    "SuddenImpact": 0.3,
    "cdrGeneral": 0.4,
    "cdrP": 0,
    "cdrQ": 0.9,
    "cdrW": 0.75,
    "cdrE": 0,
    "cdrR": 0.3,
    "tear": 0.55,
    "guinsoo": 0.6,
    "rylais": 0.3,
    "zhonyas": 0.7,
    "liandry": 0.35,
    "movementimpair": 0.5,
    "movementspeedproficiency": 0.5,
    "cleaver": 0.6,
    "witsend": 0.6,
    "meleechampion": false,
    "sunfire": 0.2,
    "abyssalproficiency": 0.8,
    "tiamatproficiency": 0,
    "ardentcenser": 0,
    "awakenedDragon": 0.4,
    "duskblade": 0.5,
    "conquerorPrestack": 0,
    "tenacity": 0.5
  },
  "Thresh": {
    "HasHardCC": true,
    "SuddenImpact": 0.6,
    "cdrGeneral": 0.7,
    "cdrP": 0,
    "cdrQ": 0.85,
    "cdrW": 0.8,
    "cdrE": 0.85,
    "cdrR": 0,
    "tear": 0.55,
    "guinsoo": 0.3,
    "rylais": 0.25,
    "zhonyas": 0.75,
    "liandry": 0.4,
    "movementimpair": 0.3,
    "movementspeedproficiency": 1,
    "cleaver": 0.3,
    "witsend": 0.3,
    "meleechampion": false,
    "sunfire": 0.4,
    "abyssalproficiency": 0.8,
    "tiamatproficiency": 0,
    "ardentcenser": 0.25,
    "awakenedDragon": 0.8,
    "duskblade": 0.5,
    "conquerorPrestack": 0,
    "tenacity": 0.6
  },
  "Tristana": {
    "HasHardCC": true,
    "SuddenImpact": 0.6,
    "cdrGeneral": 0.15,
    "cdrP": 0,
    "cdrQ": 1,
    "cdrW": 0.5,
    "cdrE": 0.8,
    "cdrR": 0,
    "tear": 0.1,
    "guinsoo": 0.6,
    "rylais": 0.2,
    "zhonyas": 0.6,
    "liandry": 0.4,
    "movementimpair": 0.2,
    "movementspeedproficiency": 1,
    "cleaver": 0.7,
    "witsend": 0.7,
    "meleechampion": false,
    "sunfire": 0.2,
    "abyssalproficiency": 0.9,
    "tiamatproficiency": 0,
    "ardentcenser": 0,
    "awakenedDragon": 0.3,
    "duskblade": 0.5,
    "conquerorPrestack": 0,
    "tenacity": 0.7
  },
  "Trundle": {
    "HasHardCC": false,
    "SuddenImpact": 0,
    "cdrGeneral": 0.6,
    "cdrP": 0,
    "cdrQ": 0.75,
    "cdrW": 0.95,
    "cdrE": 0.8,
    "cdrR": 0,
    "tear": 0.8,
    "guinsoo": 0.5,
    "rylais": 0.2,
    "zhonyas": 0.7,
    "liandry": 0,
    "movementimpair": 0.25,
    "movementspeedproficiency": 0.8,
    "cleaver": 0.7,
    "witsend": 0.6,
    "meleechampion": true,
    "sunfire": 1,
    "abyssalproficiency": 1,
    "tiamatproficiency": 1,
    "ardentcenser": 0,
    "awakenedDragon": 0.9,
    "duskblade": 0.5,
    "conquerorPrestack": 0,
    "tenacity": 0.8
  },
  "Tryndamere": {
    "HasHardCC": false,
    "SuddenImpact": 0.85,
    "cdrGeneral": 0.7,
    "cdrP": 0,
    "cdrQ": 0.7,
    "cdrW": 0.8,
    "cdrE": 0.75,
    "cdrR": 0,
    "tear": 0,
    "guinsoo": 0.6,
    "rylais": 0.1,
    "zhonyas": 0.6,
    "liandry": 0.3,
    "movementimpair": 0.3,
    "movementspeedproficiency": 1,
    "cleaver": 0.7,
    "witsend": 0.7,
    "meleechampion": true,
    "sunfire": 1,
    "abyssalproficiency": 1,
    "tiamatproficiency": 1,
    "ardentcenser": 0,
    "awakenedDragon": 0.3,
    "duskblade": 0.5,
    "conquerorPrestack": 0,
    "tenacity": 0.85
  },
  "TwistedFate": {
    "HasHardCC": true,
    "SuddenImpact": 0.2,
    "cdrGeneral": 0.5,
    "cdrP": 0,
    "cdrQ": 0.9,
    "cdrW": 0.7,
    "cdrE": 0,
    "cdrR": 0,
    "tear": 0.7,
    "guinsoo": 0.6,
    "rylais": 0.3,
    "zhonyas": 0.95,
    "liandry": 0.5,
    "movementimpair": 0.35,
    "movementspeedproficiency": 1,
    "cleaver": 0.5,
    "witsend": 0.5,
    "meleechampion": false,
    "sunfire": 0.15,
    "abyssalproficiency": 0.75,
    "tiamatproficiency": 0,
    "ardentcenser": 0,
    "awakenedDragon": 0.8,
    "duskblade": 0.5,
    "conquerorPrestack": 0,
    "tenacity": 0.5
  },
  "Twitch": {
    "SuddenImpact": 0.5,
    "cdrGeneral": 0.35,
    "cdrP": 0,
    "cdrQ": 0.4,
    "cdrW": 0.85,
    "cdrE": 0.7,
    "cdrR": 0,
    "tear": 0.4,
    "guinsoo": 0.7,
    "rylais": 0.1,
    "zhonyas": 0.7,
    "liandry": 0.4,
    "movementimpair": 0.15,
    "movementspeedproficiency": 1,
    "cleaver": 0.55,
    "witsend": 0.5,
    "meleechampion": false,
    "sunfire": 0.2,
    "abyssalproficiency": 0.5,
    "tiamatproficiency": 0,
    "ardentcenser": 0,
    "awakenedDragon": 0.3,
    "duskblade": 0.5,
    "conquerorPrestack": 0,
    "tenacity": 0.8
  },
  "Udyr": {
    "HasHardCC": true,
    "SuddenImpact": 0,
    "cdrGeneral": 0.45,
    "cdrP": 0,
    "cdrQ": 0.5,
    "cdrW": 0.5,
    "cdrE": 0.5,
    "cdrR": 0.5,
    "tear": 0.8,
    "guinsoo": 0.6,
    "rylais": 0.5,
    "zhonyas": 0.5,
    "liandry": 0.8,
    "movementimpair": 0.15,
    "movementspeedproficiency": 1,
    "cleaver": 0.8,
    "witsend": 0.7,
    "meleechampion": true,
    "sunfire": 1,
    "abyssalproficiency": 1,
    "tiamatproficiency": 1,
    "ardentcenser": 0,
    "awakenedDragon": 0,
    "duskblade": 0.5,
    "conquerorPrestack": 0,
    "tenacity": 0.8
  },
  "Urgot": {
    "HasHardCC": true,
    "SuddenImpact": 0.7,
    "cdrGeneral": 0.4,
    "cdrP": 0,
    "cdrQ": 0.8,
    "cdrW": 0.7,
    "cdrE": 0.75,
    "cdrR": 0,
    "tear": 0.7,
    "guinsoo": 0.9,
    "rylais": 0.3,
    "zhonyas": 0.75,
    "liandry": 0.75,
    "movementimpair": 0.15,
    "movementspeedproficiency": 1,
    "cleaver": 0.7,
    "witsend": 0.6,
    "meleechampion": false,
    "sunfire": 0.4,
    "abyssalproficiency": 1,
    "tiamatproficiency": 0,
    "ardentcenser": 0,
    "awakenedDragon": 0.4,
    "duskblade": 0.5,
    "conquerorPrestack": 0,
    "tenacity": 0.65
  },
  "Varus": {
    "HasHardCC": true,
    "SuddenImpact": 0,
    "cdrGeneral": 0.15,
    "cdrP": 0.75,
    "cdrQ": 0.75,
    "cdrW": 0.5,
    "cdrE": 0.7,
    "cdrR": 0,
    "tear": 0.8,
    "guinsoo": 0.6,
    "rylais": 0.1,
    "zhonyas": 0.7,
    "liandry": 0.35,
    "movementimpair": 0.2,
    "movementspeedproficiency": 1,
    "cleaver": 0.55,
    "witsend": 0.4,
    "meleechampion": false,
    "sunfire": 0.2,
    "abyssalproficiency": 0.55,
    "tiamatproficiency": 0,
    "ardentcenser": 0,
    "awakenedDragon": 0.4,
    "duskblade": 0.5,
    "conquerorPrestack": 0,
    "tenacity": 0.5
  },
  "Vayne": {
    "HasHardCC": true,
    "SuddenImpact": 1,
    "cdrGeneral": 0.5,
    "cdrP": 0,
    "cdrQ": 0.75,
    "cdrW": 0,
    "cdrE": 0.6,
    "cdrR": 0,
    "tear": 0.7,
    "guinsoo": 0.6,
    "rylais": 0.2,
    "zhonyas": 0.5,
    "liandry": 0.2,
    "movementimpair": 0.1,
    "movementspeedproficiency": 1,
    "cleaver": 0.7,
    "witsend": 0.5,
    "meleechampion": false,
    "sunfire": 0.3,
    "abyssalproficiency": 1,
    "tiamatproficiency": 0,
    "ardentcenser": 0,
    "awakenedDragon": 0.5,
    "duskblade": 1,
    "conquerorPrestack": 0,
    "tenacity": 0.8
  },
  "Veigar": {
    "HasHardCC": true,
    "SuddenImpact": 0,
    "cdrGeneral": 0.4,
    "cdrP": 0,
    "cdrQ": 0.85,
    "cdrW": 0.75,
    "cdrE": 0.85,
    "cdrR": 0.05,
    "tear": 0.85,
    "guinsoo": 0.2,
    "rylais": 0.5,
    "zhonyas": 0.5,
    "liandry": 0.4,
    "movementimpair": 0.15,
    "movementspeedproficiency": 1,
    "cleaver": 0.35,
    "witsend": 0.35,
    "meleechampion": false,
    "sunfire": 0.2,
    "abyssalproficiency": 0.8,
    "tiamatproficiency": 0,
    "ardentcenser": 0,
    "awakenedDragon": 0.2,
    "duskblade": 0.5,
    "conquerorPrestack": 0,
    "tenacity": 0.4
  },
  "Velkoz": {
    "HasHardCC": true,
    "SuddenImpact": 0,
    "cdrGeneral": 0.4,
    "cdrP": 0,
    "cdrQ": 0.9,
    "cdrW": 0.7,
    "cdrE": 0.8,
    "cdrR": 0,
    "tear": 0.75,
    "guinsoo": 0.2,
    "rylais": 0.25,
    "zhonyas": 0.75,
    "liandry": 0.3,
    "movementimpair": 0.45,
    "movementspeedproficiency": 1,
    "cleaver": 0.25,
    "witsend": 0.25,
    "meleechampion": false,
    "sunfire": 0.15,
    "abyssalproficiency": 0.5,
    "tiamatproficiency": 0,
    "ardentcenser": 0,
    "awakenedDragon": 0.4,
    "duskblade": 0.5,
    "conquerorPrestack": 0,
    "tenacity": 0.35
  },
  "Vi": {
    "HasHardCC": true,
    "SuddenImpact": 1.0,
    "cdrGeneral": 0.4,
    "cdrP": 0.75,
    "cdrQ": 0.75,
    "cdrW": 0,
    "cdrE": 0.5,
    "cdrR": 0,
    "tear": 0.8,
    "guinsoo": 0.4,
    "rylais": 0.2,
    "zhonyas": 0.5,
    "liandry": 0.4,
    "movementimpair": 0.2,
    "movementspeedproficiency": 1,
    "cleaver": 0.65,
    "witsend": 0.6,
    "meleechampion": true,
    "sunfire": 1,
    "abyssalproficiency": 1,
    "tiamatproficiency": 0.8,
    "ardentcenser": 0,
    "awakenedDragon": 0.6,
    "duskblade": 0.5,
    "conquerorPrestack": 0,
    "tenacity": 0.5
  },
  "Viktor": {
    "HasHardCC": true,
    "SuddenImpact": 0,
    "cdrGeneral": 0.55,
    "cdrP": 0.75,
    "cdrQ": 0.75,
    "cdrW": 0.75,
    "cdrE": 0.8,
    "cdrR": 0,
    "tear": 0.75,
    "guinsoo": 0.4,
    "rylais": 0.35,
    "zhonyas": 0.75,
    "liandry": 0.75,
    "movementimpair": 0.2,
    "movementspeedproficiency": 0.8,
    "cleaver": 0.2,
    "witsend": 0.2,
    "meleechampion": false,
    "sunfire": 0.2,
    "abyssalproficiency": 0.65,
    "tiamatproficiency": 0,
    "ardentcenser": 0,
    "awakenedDragon": 0.7,
    "duskblade": 0.5,
    "conquerorPrestack": 0,
    "tenacity": 0.6
  },
  "Volibear": {
    "HasHardCC": true,
    "SuddenImpact": 0,
    "cdrGeneral": 0.5,
    "cdrP": 0,
    "cdrQ": 0.8,
    "cdrW": 0.85,
    "cdrE": 0.75,
    "cdrR": 0,
    "tear": 0.4,
    "guinsoo": 0.5,
    "rylais": 0.3,
    "zhonyas": 0.6,
    "liandry": 0.6,
    "movementimpair": 0.15,
    "movementspeedproficiency": 1,
    "cleaver": 0.65,
    "witsend": 0.5,
    "meleechampion": true,
    "sunfire": 1,
    "abyssalproficiency": 1,
    "tiamatproficiency": 0.8,
    "ardentcenser": 0,
    "awakenedDragon": 0.8,
    "duskblade": 0.5,
    "conquerorPrestack": 0,
    "tenacity": 0.8
  },
  "Vladimir": {
    "HasHardCC": false,
    "SuddenImpact": 0,
    "cdrGeneral": 0.3,
    "cdrP": 0,
    "cdrQ": 0.95,
    "cdrW": 0.7,
    "cdrE": 0.95,
    "cdrR": 0,
    "tear": 0,
    "guinsoo": 0.2,
    "rylais": 0.8,
    "zhonyas": 0.8,
    "liandry": 0.8,
    "movementimpair": 0.05,
    "movementspeedproficiency": 1,
    "cleaver": 0.15,
    "witsend": 0.15,
    "meleechampion": false,
    "sunfire": 0.35,
    "abyssalproficiency": 0.9,
    "tiamatproficiency": 0,
    "ardentcenser": 0,
    "awakenedDragon": 0.5,
    "duskblade": 0.5,
    "conquerorPrestack": 0,
    "tenacity": 0.5
  },
  "Warwick": {
    "HasHardCC": true,
    "SuddenImpact": 0.9,
    "cdrGeneral": 0.4,
    "cdrP": 0,
    "cdrQ": 0.8,
    "cdrW": 0.75,
    "cdrE": 0.8,
    "cdrR": 0,
    "tear": 0.7,
    "guinsoo": 0.6,
    "rylais": 0.4,
    "zhonyas": 0.7,
    "liandry": 0.3,
    "movementimpair": 0.2,
    "movementspeedproficiency": 1,
    "cleaver": 0.5,
    "witsend": 0.5,
    "meleechampion": true,
    "sunfire": 1,
    "abyssalproficiency": 1,
    "tiamatproficiency": 1,
    "ardentcenser": 0,
    "awakenedDragon": 0.5,
    "duskblade": 0.5,
    "conquerorPrestack": 0,
    "tenacity": 0.8
  },
  "MonkeyKing": {
    "HasHardCC": true,
    "SuddenImpact": 1.0,
    "cdrGeneral": 0.35,
    "cdrP": 0,
    "cdrQ": 0.85,
    "cdrW": 0.7,
    "cdrE": 0.85,
    "cdrR": 0,
    "tear": 0.65,
    "guinsoo": 0.45,
    "rylais": 0.3,
    "zhonyas": 0.6,
    "liandry": 0.5,
    "movementimpair": 0.1,
    "movementspeedproficiency": 1,
    "cleaver": 0.75,
    "witsend": 0.35,
    "meleechampion": true,
    "sunfire": 0.85,
    "abyssalproficiency": 1,
    "tiamatproficiency": 0.5,
    "ardentcenser": 0,
    "awakenedDragon": 0.8,
    "duskblade": 1,
    "conquerorPrestack": 0,
    "tenacity": 0.6
  },
  "Xayah": {
    "HasHardCC": true,
    "SuddenImpact": 0.2,
    "cdrGeneral": 0.35,
    "cdrP": 0,
    "cdrQ": 0.85,
    "cdrW": 0.85,
    "cdrE": 0.75,
    "cdrR": 0,
    "tear": 0.5,
    "guinsoo": 0.6,
    "rylais": 0.35,
    "zhonyas": 0.65,
    "liandry": 0.5,
    "movementimpair": 0.1,
    "movementspeedproficiency": 1,
    "cleaver": 0.65,
    "witsend": 0.4,
    "meleechampion": false,
    "sunfire": 0.15,
    "abyssalproficiency": 0.7,
    "tiamatproficiency": 0,
    "ardentcenser": 0,
    "awakenedDragon": 0.5,
    "duskblade": 0.5,
    "conquerorPrestack": 0,
    "tenacity": 0.65
  },
  "Xerath": {
    "HasHardCC": true,
    "SuddenImpact": 0,
    "cdrGeneral": 0.3,
    "cdrP": 0,
    "cdrQ": 0.75,
    "cdrW": 0.8,
    "cdrE": 0.75,
    "cdrR": 0,
    "tear": 0.7,
    "guinsoo": 0.2,
    "rylais": 0.35,
    "zhonyas": 0.7,
    "liandry": 0.5,
    "movementimpair": 0.2,
    "movementspeedproficiency": 1,
    "cleaver": 0.3,
    "witsend": 0.3,
    "meleechampion": false,
    "sunfire": 0.15,
    "abyssalproficiency": 0.4,
    "tiamatproficiency": 0,
    "ardentcenser": 0,
    "awakenedDragon": 0.2,
    "duskblade": 0.5,
    "conquerorPrestack": 0,
    "tenacity": 0.5
  },
  "XinZhao": {
    "HasHardCC": true,
    "SuddenImpact": 0.8,
    "cdrGeneral": 0.6,
    "cdrP": 0,
    "cdrQ": 0.65,
    "cdrW": 0.8,
    "cdrE": 0.85,
    "cdrR": 0,
    "tear": 0.65,
    "guinsoo": 0.6,
    "rylais": 0.05,
    "zhonyas": 0.75,
    "liandry": 0.3,
    "movementimpair": 0.3,
    "movementspeedproficiency": 1,
    "cleaver": 0.65,
    "witsend": 0.6,
    "meleechampion": true,
    "sunfire": 1,
    "abyssalproficiency": 1,
    "tiamatproficiency": 0.8,
    "ardentcenser": 0,
    "awakenedDragon": 0.8,
    "duskblade": 0.5,
    "conquerorPrestack": 0,
    "tenacity": 0.8
  },
  "Yasuo": {
    "HasHardCC": true,
    "SuddenImpact": 1.0,
    "cdrGeneral": 0.35,
    "cdrP": 0,
    "cdrQ": 0,
    "cdrW": 0.7,
    "cdrE": 0,
    "cdrR": 0,
    "tear": 0,
    "guinsoo": 0.7,
    "rylais": 0.4,
    "zhonyas": 0.7,
    "liandry": 0.3,
    "movementimpair": 0.2,
    "movementspeedproficiency": 1,
    "cleaver": 0.6,
    "witsend": 0.5,
    "meleechampion": true,
    "sunfire": 0.8,
    "abyssalproficiency": 1,
    "tiamatproficiency": 0.8,
    "ardentcenser": 0,
    "awakenedDragon": 0.7,
    "duskblade": 0.5,
    "conquerorPrestack": 0,
    "tenacity": 0.7
  },
  "Yorick": {
    "HasHardCC": false,
    "SuddenImpact": 0,
    "cdrGeneral": 0.6,
    "cdrP": 0,
    "cdrQ": 0.8,
    "cdrW": 0.75,
    "cdrE": 0.9,
    "cdrR": 0,
    "tear": 0.7,
    "guinsoo": 0.5,
    "rylais": 0.15,
    "zhonyas": 0.7,
    "liandry": 0.25,
    "movementimpair": 0.2,
    "movementspeedproficiency": 1,
    "cleaver": 0.75,
    "witsend": 0.35,
    "meleechampion": true,
    "sunfire": 0.5,
    "abyssalproficiency": 0.6,
    "tiamatproficiency": 0.8,
    "ardentcenser": 0,
    "awakenedDragon": 0.4,
    "duskblade": 0.5,
    "conquerorPrestack": 0,
    "tenacity": 0.8
  },
  "Yuumi": {
    "HasHardCC": false,
    "SuddenImpact": 0,
    "cdrGeneral": 0.3,
    "cdrP": 0,
    "cdrQ": 0.65,
    "cdrW": 0,
    "cdrE": 0.85,
    "cdrR": 0,
    "tear": 0.65,
    "guinsoo": 0.1,
    "rylais": 0.1,
    "zhonyas": 0.4,
    "liandry": 0.4,
    "movementimpair": 0.15,
    "movementspeedproficiency": 0.2,
    "cleaver": 0.1,
    "witsend": 0.1,
    "meleechampion": false,
    "sunfire": 0.15,
    "abyssalproficiency": 0.1,
    "tiamatproficiency": 0,
    "ardentcenser": 2,
    "awakenedDragon": 0.3,
    "duskblade": 0.25,
    "conquerorPrestack": 0,
    "tenacity": 0.2
  },
  "Zac": {
    "HasHardCC": true,
    "SuddenImpact": 1.0,
    "cdrGeneral": 0.5,
    "cdrP": 0,
    "cdrQ": 0.7,
    "cdrW": 0.85,
    "cdrE": 0.65,
    "cdrR": 0,
    "tear": 0,
    "guinsoo": 0.3,
    "rylais": 0.2,
    "zhonyas": 0.6,
    "liandry": 0.8,
    "movementimpair": 0.2,
    "movementspeedproficiency": 1,
    "cleaver": 0.2,
    "witsend": 0.2,
    "meleechampion": true,
    "sunfire": 0.85,
    "abyssalproficiency": 1,
    "tiamatproficiency": 1,
    "ardentcenser": 0,
    "awakenedDragon": 0.4,
    "duskblade": 0.5,
    "conquerorPrestack": 0,
    "tenacity": 0.6
  },
  "Ziggs": {
    "HasHardCC": true,
    "SuddenImpact": 0.3,
    "cdrGeneral": 0.4,
    "cdrP": 0,
    "cdrQ": 0.85,
    "cdrW": 0.85,
    "cdrE": 0.75,
    "cdrR": 0,
    "tear": 0.85,
    "guinsoo": 0.4,
    "rylais": 0.6,
    "zhonyas": 0.8,
    "liandry": 0.75,
    "movementimpair": 0.2,
    "movementspeedproficiency": 1,
    "cleaver": 0.2,
    "witsend": 0.2,
    "meleechampion": false,
    "sunfire": 0.2,
    "abyssalproficiency": 0.65,
    "tiamatproficiency": 0,
    "ardentcenser": 0,
    "awakenedDragon": 0.3,
    "duskblade": 0.5,
    "conquerorPrestack": 0,
    "tenacity": 0.5
  },
  "Zilean": {
    "HasHardCC": true,
    "SuddenImpact": 0,
    "cdrGeneral": 0.8,
    "cdrP": 0,
    "cdrQ": 0.8,
    "cdrW": 0.95,
    "cdrE": 0.8,
    "cdrR": 0,
    "tear": 0.75,
    "guinsoo": 0.2,
    "rylais": 0.2,
    "zhonyas": 0.85,
    "liandry": 0.5,
    "movementimpair": 0.8,
    "movementspeedproficiency": 0.8,
    "cleaver": 0.2,
    "witsend": 0.2,
    "meleechampion": false,
    "sunfire": 0.1,
    "abyssalproficiency": 0.4,
    "tiamatproficiency": 0,
    "ardentcenser": 0,
    "awakenedDragon": 0.3,
    "duskblade": 0.5,
    "conquerorPrestack": 0,
    "tenacity": 0.4
  },
  "Zed": {
    "HasHardCC": false,
    "SuddenImpact": 0.9,
    "cdrGeneral": 0.2,
    "cdrP": 0,
    "cdrQ": 0.7,
    "cdrW": 0.7,
    "cdrE": 0.75,
    "cdrR": 0,
    "tear": 0,
    "guinsoo": 0.4,
    "rylais": 0.3,
    "zhonyas": 0.6,
    "liandry": 0.7,
    "movementimpair": 0.15,
    "movementspeedproficiency": 1,
    "cleaver": 0.5,
    "witsend": 0.3,
    "meleechampion": true,
    "sunfire": 0.7,
    "abyssalproficiency": 1,
    "tiamatproficiency": 0.3,
    "ardentcenser": 0,
    "grivouswounds": 1,
    "awakenedDragon": 0.5,
    "duskblade": 0.5,
    "conquerorPrestack": 0,
    "tenacity": 0.5
  },
  "Zoe": {
    "HasHardCC": true,
    "SuddenImpact": 0.8,
    "cdrGeneral": 0.4,
    "cdrP": 0,
    "cdrQ": 0.85,
    "cdrW": 0.10,
    "cdrE": 0.80,
    "cdrR": 0.65,
    "tear": 0.8,
    "guinsoo": 0.35,
    "rylais": 0.45,
    "zhonyas": 0.75,
    "liandry": 0.75,
    "movementimpair": 0.15,
    "movementspeedproficiency": 0.8,
    "cleaver": 0.2,
    "witsend": 0.2,
    "meleechampion": false,
    "sunfire": 0.25,
    "abyssalproficiency": 0.65,
    "tiamatproficiency": 0,
    "ardentcenser": 0,
    "awakenedDragon": 0.6,
    "duskblade": 0.5,
    "conquerorPrestack": 0,
    "tenacity": 0.5
  },
  "Zyra": {
    "HasHardCC": true,
    "SuddenImpact": 0,
    "cdrGeneral": 0.5,
    "cdrP": 0,
    "cdrQ": 0.85,
    "cdrW": 0.2,
    "cdrE": 0.9,
    "cdrR": 0,
    "tear": 0.7,
    "guinsoo": 0.3,
    "rylais": 0.65,
    "zhonyas": 0.8,
    "liandry": 0.80,
    "movementimpair": 0.2,
    "movementspeedproficiency": 1,
    "cleaver": 0.15,
    "witsend": 0.15,
    "meleechampion": false,
    "sunfire": 0.15,
    "abyssalproficiency": 0.65,
    "tiamatproficiency": 0,
    "ardentcenser": 0,
    "awakenedDragon": 0.6,
    "duskblade": 0.5,
    "conquerorPrestack": 0,
    "tenacity": 0.4
  }
}