{
    "Aatrox": {
        "buildtype": [
            1,
            0.7
        ],
        "ExpectedTimeLive": [
            9,
            5,
            2.5
        ],
        "ExtraSurvivingTime": 0,
        "ADchampion": true,
        "Jungling": false,
        "Supporting": false,
        "BuildTankyEarly": false,
        "BuildDamageEarly": false,
        "IgnoreManaEarly": false,
        "IgnoreBoots": false,
        "IA": 0.4,
        "requiredmana": 0,
        "enemyaveragecurrenthp": 0.5,
        "laneorientation": "Top",
        "TargetPriority": "General"
    },
    "Ahri": {
        "buildtype": "FullDPS",
        "ExpectedTimeLive": [
            9,
            6,
            4
        ],
        "ExtraSurvivingTime": 0,
        "ADchampion": false,
        "Jungling": false,
        "Supporting": false,
        "BuildTankyEarly": false,
        "BuildDamageEarly": false,
        "IgnoreManaEarly": false,
        "IgnoreBoots": false,
        "IA": 0.4,
        "requiredmana": 250,
        "enemyaveragecurrenthp": 0.45,
        "laneorientation": "Mid",
        "TargetPriority": "General"
    },
    "Akali": {
        "buildtype": "Assassin",
        "ExpectedTimeLive": [
            9,
            5,
            2.5
        ],
        "ExtraSurvivingTime": 2,
        "ADchampion": false,
        "Jungling": false,
        "Supporting": false,
        "BuildTankyEarly": false,
        "BuildDamageEarly": false,
        "IgnoreManaEarly": false,
        "IgnoreBoots": false,
        "IA": 0.4,
        "requiredmana": 0,
        "enemyaveragecurrenthp": 0.4,
        "laneorientation": "Top",
        "TargetPriority": "Squishy"
    },
    "Alistar": {
        "buildtype": "Tank",
        "ExpectedTimeLive": [
            9,
            5,
            2.5
        ],
        "ExtraSurvivingTime": 0,
        "ADchampion": false,
        "Jungling": false,
        "Supporting": true,
        "BuildTankyEarly": false,
        "BuildDamageEarly": false,
        "IgnoreManaEarly": false,
        "IgnoreBoots": false,
        "IA": 0.4,
        "requiredmana": 300,
        "enemyaveragecurrenthp": 0.5,
        "laneorientation": "Support",
        "TargetPriority": "General"
    },
    "Amumu": {
        "buildtype": "Tank",
        "ExpectedTimeLive": [
            9,
            5,
            2.5
        ],
        "ExtraSurvivingTime": 0,
        "ADchampion": false,
        "Jungling": true,
        "Supporting": false,
        "BuildTankyEarly": false,
        "BuildDamageEarly": false,
        "IgnoreManaEarly": false,
        "IgnoreBoots": false,
        "IA": 0.4,
        "requiredmana": 200,
        "enemyaveragecurrenthp": 0.6,
        "laneorientation": "Jungle",
        "TargetPriority": "General"
    },
    "Anivia": {
        "buildtype": [
            1,
            0.45
        ],
        "ExpectedTimeLive": [
            9,
            6,
            4
        ],
        "ExtraSurvivingTime": 0,
        "ADchampion": false,
        "Jungling": false,
        "Supporting": false,
        "BuildTankyEarly": false,
        "BuildDamageEarly": false,
        "IgnoreManaEarly": false,
        "IgnoreBoots": false,
        "IA": 0.4,
        "requiredmana": 700,
        "enemyaveragecurrenthp": 0.5,
        "laneorientation": "Mid",
        "TargetPriority": "General"
    },
    "Annie": {
        "buildtype": [
            1,
            0.36
        ],
        "ExpectedTimeLive": [
            9,
            5.5,
            3
        ],
        "ExtraSurvivingTime": 0,
        "ADchampion": false,
        "Jungling": false,
        "Supporting": false,
        "BuildTankyEarly": false,
        "BuildDamageEarly": false,
        "IgnoreManaEarly": false,
        "IgnoreBoots": false,
        "IA": 0.4,
        "requiredmana": 350,
        "enemyaveragecurrenthp": 0.43,
        "laneorientation": "Mid",
        "TargetPriority": "General"
    },
    "Ashe": {
        "buildtype": "Assassin",
        "ExpectedTimeLive": [
            9,
            5.5,
            3
        ],
        "ExtraSurvivingTime": 0,
        "ADchampion": true,
        "Jungling": false,
        "Supporting": false,
        "BuildTankyEarly": false,
        "BuildDamageEarly": false,
        "IgnoreManaEarly": false,
        "IgnoreBoots": false,
        "IA": 0.3,
        "requiredmana": 0,
        "enemyaveragecurrenthp": 0.5,
        "laneorientation": "Bot",
        "TargetPriority": "Tanky"
    },
    "AurelionSol": {
        "buildtype": "Assassin",
        "ExpectedTimeLive": [
            9,
            5.5,
            3
        ],
        "ExtraSurvivingTime": 0,
        "ADchampion": false,
        "Jungling": false,
        "Supporting": false,
        "BuildTankyEarly": false,
        "BuildDamageEarly": false,
        "IgnoreManaEarly": false,
        "IgnoreBoots": false,
        "IA": 0.4,
        "requiredmana": 550,
        "enemyaveragecurrenthp": 0.5,
        "laneorientation": "Mid",
        "TargetPriority": "General"
    },
    "Azir": {
        "buildtype": "FullDPS",
        "ExpectedTimeLive": [
            9,
            6,
            4
        ],
        "ExtraSurvivingTime": 0,
        "ADchampion": false,
        "Jungling": false,
        "Supporting": false,
        "BuildTankyEarly": false,
        "BuildDamageEarly": false,
        "IgnoreManaEarly": false,
        "IgnoreBoots": false,
        "IA": 0.3,
        "requiredmana": 150,
        "enemyaveragecurrenthp": 0.5,
        "laneorientation": "Mid",
        "TargetPriority": "General"
    },
    "Bard": {
        "buildtype": "Duelist",
        "ExpectedTimeLive": [
            9,
            6,
            4
        ],
        "ExtraSurvivingTime": 0,
        "ADchampion": false,
        "Jungling": false,
        "Supporting": true,
        "BuildTankyEarly": false,
        "BuildDamageEarly": false,
        "IgnoreManaEarly": false,
        "IgnoreBoots": false,
        "IA": 0.4,
        "requiredmana": 250,
        "enemyaveragecurrenthp": 0.5,
        "laneorientation": "Support",
        "TargetPriority": "General"
    },
    "Blitzcrank": {
        "buildtype": "Tank",
        "ExpectedTimeLive": [
            9,
            5,
            2.5
        ],
        "ExtraSurvivingTime": 0,
        "ADchampion": true,
        "Jungling": false,
        "Supporting": true,
        "BuildTankyEarly": false,
        "BuildDamageEarly": false,
        "IgnoreManaEarly": false,
        "IgnoreBoots": false,
        "IA": 0.4,
        "requiredmana": 400,
        "enemyaveragecurrenthp": 0.5,
        "laneorientation": "Support",
        "TargetPriority": "General"
    },
    "Brand": {
        "buildtype": "FullDPS",
        "ExpectedTimeLive": [
            9,
            5.5,
            3
        ],
        "ExtraSurvivingTime": 0,
        "ADchampion": false,
        "Jungling": false,
        "Supporting": false,
        "BuildTankyEarly": false,
        "BuildDamageEarly": false,
        "IgnoreManaEarly": false,
        "IgnoreBoots": false,
        "IA": 0.4,
        "requiredmana": 300,
        "enemyaveragecurrenthp": 0.45,
        "laneorientation": "Support",
        "TargetPriority": "General"
    },
    "Braum": {
        "buildtype": "Tank",
        "ExpectedTimeLive": [
            9,
            5,
            2.5
        ],
        "ExtraSurvivingTime": 0,
        "ADchampion": false,
        "Jungling": false,
        "Supporting": true,
        "BuildTankyEarly": false,
        "BuildDamageEarly": false,
        "IgnoreManaEarly": false,
        "IgnoreBoots": false,
        "IA": 0.4,
        "requiredmana": 150,
        "enemyaveragecurrenthp": 0.5,
        "laneorientation": "Support",
        "TargetPriority": "General"
    },
    "Caitlyn": {
        "buildtype": "FullDPS",
        "ExpectedTimeLive": [
            9,
            5.5,
            3
        ],
        "ExtraSurvivingTime": 0,
        "ADchampion": true,
        "Jungling": false,
        "Supporting": false,
        "BuildTankyEarly": false,
        "BuildDamageEarly": false,
        "IgnoreManaEarly": false,
        "IgnoreBoots": false,
        "IA": 0.3,
        "requiredmana": 0,
        "enemyaveragecurrenthp": 0.5,
        "laneorientation": "Bot",
        "TargetPriority": "Tanky"
    },
    "Camille": {
        "buildtype": "Assassin",
        "ExpectedTimeLive": [
            9,
            5,
            2.5
        ],
        "ExtraSurvivingTime": 0,
        "ADchampion": true,
        "Jungling": false,
        "Supporting": false,
        "BuildTankyEarly": false,
        "BuildDamageEarly": false,
        "IgnoreManaEarly": false,
        "IgnoreBoots": false,
        "IA": 0.4,
        "requiredmana": 0,
        "enemyaveragecurrenthp": 0.5,
        "laneorientation": "Top",
        "TargetPriority": "Squishy"
    },
    "Cassiopeia": {
        "buildtype": "Assassin",
        "ExpectedTimeLive": [
            9,
            6,
            4
        ],
        "ExtraSurvivingTime": 0,
        "ADchampion": false,
        "Jungling": false,
        "Supporting": false,
        "BuildTankyEarly": false,
        "BuildDamageEarly": false,
        "IgnoreManaEarly": false,
        "IgnoreBoots": false,
        "IA": 0.3,
        "requiredmana": 850,
        "enemyaveragecurrenthp": 0.5,
        "laneorientation": "Mid",
        "TargetPriority": "General"
    },
    "Chogath": {
        "buildtype": "Duelist",
        "ExpectedTimeLive": [
            9,
            5,
            2.5
        ],
        "ExtraSurvivingTime": 0,
        "ADchampion": false,
        "Jungling": false,
        "Supporting": false,
        "BuildTankyEarly": false,
        "BuildDamageEarly": false,
        "IgnoreManaEarly": false,
        "IgnoreBoots": false,
        "IA": 0.4,
        "requiredmana": 300,
        "enemyaveragecurrenthp": 0.6,
        "laneorientation": "Top",
        "TargetPriority": "General"
    },
    "Corki": {
        "buildtype": "FullDPS",
        "ExpectedTimeLive": [
            9,
            5.5,
            3
        ],
        "ExtraSurvivingTime": 0,
        "ADchampion": true,
        "Jungling": false,
        "Supporting": false,
        "BuildTankyEarly": false,
        "BuildDamageEarly": false,
        "IgnoreManaEarly": false,
        "IgnoreBoots": false,
        "IA": 0.3,
        "requiredmana": 200,
        "enemyaveragecurrenthp": 0.5,
        "laneorientation": "Mid",
        "TargetPriority": "Tanky"
    },
    "Darius": {
        "buildtype": [
            1,
            0.9
        ],
        "ExpectedTimeLive": [
            9,
            5,
            2.5
        ],
        "ExtraSurvivingTime": 0,
        "ADchampion": true,
        "Jungling": false,
        "Supporting": false,
        "BuildTankyEarly": false,
        "BuildDamageEarly": false,
        "IgnoreManaEarly": false,
        "IgnoreBoots": false,
        "IA": 0.4,
        "requiredmana": 0,
        "enemyaveragecurrenthp": 0.57,
        "laneorientation": "Top",
        "TargetPriority": "General"
    },
    "Diana": {
        "buildtype": "Assassin",
        "ExpectedTimeLive": [
            9,
            5,
            2.5
        ],
        "ExtraSurvivingTime": 0,
        "ADchampion": false,
        "Jungling": false,
        "Supporting": false,
        "BuildTankyEarly": false,
        "BuildDamageEarly": false,
        "IgnoreManaEarly": false,
        "IgnoreBoots": false,
        "IA": 0.4,
        "requiredmana": 150,
        "enemyaveragecurrenthp": 0.4,
        "laneorientation": "Mid",
        "TargetPriority": "Squishy"
    },
    "Draven": {
        "buildtype": [
            1,
            0.4
        ],
        "ExpectedTimeLive": [
            9,
            5.5,
            3
        ],
        "ExtraSurvivingTime": 0,
        "ADchampion": true,
        "Jungling": false,
        "Supporting": false,
        "BuildTankyEarly": false,
        "BuildDamageEarly": false,
        "IgnoreManaEarly": false,
        "IgnoreBoots": false,
        "IA": 0.3,
        "requiredmana": 100,
        "enemyaveragecurrenthp": 0.5,
        "laneorientation": "Bot",
        "TargetPriority": "Tanky"
    },
    "DrMundo": {
        "buildtype": "Tank",
        "ExpectedTimeLive": [
            9,
            5,
            2.5
        ],
        "ExtraSurvivingTime": 0,
        "ADchampion": false,
        "Jungling": false,
        "Supporting": false,
        "BuildTankyEarly": false,
        "BuildDamageEarly": false,
        "IgnoreManaEarly": false,
        "IgnoreBoots": false,
        "IA": 0.4,
        "requiredmana": 0,
        "enemyaveragecurrenthp": 0.52,
        "laneorientation": "Top",
        "TargetPriority": "General"
    },
    "Ekko": {
        "buildtype": "Assassin",
        "ExpectedTimeLive": [
            9,
            5,
            2.5
        ],
        "ExtraSurvivingTime": 1,
        "ADchampion": false,
        "Jungling": false,
        "Supporting": false,
        "BuildTankyEarly": false,
        "BuildDamageEarly": false,
        "IgnoreManaEarly": false,
        "IgnoreBoots": false,
        "IA": 0.4,
        "requiredmana": 250,
        "enemyaveragecurrenthp": 0.5,
        "laneorientation": "Top",
        "TargetPriority": "Squishy"
    },
    "Elise": {
        "buildtype": [
            1,
            0.5
        ],
        "ExpectedTimeLive": [
            9,
            6,
            4
        ],
        "ExtraSurvivingTime": 0,
        "ADchampion": false,
        "Jungling": true,
        "Supporting": false,
        "BuildTankyEarly": false,
        "BuildDamageEarly": false,
        "IgnoreManaEarly": false,
        "IgnoreBoots": false,
        "IA": 0.4,
        "requiredmana": 150,
        "enemyaveragecurrenthp": 0.5,
        "laneorientation": "Jungle",
        "TargetPriority": "General"
    },
    "Evelynn": {
        "buildtype": [
            1,
            0.45
        ],
        "ExpectedTimeLive": [
            9,
            5,
            2.5
        ],
        "ExtraSurvivingTime": 0,
        "ADchampion": false,
        "Jungling": true,
        "Supporting": false,
        "BuildTankyEarly": false,
        "BuildDamageEarly": false,
        "IgnoreManaEarly": false,
        "IgnoreBoots": false,
        "IA": 0.4,
        "requiredmana": 0,
        "enemyaveragecurrenthp": 0.5,
        "laneorientation": "Jungle",
        "TargetPriority": "General"
    },
    "Ezreal": {
        "buildtype": "FullDPS",
        "ExpectedTimeLive": [
            9,
            6,
            4
        ],
        "ExtraSurvivingTime": 0,
        "ADchampion": true,
        "Jungling": false,
        "Supporting": false,
        "BuildTankyEarly": false,
        "BuildDamageEarly": false,
        "IgnoreManaEarly": false,
        "IgnoreBoots": false,
        "IA": 0.3,
        "requiredmana": 500,
        "enemyaveragecurrenthp": 0.5,
        "laneorientation": "Bot",
        "TargetPriority": "Tanky"
    },
    "Fiddlesticks": {
        "buildtype": "FullDPS",
        "ExpectedTimeLive": [
            9,
            6,
            4
        ],
        "ExtraSurvivingTime": 0,
        "ADchampion": false,
        "Jungling": true,
        "Supporting": false,
        "BuildTankyEarly": false,
        "BuildDamageEarly": false,
        "IgnoreManaEarly": false,
        "IgnoreBoots": false,
        "IA": 0.35,
        "requiredmana": 350,
        "enemyaveragecurrenthp": 0.5,
        "laneorientation": "Jungle",
        "TargetPriority": "General"
    },
    "Fiora": {
        "buildtype": [
            1,
            0.6
        ],
        "ExpectedTimeLive": [
            9,
            5,
            2.5
        ],
        "ExtraSurvivingTime": 1,
        "ADchampion": true,
        "Jungling": false,
        "Supporting": false,
        "BuildTankyEarly": false,
        "BuildDamageEarly": false,
        "IgnoreManaEarly": false,
        "IgnoreBoots": false,
        "IA": 0.4,
        "requiredmana": 0,
        "enemyaveragecurrenthp": 0.5,
        "laneorientation": "Top",
        "TargetPriority": "Squishy"
    },
    "Fizz": {
        "buildtype": [
            1,
            0.35
        ],
        "ExpectedTimeLive": [
            9,
            5,
            2.5
        ],
        "ExtraSurvivingTime": 1,
        "ADchampion": false,
        "Jungling": false,
        "Supporting": false,
        "BuildTankyEarly": false,
        "BuildDamageEarly": false,
        "IgnoreManaEarly": false,
        "IgnoreBoots": false,
        "IA": 0.4,
        "requiredmana": 200,
        "enemyaveragecurrenthp": 0.4,
        "laneorientation": "Mid",
        "TargetPriority": "Squishy"
    },
    "Galio": {
        "buildtype": [
            1,
            0.8
        ],
        "ExpectedTimeLive": [
            9,
            5,
            2.5
        ],
        "ExtraSurvivingTime": 0,
        "ADchampion": false,
        "Jungling": false,
        "Supporting": false,
        "BuildTankyEarly": false,
        "BuildDamageEarly": false,
        "IgnoreManaEarly": false,
        "IgnoreBoots": false,
        "IA": 0.5,
        "requiredmana": 400,
        "enemyaveragecurrenthp": 0.5,
        "laneorientation": "Top",
        "TargetPriority": "General"
    },
    "Gangplank": {
        "buildtype": "FullDPS",
        "ExpectedTimeLive": [
            9,
            5,
            2.5
        ],
        "ExtraSurvivingTime": 0,
        "ADchampion": true,
        "Jungling": false,
        "Supporting": false,
        "BuildTankyEarly": false,
        "BuildDamageEarly": false,
        "IgnoreManaEarly": false,
        "IgnoreBoots": false,
        "IA": 0.4,
        "requiredmana": 150,
        "enemyaveragecurrenthp": 0.5,
        "laneorientation": "Top",
        "TargetPriority": "Squishy"
    },
    "Garen": {
        "buildtype": "Duelist",
        "ExpectedTimeLive": [
            9,
            5,
            2.5
        ],
        "ExtraSurvivingTime": 0,
        "ADchampion": true,
        "Jungling": false,
        "Supporting": false,
        "BuildTankyEarly": false,
        "BuildDamageEarly": false,
        "IgnoreManaEarly": false,
        "IgnoreBoots": false,
        "IA": 0.4,
        "requiredmana": 0,
        "enemyaveragecurrenthp": 0.55,
        "laneorientation": "Top",
        "TargetPriority": "General"
    },
    "Gnar": {
        "buildtype": [
            1,
            0.6
        ],
        "ExpectedTimeLive": [
            9,
            6,
            4
        ],
        "ExtraSurvivingTime": 0,
        "ADchampion": true,
        "Jungling": false,
        "Supporting": false,
        "BuildTankyEarly": false,
        "BuildDamageEarly": false,
        "IgnoreManaEarly": false,
        "IgnoreBoots": false,
        "IA": 0.3,
        "requiredmana": 0,
        "enemyaveragecurrenthp": 0.5,
        "laneorientation": "Top",
        "TargetPriority": "General"
    },
    "Gragas": {
        "buildtype": [
            1,
            0.8
        ],
        "ExpectedTimeLive": [
            9,
            5,
            2.5
        ],
        "ExtraSurvivingTime": 0,
        "ADchampion": false,
        "Jungling": true,
        "Supporting": false,
        "BuildTankyEarly": false,
        "BuildDamageEarly": false,
        "IgnoreManaEarly": false,
        "IgnoreBoots": false,
        "IA": 0.35,
        "requiredmana": 300,
        "enemyaveragecurrenthp": 0.5,
        "laneorientation": "Jungle",
        "TargetPriority": "General"
    },
    "Graves": {
        "buildtype": "Assassin",
        "ExpectedTimeLive": [
            9,
            6,
            4
        ],
        "ExtraSurvivingTime": 0,
        "ADchampion": true,
        "Jungling": true,
        "Supporting": false,
        "BuildTankyEarly": false,
        "BuildDamageEarly": false,
        "IgnoreManaEarly": false,
        "IgnoreBoots": false,
        "IA": 0.35,
        "requiredmana": 0,
        "enemyaveragecurrenthp": 0.54,
        "laneorientation": "Jungle",
        "TargetPriority": "Squishy"
    },
    "Hecarim": {
        "buildtype": [
            1,
            0.75
        ],
        "ExpectedTimeLive": [
            9,
            5,
            2.5
        ],
        "ExtraSurvivingTime": 0,
        "ADchampion": true,
        "Jungling": true,
        "Supporting": false,
        "BuildTankyEarly": false,
        "BuildDamageEarly": false,
        "IgnoreManaEarly": false,
        "IgnoreBoots": false,
        "IA": 0.4,
        "requiredmana": 250,
        "enemyaveragecurrenthp": 0.5,
        "laneorientation": "Jungle",
        "TargetPriority": "General"
    },
    "Heimerdinger": {
        "buildtype": "Assassin",
        "ExpectedTimeLive": [
            9,
            6,
            4
        ],
        "ExtraSurvivingTime": 0,
        "ADchampion": false,
        "Jungling": false,
        "Supporting": false,
        "BuildTankyEarly": false,
        "BuildDamageEarly": false,
        "IgnoreManaEarly": false,
        "IgnoreBoots": false,
        "IA": 0.3,
        "requiredmana": 400,
        "enemyaveragecurrenthp": 0.5,
        "laneorientation": "Mid",
        "TargetPriority": "General"
    },
    "Illaoi": {
        "buildtype": [
            1,
            0.6
        ],
        "ExpectedTimeLive": [
            9,
            5,
            2.5
        ],
        "ExtraSurvivingTime": 0,
        "ADchampion": true,
        "Jungling": false,
        "Supporting": false,
        "BuildTankyEarly": false,
        "BuildDamageEarly": false,
        "IgnoreManaEarly": false,
        "IgnoreBoots": false,
        "IA": 0.4,
        "requiredmana": 100,
        "enemyaveragecurrenthp": 0.5,
        "laneorientation": "Top",
        "TargetPriority": "General"
    },
    "Irelia": {
        "buildtype": [
            1,
            0.65
        ],
        "ExpectedTimeLive": [
            9,
            5,
            2.5
        ],
        "ExtraSurvivingTime": 0,
        "ADchampion": true,
        "Jungling": false,
        "Supporting": false,
        "BuildTankyEarly": false,
        "BuildDamageEarly": false,
        "IgnoreManaEarly": false,
        "IgnoreBoots": false,
        "IA": 0.4,
        "requiredmana": 180,
        "enemyaveragecurrenthp": 0.5,
        "laneorientation": "Top",
        "TargetPriority": "Squishy"
    },
    "Ivern": {
        "buildtype": "Duelist",
        "ExpectedTimeLive": [
            9,
            5,
            2.5
        ],
        "ExtraSurvivingTime": 0,
        "ADchampion": false,
        "Jungling": true,
        "Supporting": false,
        "BuildTankyEarly": false,
        "BuildDamageEarly": false,
        "IgnoreManaEarly": false,
        "IgnoreBoots": false,
        "IA": 0.35,
        "requiredmana": 100,
        "enemyaveragecurrenthp": 0.5,
        "laneorientation": "Jungle",
        "TargetPriority": "General"
    },
    "Janna": {
        "buildtype": "Assassin",
        "ExpectedTimeLive": [
            9,
            6,
            4
        ],
        "ExtraSurvivingTime": 0,
        "ADchampion": false,
        "Jungling": false,
        "Supporting": true,
        "BuildTankyEarly": false,
        "BuildDamageEarly": false,
        "IgnoreManaEarly": false,
        "IgnoreBoots": false,
        "IA": 0.4,
        "requiredmana": 400,
        "enemyaveragecurrenthp": 0.55,
        "laneorientation": "Support",
        "TargetPriority": "General"
    },
    "JarvanIV": {
        "buildtype": "Duelist",
        "ExpectedTimeLive": [
            9,
            5,
            2.5
        ],
        "ExtraSurvivingTime": 0,
        "ADchampion": true,
        "Jungling": true,
        "Supporting": false,
        "BuildTankyEarly": false,
        "BuildDamageEarly": false,
        "IgnoreManaEarly": false,
        "IgnoreBoots": false,
        "IA": 0.4,
        "requiredmana": 70,
        "enemyaveragecurrenthp": 0.5,
        "laneorientation": "Jungle",
        "TargetPriority": "Squishy"
    },
    "Jax": {
        "buildtype": [
            1,
            1
        ],
        "ExpectedTimeLive": [
            9,
            5,
            2.5
        ],
        "ExtraSurvivingTime": 0,
        "ADchampion": true,
        "Jungling": false,
        "Supporting": false,
        "BuildTankyEarly": false,
        "BuildDamageEarly": false,
        "IgnoreManaEarly": false,
        "IgnoreBoots": false,
        "IA": 0.4,
        "requiredmana": 150,
        "enemyaveragecurrenthp": 0.5,
        "laneorientation": "Top",
        "TargetPriority": "General"
    },
    "Jayce": {
        "buildtype": "FullDPS",
        "ExpectedTimeLive": [
            9,
            6,
            4
        ],
        "ExtraSurvivingTime": 0,
        "ADchampion": true,
        "Jungling": false,
        "Supporting": false,
        "BuildTankyEarly": false,
        "BuildDamageEarly": false,
        "IgnoreManaEarly": false,
        "IgnoreBoots": false,
        "IA": 0.3,
        "requiredmana": 150,
        "enemyaveragecurrenthp": 0.5,
        "laneorientation": "Top",
        "TargetPriority": "Squishy"
    },
    "Jhin": {
        "buildtype": "FullDPS",
        "ExpectedTimeLive": [
            9,
            5.5,
            3
        ],
        "ExtraSurvivingTime": 0,
        "ADchampion": true,
        "Jungling": false,
        "Supporting": false,
        "BuildTankyEarly": false,
        "BuildDamageEarly": false,
        "IgnoreManaEarly": false,
        "IgnoreBoots": false,
        "IA": 0.3,
        "requiredmana": 100,
        "enemyaveragecurrenthp": 0.53,
        "laneorientation": "Bot",
        "TargetPriority": "Tanky"
    },
    "Jinx": {
        "buildtype": "Assassin",
        "ExpectedTimeLive": [
            9,
            5.5,
            3
        ],
        "ExtraSurvivingTime": 0,
        "ADchampion": true,
        "Jungling": false,
        "Supporting": false,
        "BuildTankyEarly": false,
        "BuildDamageEarly": false,
        "IgnoreManaEarly": false,
        "IgnoreBoots": false,
        "IA": 0.3,
        "requiredmana": 100,
        "enemyaveragecurrenthp": 0.55,
        "laneorientation": "Bot",
        "TargetPriority": "Tanky"
    },
    "Kaisa": {
        "buildtype": "Assassin",
        "ExpectedTimeLive": [
            9,
            5.5,
            3
        ],
        "ExtraSurvivingTime": 0,
        "ADchampion": true,
        "Jungling": false,
        "Supporting": false,
        "BuildTankyEarly": false,
        "BuildDamageEarly": false,
        "IgnoreManaEarly": false,
        "IgnoreBoots": false,
        "IA": 0.35,
        "requiredmana": 50,
        "enemyaveragecurrenthp": 0.50,
        "laneorientation": "Bot",
        "TargetPriority": "Squishy"
    },
    "Kalista": {
        "buildtype": "FullDPS",
        "ExpectedTimeLive": [
            9,
            5.5,
            3
        ],
        "ExtraSurvivingTime": 0,
        "ADchampion": true,
        "Jungling": false,
        "Supporting": false,
        "BuildTankyEarly": false,
        "BuildDamageEarly": false,
        "IgnoreManaEarly": false,
        "IgnoreBoots": false,
        "IA": 0.3,
        "requiredmana": 0,
        "enemyaveragecurrenthp": 0.55,
        "laneorientation": "Bot",
        "TargetPriority": "Tanky"
    },
    "Karma": {
        "buildtype": "FullDPS",
        "ExpectedTimeLive": [
            9,
            5.5,
            3
        ],
        "ExtraSurvivingTime": 0,
        "ADchampion": false,
        "Jungling": false,
        "Supporting": true,
        "BuildTankyEarly": false,
        "BuildDamageEarly": false,
        "IgnoreManaEarly": false,
        "IgnoreBoots": false,
        "IA": 0.3,
        "requiredmana": 300,
        "enemyaveragecurrenthp": 0.52,
        "laneorientation": "Support",
        "TargetPriority": "General"
    },
    "Karthus": {
        "buildtype": "FullDPS",
        "ExpectedTimeLive": [
            9,
            5.5,
            3
        ],
        "ExtraSurvivingTime": 0,
        "ADchampion": false,
        "Jungling": false,
        "Supporting": false,
        "BuildTankyEarly": false,
        "BuildDamageEarly": false,
        "IgnoreManaEarly": false,
        "IgnoreBoots": false,
        "IA": 0.4,
        "requiredmana": 900,
        "enemyaveragecurrenthp": 0.5,
        "laneorientation": "Mid",
        "TargetPriority": "General"
    },
    "Kassadin": {
        "buildtype": "Assassin",
        "ExpectedTimeLive": [
            9,
            5.5,
            3
        ],
        "ExtraSurvivingTime": 0,
        "ADchampion": false,
        "Jungling": false,
        "Supporting": false,
        "BuildTankyEarly": false,
        "BuildDamageEarly": false,
        "IgnoreManaEarly": false,
        "IgnoreBoots": false,
        "IA": 0.35,
        "requiredmana": 650,
        "enemyaveragecurrenthp": 0.5,
        "laneorientation": "Mid",
        "TargetPriority": "Squishy"
    },
    "Katarina": {
        "buildtype": "FullDPS",
        "ExpectedTimeLive": [
            9,
            5,
            2.5
        ],
        "ExtraSurvivingTime": 0,
        "ADchampion": false,
        "Jungling": false,
        "Supporting": false,
        "BuildTankyEarly": false,
        "BuildDamageEarly": false,
        "IgnoreManaEarly": false,
        "IgnoreBoots": false,
        "IA": 0.4,
        "requiredmana": 0,
        "enemyaveragecurrenthp": 0.4,
        "laneorientation": "Mid",
        "TargetPriority": "Squishy"
    },
    "Kayle": {
        "buildtype": "Assassin",
        "ExpectedTimeLive": [
            9,
            5.5,
            3
        ],
        "ExtraSurvivingTime": 3,
        "ADchampion": true,
        "Jungling": false,
        "Supporting": false,
        "BuildTankyEarly": false,
        "BuildDamageEarly": false,
        "IgnoreManaEarly": false,
        "IgnoreBoots": false,
        "IA": 0.35,
        "requiredmana": 150,
        "enemyaveragecurrenthp": 0.5,
        "laneorientation": "Top",
        "TargetPriority": "General"
    },
    "Kayn": {
        "buildtype": [
            1,
            0.7
        ],
        "ExpectedTimeLive": [
            9,
            5,
            2.5
        ],
        "ExtraSurvivingTime": 0,
        "ADchampion": true,
        "Jungling": false,
        "Supporting": false,
        "BuildTankyEarly": false,
        "BuildDamageEarly": false,
        "IgnoreManaEarly": false,
        "IgnoreBoots": false,
        "IA": 0.4,
        "requiredmana": 0,
        "enemyaveragecurrenthp": 0.52,
        "laneorientation": "Jungle",
        "TargetPriority": "General"
    },
    "Kennen": {
        "buildtype": "FullDPS",
        "ExpectedTimeLive": [
            9,
            5.5,
            3
        ],
        "ExtraSurvivingTime": 0,
        "ADchampion": false,
        "Jungling": false,
        "Supporting": false,
        "BuildTankyEarly": false,
        "BuildDamageEarly": false,
        "IgnoreManaEarly": false,
        "IgnoreBoots": false,
        "IA": 0.3,
        "requiredmana": 0,
        "enemyaveragecurrenthp": 0.5,
        "laneorientation": "Top",
        "TargetPriority": "General"
    },
    "Khazix": {
        "buildtype": [
            1,
            0.4
        ],
        "ExpectedTimeLive": [
            9,
            5,
            2.5
        ],
        "ExtraSurvivingTime": 0,
        "ADchampion": true,
        "Jungling": true,
        "Supporting": false,
        "BuildTankyEarly": false,
        "BuildDamageEarly": false,
        "IgnoreManaEarly": false,
        "IgnoreBoots": false,
        "IA": 0.4,
        "requiredmana": 0,
        "enemyaveragecurrenthp": 0.48,
        "laneorientation": "Jungle",
        "TargetPriority": "Squishy"
    },
    "Kindred": {
        "buildtype": "FullDPS",
        "ExpectedTimeLive": [
            9,
            5.5,
            3
        ],
        "ExtraSurvivingTime": 0,
        "ADchampion": true,
        "Jungling": true,
        "Supporting": false,
        "BuildTankyEarly": false,
        "BuildDamageEarly": false,
        "IgnoreManaEarly": false,
        "IgnoreBoots": false,
        "IA": 0.3,
        "requiredmana": 0,
        "enemyaveragecurrenthp": 0.5,
        "laneorientation": "Jungle",
        "TargetPriority": "General"
    },
    "Kled": {
        "buildtype": "Duelist",
        "ExpectedTimeLive": [
            9,
            5,
            2.5
        ],
        "ExtraSurvivingTime": 0.5,
        "ADchampion": true,
        "Jungling": false,
        "Supporting": false,
        "BuildTankyEarly": false,
        "BuildDamageEarly": false,
        "IgnoreManaEarly": false,
        "IgnoreBoots": false,
        "IA": 0.4,
        "requiredmana": 0,
        "enemyaveragecurrenthp": 0.5,
        "laneorientation": "Top",
        "TargetPriority": "General"
    },
    "KogMaw": {
        "buildtype": "FullDPS",
        "ExpectedTimeLive": [
            9,
            5.5,
            3
        ],
        "ExtraSurvivingTime": 0,
        "ADchampion": true,
        "Jungling": false,
        "Supporting": false,
        "BuildTankyEarly": false,
        "BuildDamageEarly": false,
        "IgnoreManaEarly": false,
        "IgnoreBoots": false,
        "IA": 0.3,
        "requiredmana": 160,
        "enemyaveragecurrenthp": 0.5,
        "laneorientation": "Bot",
        "TargetPriority": "Tanky"
    },
    "Leblanc": {
        "buildtype": "FullDPS",
        "ExpectedTimeLive": [
            9,
            5.5,
            3
        ],
        "ExtraSurvivingTime": 0,
        "ADchampion": false,
        "Jungling": false,
        "Supporting": false,
        "BuildTankyEarly": false,
        "BuildDamageEarly": false,
        "IgnoreManaEarly": false,
        "IgnoreBoots": false,
        "IA": 0.3,
        "requiredmana": 400,
        "enemyaveragecurrenthp": 0.4,
        "laneorientation": "Mid",
        "TargetPriority": "Squishy"
    },
    "LeeSin": {
        "buildtype": "Duelist",
        "ExpectedTimeLive": [
            9,
            5,
            2.5
        ],
        "ExtraSurvivingTime": 0,
        "ADchampion": true,
        "Jungling": true,
        "Supporting": false,
        "BuildTankyEarly": false,
        "BuildDamageEarly": false,
        "IgnoreManaEarly": false,
        "IgnoreBoots": false,
        "IA": 0.4,
        "requiredmana": 0,
        "enemyaveragecurrenthp": 0.5,
        "laneorientation": "Jungle",
        "TargetPriority": "Squishy"
    },
    "Leona": {
        "buildtype": "Tank",
        "ExpectedTimeLive": [
            9,
            5,
            2.5
        ],
        "ExtraSurvivingTime": 0,
        "ADchampion": true,
        "Jungling": false,
        "Supporting": true,
        "BuildTankyEarly": false,
        "BuildDamageEarly": false,
        "IgnoreManaEarly": false,
        "IgnoreBoots": false,
        "IA": 0.4,
        "requiredmana": 100,
        "enemyaveragecurrenthp": 0.5,
        "laneorientation": "Support",
        "TargetPriority": "General"
    },
    "Lillia": {
        "buildtype": [
            1,
            0.6
        ],
        "ExpectedTimeLive": [
            9,
            5.5,
            3
        ],
        "ExtraSurvivingTime": 0,
        "ADchampion": false,
        "Jungling": true,
        "Supporting": false,
        "BuildTankyEarly": false,
        "BuildDamageEarly": false,
        "IgnoreManaEarly": false,
        "IgnoreBoots": false,
        "IA": 0.3,
        "requiredmana": 150,
        "enemyaveragecurrenthp": 0.5,
        "laneorientation": "Jungle",
        "TargetPriority": "General"
    },
    "Lissandra": {
        "buildtype": "Assassin",
        "ExpectedTimeLive": [
            9,
            5,
            2.5
        ],
        "ExtraSurvivingTime": 0,
        "ADchampion": false,
        "Jungling": false,
        "Supporting": false,
        "BuildTankyEarly": false,
        "BuildDamageEarly": false,
        "IgnoreManaEarly": false,
        "IgnoreBoots": false,
        "IA": 0.4,
        "requiredmana": 250,
        "enemyaveragecurrenthp": 0.5,
        "laneorientation": "Top",
        "TargetPriority": "General"
    },
    "Lucian": {
        "buildtype": "FullDPS",
        "ExpectedTimeLive": [
            9,
            5.5,
            3
        ],
        "ExtraSurvivingTime": 0,
        "ADchampion": true,
        "Jungling": false,
        "Supporting": false,
        "BuildTankyEarly": false,
        "BuildDamageEarly": false,
        "IgnoreManaEarly": false,
        "IgnoreBoots": false,
        "IA": 0.3,
        "requiredmana": 0,
        "enemyaveragecurrenthp": 0.5,
        "laneorientation": "Bot",
        "TargetPriority": "Tanky"
    },
    "Lulu": {
        "buildtype": "Assassin",
        "ExpectedTimeLive": [
            9,
            5.5,
            3
        ],
        "ExtraSurvivingTime": 0,
        "ADchampion": false,
        "Jungling": false,
        "Supporting": true,
        "BuildTankyEarly": false,
        "BuildDamageEarly": false,
        "IgnoreManaEarly": false,
        "IgnoreBoots": false,
        "IA": 0.4,
        "requiredmana": 250,
        "enemyaveragecurrenthp": 0.5,
        "laneorientation": "Support",
        "TargetPriority": "General"
    },
    "Lux": {
        "buildtype": "FullDPS",
        "ExpectedTimeLive": [
            9,
            5.5,
            3
        ],
        "ExtraSurvivingTime": 0,
        "ADchampion": false,
        "Jungling": false,
        "Supporting": false,
        "BuildTankyEarly": false,
        "BuildDamageEarly": false,
        "IgnoreManaEarly": false,
        "IgnoreBoots": false,
        "IA": 0.3,
        "requiredmana": 400,
        "enemyaveragecurrenthp": 0.5,
        "laneorientation": "Support",
        "TargetPriority": "General"
    },
    "Malphite": {
        "buildtype": "Duelist",
        "ExpectedTimeLive": [
            9,
            5,
            2.5
        ],
        "ExtraSurvivingTime": 0,
        "ADchampion": false,
        "Jungling": false,
        "Supporting": false,
        "BuildTankyEarly": false,
        "BuildDamageEarly": false,
        "IgnoreManaEarly": false,
        "IgnoreBoots": false,
        "IA": 0.45,
        "requiredmana": 250,
        "enemyaveragecurrenthp": 0.5,
        "laneorientation": "Top",
        "TargetPriority": "Squishy"
    },
    "Malzahar": {
        "buildtype": [
            1,
            0.35
        ],
        "ExpectedTimeLive": [
            9,
            5.5,
            3
        ],
        "ExtraSurvivingTime": 1,
        "ADchampion": false,
        "Jungling": false,
        "Supporting": false,
        "BuildTankyEarly": false,
        "BuildDamageEarly": false,
        "IgnoreManaEarly": false,
        "IgnoreBoots": false,
        "IA": 0.3,
        "requiredmana": 500,
        "enemyaveragecurrenthp": 0.5,
        "laneorientation": "Mid",
        "TargetPriority": "General"
    },
    "MasterYi": {
        "buildtype": "Assassin",
        "ExpectedTimeLive": [
            9,
            5,
            2.5
        ],
        "ExtraSurvivingTime": 1,
        "ADchampion": true,
        "Jungling": true,
        "Supporting": false,
        "BuildTankyEarly": false,
        "BuildDamageEarly": false,
        "IgnoreManaEarly": false,
        "IgnoreBoots": false,
        "IA": 0.4,
        "requiredmana": 50,
        "enemyaveragecurrenthp": 0.5,
        "laneorientation": "Jungle",
        "TargetPriority": "General"
    },
    "Maokai": {
        "buildtype": "Duelist",
        "ExpectedTimeLive": [
            9,
            5,
            2.5
        ],
        "ExtraSurvivingTime": 0,
        "ADchampion": false,
        "Jungling": false,
        "Supporting": false,
        "BuildTankyEarly": false,
        "BuildDamageEarly": false,
        "IgnoreManaEarly": false,
        "IgnoreBoots": false,
        "IA": 0.4,
        "requiredmana": 350,
        "enemyaveragecurrenthp": 0.5,
        "laneorientation": "Top",
        "TargetPriority": "General"
    },
    "MissFortune": {
        "buildtype": "FullDPS",
        "ExpectedTimeLive": [
            9,
            5.5,
            3
        ],
        "ExtraSurvivingTime": 0,
        "ADchampion": true,
        "Jungling": false,
        "Supporting": false,
        "BuildTankyEarly": false,
        "BuildDamageEarly": false,
        "IgnoreManaEarly": false,
        "IgnoreBoots": false,
        "IA": 0.3,
        "requiredmana": 150,
        "enemyaveragecurrenthp": 0.5,
        "laneorientation": "Bot",
        "TargetPriority": "Tanky"
    },
    "Mordekaiser": {
        "buildtype": "Assassin",
        "ExpectedTimeLive": [
            9,
            5,
            2.5
        ],
        "ExtraSurvivingTime": 0,
        "ADchampion": false,
        "Jungling": false,
        "Supporting": false,
        "BuildTankyEarly": false,
        "BuildDamageEarly": false,
        "IgnoreManaEarly": false,
        "IgnoreBoots": false,
        "IA": 0.4,
        "requiredmana": 0,
        "enemyaveragecurrenthp": 0.5,
        "laneorientation": "Top",
        "TargetPriority": "General"
    },
    "Morgana": {
        "buildtype": "FullDPS",
        "ExpectedTimeLive": [
            9,
            5.5,
            3
        ],
        "ExtraSurvivingTime": 0,
        "ADchampion": false,
        "Jungling": false,
        "Supporting": true,
        "BuildTankyEarly": false,
        "BuildDamageEarly": false,
        "IgnoreManaEarly": false,
        "IgnoreBoots": false,
        "IA": 0.3,
        "requiredmana": 350,
        "enemyaveragecurrenthp": 0.4,
        "laneorientation": "Support",
        "TargetPriority": "General"
    },
    "Nami": {
        "buildtype": "Assassin",
        "ExpectedTimeLive": [
            9,
            6,
            4
        ],
        "ExtraSurvivingTime": 0,
        "ADchampion": false,
        "Jungling": false,
        "Supporting": true,
        "BuildTankyEarly": false,
        "BuildDamageEarly": false,
        "IgnoreManaEarly": false,
        "IgnoreBoots": false,
        "IA": 0.4,
        "requiredmana": 150,
        "enemyaveragecurrenthp": 0.55,
        "laneorientation": "Support",
        "TargetPriority": "General"
    },
    "Nasus": {
        "buildtype": "Duelist",
        "ExpectedTimeLive": [
            9,
            5,
            2.5
        ],
        "ExtraSurvivingTime": 0,
        "ADchampion": true,
        "Jungling": false,
        "Supporting": false,
        "BuildTankyEarly": true,
        "BuildDamageEarly": false,
        "IgnoreManaEarly": false,
        "IgnoreBoots": false,
        "IA": 0.5,
        "requiredmana": 200,
        "enemyaveragecurrenthp": 0.5,
        "laneorientation": "Top",
        "TargetPriority": "General"
    },
    "Nautilus": {
        "buildtype": "Duelist",
        "ExpectedTimeLive": [
            9,
            5,
            2.5
        ],
        "ExtraSurvivingTime": 0,
        "ADchampion": true,
        "Jungling": false,
        "Supporting": false,
        "BuildTankyEarly": false,
        "BuildDamageEarly": false,
        "IgnoreManaEarly": false,
        "IgnoreBoots": false,
        "IA": 0.4,
        "requiredmana": 150,
        "enemyaveragecurrenthp": 0.53,
        "laneorientation": "Support",
        "TargetPriority": "General"
    },
    "Neeko": {
        "buildtype": "FullDPS",
        "ExpectedTimeLive": [
            9,
            5.5,
            3
        ],
        "ExtraSurvivingTime": 0,
        "ADchampion": false,
        "Jungling": false,
        "Supporting": false,
        "BuildTankyEarly": false,
        "BuildDamageEarly": false,
        "IgnoreManaEarly": false,
        "IgnoreBoots": false,
        "IA": 0.4,
        "requiredmana": 300,
        "enemyaveragecurrenthp": 0.55,
        "laneorientation": "Mid",
        "TargetPriority": "General"
    },
    "Nidalee": {
        "buildtype": "FullDPS",
        "ExpectedTimeLive": [
            9,
            6,
            4
        ],
        "ExtraSurvivingTime": 0,
        "ADchampion": false,
        "Jungling": true,
        "Supporting": false,
        "BuildTankyEarly": false,
        "BuildDamageEarly": false,
        "IgnoreManaEarly": false,
        "IgnoreBoots": false,
        "IA": 0.4,
        "requiredmana": 350,
        "enemyaveragecurrenthp": 0.4,
        "laneorientation": "Jungle",
        "TargetPriority": "Squishy"
    },
    "Nocturne": {
        "buildtype": "Assassin",
        "ExpectedTimeLive": [
            9,
            5,
            2.5
        ],
        "ExtraSurvivingTime": 0,
        "ADchampion": true,
        "Jungling": true,
        "Supporting": false,
        "BuildTankyEarly": false,
        "BuildDamageEarly": false,
        "IgnoreManaEarly": false,
        "IgnoreBoots": false,
        "IA": 0.4,
        "requiredmana": 70,
        "enemyaveragecurrenthp": 0.5,
        "laneorientation": "Jungle",
        "TargetPriority": "Squishy"
    },
    "Nunu": {
        "buildtype": "Tank",
        "ExpectedTimeLive": [
            9,
            5,
            2.5
        ],
        "ExtraSurvivingTime": 0,
        "ADchampion": false,
        "Jungling": true,
        "Supporting": false,
        "BuildTankyEarly": false,
        "BuildDamageEarly": false,
        "IgnoreManaEarly": false,
        "IgnoreBoots": false,
        "IA": 0.4,
        "requiredmana": 350,
        "enemyaveragecurrenthp": 0.5,
        "laneorientation": "Jungle",
        "TargetPriority": "General"
    },
    "Olaf": {
        "buildtype": [
            0.8,
            1
        ],
        "ExpectedTimeLive": [
            9,
            5,
            2.5
        ],
        "ExtraSurvivingTime": 0,
        "ADchampion": true,
        "Jungling": true,
        "Supporting": false,
        "BuildTankyEarly": false,
        "BuildDamageEarly": false,
        "IgnoreManaEarly": false,
        "IgnoreBoots": false,
        "IA": 0.4,
        "requiredmana": 150,
        "enemyaveragecurrenthp": 0.5,
        "laneorientation": "Jungle",
        "TargetPriority": "General"
    },
    "Orianna": {
        "buildtype": "FullDPS",
        "ExpectedTimeLive": [
            9,
            5.5,
            3
        ],
        "ExtraSurvivingTime": 0,
        "ADchampion": false,
        "Jungling": false,
        "Supporting": false,
        "BuildTankyEarly": false,
        "BuildDamageEarly": false,
        "IgnoreManaEarly": false,
        "IgnoreBoots": false,
        "IA": 0.3,
        "requiredmana": 500,
        "enemyaveragecurrenthp": 0.45,
        "laneorientation": "Mid",
        "TargetPriority": "General"
    },
    "Ornn": {
        "buildtype": "Duelist",
        "ExpectedTimeLive": [
            9,
            5,
            2.5
        ],
        "ExtraSurvivingTime": 0,
        "ADchampion": true,
        "Jungling": false,
        "Supporting": false,
        "BuildTankyEarly": false,
        "BuildDamageEarly": false,
        "IgnoreManaEarly": false,
        "IgnoreBoots": false,
        "IA": 0.4,
        "requiredmana": 300,
        "enemyaveragecurrenthp": 0.5,
        "laneorientation": "Top",
        "TargetPriority": "General"
    },
    "Pantheon": {
        "buildtype": "Assassin",
        "ExpectedTimeLive": [
            9,
            5,
            2.5
        ],
        "ExtraSurvivingTime": 2,
        "ADchampion": true,
        "Jungling": true,
        "Supporting": false,
        "BuildTankyEarly": false,
        "BuildDamageEarly": false,
        "IgnoreManaEarly": false,
        "IgnoreBoots": false,
        "IA": 0.4,
        "requiredmana": 100,
        "enemyaveragecurrenthp": 0.5,
        "laneorientation": "Top",
        "TargetPriority": "General"
    },
    "Poppy": {
        "buildtype": "Duelist",
        "ExpectedTimeLive": [
            9,
            5,
            2.5
        ],
        "ExtraSurvivingTime": 0,
        "ADchampion": true,
        "Jungling": false,
        "Supporting": false,
        "BuildTankyEarly": false,
        "BuildDamageEarly": false,
        "IgnoreManaEarly": false,
        "IgnoreBoots": false,
        "IA": 0.4,
        "requiredmana": 150,
        "enemyaveragecurrenthp": 0.5,
        "laneorientation": "Top",
        "TargetPriority": "Squishy"
    },
    "Pyke": {
        "buildtype": "Assassin",
        "ExpectedTimeLive": [
            9,
            5,
            2.5
        ],
        "ExtraSurvivingTime": 0,
        "ADchampion": true,
        "Jungling": false,
        "Supporting": false,
        "BuildTankyEarly": false,
        "BuildDamageEarly": false,
        "IgnoreManaEarly": false,
        "IgnoreBoots": false,
        "IA": 0.4,
        "requiredmana": 0,
        "enemyaveragecurrenthp": 0.62,
        "laneorientation": "Support",
        "TargetPriority": "Squishy"
    },
    "Qiyana": {
        "buildtype": "Assassin",
        "ExpectedTimeLive": [
            9,
            5,
            2.5
        ],
        "ExtraSurvivingTime": 0,
        "ADchampion": true,
        "Jungling": false,
        "Supporting": false,
        "BuildTankyEarly": false,
        "BuildDamageEarly": false,
        "IgnoreManaEarly": false,
        "IgnoreBoots": false,
        "IA": 0.4,
        "requiredmana": 50,
        "enemyaveragecurrenthp": 0.50,
        "laneorientation": "Top",
        "TargetPriority": "Squishy"
    },
    "Quinn": {
        "buildtype": "Assassin",
        "ExpectedTimeLive": [
            9,
            5.5,
            3
        ],
        "ExtraSurvivingTime": 0,
        "ADchampion": true,
        "Jungling": false,
        "Supporting": false,
        "BuildTankyEarly": false,
        "BuildDamageEarly": false,
        "IgnoreManaEarly": false,
        "IgnoreBoots": false,
        "IA": 0.3,
        "requiredmana": 50,
        "enemyaveragecurrenthp": 0.52,
        "laneorientation": "Top",
        "TargetPriority": "Tanky"
    },
    "Rakan": {
        "buildtype": "Duelist",
        "ExpectedTimeLive": [
            9,
            5.5,
            3
        ],
        "ExtraSurvivingTime": 0,
        "ADchampion": false,
        "Jungling": false,
        "Supporting": true,
        "BuildTankyEarly": false,
        "BuildDamageEarly": false,
        "IgnoreManaEarly": false,
        "IgnoreBoots": false,
        "IA": 0.35,
        "requiredmana": 100,
        "enemyaveragecurrenthp": 0.5,
        "laneorientation": "Support",
        "TargetPriority": "General"
    },
    "Rammus": {
        "buildtype": "Tank",
        "ExpectedTimeLive": [
            9,
            5,
            2.5
        ],
        "ExtraSurvivingTime": 0,
        "ADchampion": false,
        "Jungling": true,
        "Supporting": false,
        "BuildTankyEarly": false,
        "BuildDamageEarly": false,
        "IgnoreManaEarly": false,
        "IgnoreBoots": false,
        "IA": 0.4,
        "requiredmana": 150,
        "enemyaveragecurrenthp": 0.53,
        "laneorientation": "Jungle",
        "TargetPriority": "General"
    },
    "RekSai": {
        "buildtype": "Duelist",
        "ExpectedTimeLive": [
            9,
            5,
            2.5
        ],
        "ExtraSurvivingTime": 0,
        "ADchampion": true,
        "Jungling": true,
        "Supporting": false,
        "BuildTankyEarly": false,
        "BuildDamageEarly": false,
        "IgnoreManaEarly": false,
        "IgnoreBoots": false,
        "IA": 0.4,
        "requiredmana": 0,
        "enemyaveragecurrenthp": 0.55,
        "laneorientation": "Jungle",
        "TargetPriority": "General"
    },
    "Renekton": {
        "buildtype": "Duelist",
        "ExpectedTimeLive": [
            9,
            5,
            2.5
        ],
        "ExtraSurvivingTime": 0,
        "ADchampion": true,
        "Jungling": false,
        "Supporting": false,
        "BuildTankyEarly": false,
        "BuildDamageEarly": false,
        "IgnoreManaEarly": false,
        "IgnoreBoots": false,
        "IA": 0.4,
        "requiredmana": 0,
        "enemyaveragecurrenthp": 0.5,
        "laneorientation": "Top",
        "TargetPriority": "General"
    },
    "Rengar": {
        "buildtype": [
            1,
            0.35
        ],
        "ExpectedTimeLive": [
            9,
            5,
            2.5
        ],
        "ExtraSurvivingTime": 0,
        "ADchampion": true,
        "Jungling": true,
        "Supporting": false,
        "BuildTankyEarly": false,
        "BuildDamageEarly": false,
        "IgnoreManaEarly": false,
        "IgnoreBoots": false,
        "IA": 0.4,
        "requiredmana": 0,
        "enemyaveragecurrenthp": 0.45,
        "laneorientation": "Jungle",
        "TargetPriority": "Squishy"
    },
    "Riven": {
        "buildtype": "Assassin",
        "ExpectedTimeLive": [
            9,
            5,
            2.5
        ],
        "ExtraSurvivingTime": 0,
        "ADchampion": true,
        "Jungling": false,
        "Supporting": false,
        "BuildTankyEarly": false,
        "BuildDamageEarly": false,
        "IgnoreManaEarly": false,
        "IgnoreBoots": false,
        "IA": 0.4,
        "requiredmana": 0,
        "enemyaveragecurrenthp": 0.52,
        "laneorientation": "Top",
        "TargetPriority": "General"
    },
    "Rumble": {
        "buildtype": [
            1,
            0.35
        ],
        "ExpectedTimeLive": [
            9,
            5,
            2.5
        ],
        "ExtraSurvivingTime": 0,
        "ADchampion": false,
        "Jungling": false,
        "Supporting": false,
        "BuildTankyEarly": false,
        "BuildDamageEarly": false,
        "IgnoreManaEarly": false,
        "IgnoreBoots": false,
        "IA": 0.4,
        "requiredmana": 0,
        "enemyaveragecurrenthp": 0.5,
        "laneorientation": "Top",
        "TargetPriority": "General"
    },
    "Ryze": {
        "buildtype": "Assassin",
        "ExpectedTimeLive": [
            9,
            6,
            4
        ],
        "ExtraSurvivingTime": 0,
        "ADchampion": false,
        "Jungling": false,
        "Supporting": false,
        "BuildTankyEarly": false,
        "BuildDamageEarly": false,
        "IgnoreManaEarly": false,
        "IgnoreBoots": false,
        "IA": 0.4,
        "requiredmana": 1200,
        "enemyaveragecurrenthp": 0.5,
        "laneorientation": "Mid",
        "TargetPriority": "General"
    },
    "Sejuani": {
        "buildtype": "Tank",
        "ExpectedTimeLive": [
            9,
            5,
            2.5
        ],
        "ExtraSurvivingTime": 0,
        "ADchampion": false,
        "Jungling": true,
        "Supporting": false,
        "BuildTankyEarly": false,
        "BuildDamageEarly": false,
        "IgnoreManaEarly": false,
        "IgnoreBoots": false,
        "IA": 0.4,
        "requiredmana": 100,
        "enemyaveragecurrenthp": 0.55,
        "laneorientation": "Jungle",
        "TargetPriority": "General"
    },
    "Senna": {
        "buildtype": "FullDPS",
        "ExpectedTimeLive": [
            9,
            5.5,
            3
        ],
        "ExtraSurvivingTime": 0,
        "ADchampion": true,
        "Jungling": false,
        "Supporting": true,
        "BuildTankyEarly": false,
        "BuildDamageEarly": false,
        "IgnoreManaEarly": false,
        "IgnoreBoots": false,
        "IA": 0.4,
        "requiredmana": 200,
        "enemyaveragecurrenthp": 0.55,
        "laneorientation": "Support",
        "TargetPriority": "General"
    },
    "Sett": {
        "buildtype": [
            1,
            0.9
        ],
        "ExpectedTimeLive": [
            9,
            5,
            2.5
        ],
        "ExtraSurvivingTime": 0,
        "ADchampion": true,
        "Jungling": false,
        "Supporting": false,
        "BuildTankyEarly": false,
        "BuildDamageEarly": false,
        "IgnoreManaEarly": false,
        "IgnoreBoots": false,
        "IA": 0.4,
        "requiredmana": 0,
        "enemyaveragecurrenthp": 0.55,
        "laneorientation": "Top",
        "TargetPriority": "General"
    },
    "Shaco": {
        "buildtype": "FullDPS",
        "ExpectedTimeLive": [
            9,
            5,
            2.5
        ],
        "ExtraSurvivingTime": 2,
        "ADchampion": true,
        "Jungling": true,
        "Supporting": false,
        "BuildTankyEarly": false,
        "BuildDamageEarly": false,
        "IgnoreManaEarly": false,
        "IgnoreBoots": false,
        "IA": 0.4,
        "requiredmana": 100,
        "enemyaveragecurrenthp": 0.5,
        "laneorientation": "Jungle",
        "TargetPriority": "Squishy"
    },
    "Shen": {
        "buildtype": "Duelist",
        "ExpectedTimeLive": [
            9,
            5,
            2.5
        ],
        "ExtraSurvivingTime": 0,
        "ADchampion": false,
        "Jungling": false,
        "Supporting": false,
        "BuildTankyEarly": false,
        "BuildDamageEarly": false,
        "IgnoreManaEarly": false,
        "IgnoreBoots": false,
        "IA": 0.4,
        "requiredmana": 0,
        "enemyaveragecurrenthp": 0.5,
        "laneorientation": "Top",
        "TargetPriority": "General"
    },
    "Shyvana": {
        "buildtype": "Duelist",
        "ExpectedTimeLive": [
            9,
            5,
            2.5
        ],
        "ExtraSurvivingTime": 0,
        "ADchampion": true,
        "Jungling": true,
        "Supporting": false,
        "BuildTankyEarly": false,
        "BuildDamageEarly": false,
        "IgnoreManaEarly": false,
        "IgnoreBoots": false,
        "IA": 0.4,
        "requiredmana": 0,
        "enemyaveragecurrenthp": 0.5,
        "laneorientation": "Jungle",
        "TargetPriority": "Squishy"
    },
    "Sion": {
        "buildtype": "Duelist",
        "ExpectedTimeLive": [
            9,
            5,
            2.5
        ],
        "ExtraSurvivingTime": 0,
        "ADchampion": true,
        "Jungling": false,
        "Supporting": false,
        "BuildTankyEarly": false,
        "BuildDamageEarly": false,
        "IgnoreManaEarly": false,
        "IgnoreBoots": false,
        "IA": 0.4,
        "requiredmana": 350,
        "enemyaveragecurrenthp": 0.5,
        "laneorientation": "Top",
        "TargetPriority": "General"
    },
    "Singed": {
        "buildtype": [
            0.9,
            1
        ],
        "ExpectedTimeLive": [
            9,
            5,
            2.5
        ],
        "ExtraSurvivingTime": 0,
        "ADchampion": false,
        "Jungling": false,
        "Supporting": false,
        "BuildTankyEarly": false,
        "BuildDamageEarly": false,
        "IgnoreManaEarly": false,
        "IgnoreBoots": false,
        "IA": 0.4,
        "requiredmana": 150,
        "enemyaveragecurrenthp": 0.5,
        "laneorientation": "Top",
        "TargetPriority": "General"
    },
    "Sivir": {
        "buildtype": "FullDPS",
        "ExpectedTimeLive": [
            9,
            5.5,
            3
        ],
        "ExtraSurvivingTime": 0,
        "ADchampion": true,
        "Jungling": false,
        "Supporting": false,
        "BuildTankyEarly": false,
        "BuildDamageEarly": false,
        "IgnoreManaEarly": false,
        "IgnoreBoots": false,
        "IA": 0.3,
        "requiredmana": 100,
        "enemyaveragecurrenthp": 0.5,
        "laneorientation": "Bot",
        "TargetPriority": "Tanky"
    },
    "Skarner": {
        "buildtype": "Duelist",
        "ExpectedTimeLive": [
            9,
            5,
            2.5
        ],
        "ExtraSurvivingTime": 0,
        "ADchampion": true,
        "Jungling": true,
        "Supporting": false,
        "BuildTankyEarly": false,
        "BuildDamageEarly": false,
        "IgnoreManaEarly": false,
        "IgnoreBoots": false,
        "IA": 0.4,
        "requiredmana": 300,
        "enemyaveragecurrenthp": 0.55,
        "laneorientation": "Jungle",
        "TargetPriority": "General"
    },
    "Sona": {
        "buildtype": "Assassin",
        "ExpectedTimeLive": [
            9,
            5.5,
            3
        ],
        "ExtraSurvivingTime": 0,
        "ADchampion": false,
        "Jungling": false,
        "Supporting": true,
        "BuildTankyEarly": false,
        "BuildDamageEarly": false,
        "IgnoreManaEarly": false,
        "IgnoreBoots": false,
        "IA": 0.4,
        "requiredmana": 300,
        "enemyaveragecurrenthp": 0.5,
        "laneorientation": "Support",
        "TargetPriority": "General"
    },
    "Soraka": {
        "buildtype": [
            1,
            0.7
        ],
        "ExpectedTimeLive": [
            9,
            5.5,
            3
        ],
        "ExtraSurvivingTime": 0,
        "ADchampion": false,
        "Jungling": false,
        "Supporting": true,
        "BuildTankyEarly": false,
        "BuildDamageEarly": false,
        "IgnoreManaEarly": false,
        "IgnoreBoots": false,
        "IA": 0.4,
        "requiredmana": 150,
        "enemyaveragecurrenthp": 0.55,
        "laneorientation": "Support",
        "TargetPriority": "General"
    },
    "Swain": {
        "buildtype": "Assassin",
        "ExpectedTimeLive": [
            9,
            6,
            4
        ],
        "ExtraSurvivingTime": 0,
        "ADchampion": false,
        "Jungling": false,
        "Supporting": false,
        "BuildTankyEarly": false,
        "BuildDamageEarly": false,
        "IgnoreManaEarly": false,
        "IgnoreBoots": false,
        "IA": 0.4,
        "requiredmana": 700,
        "enemyaveragecurrenthp": 0.5,
        "laneorientation": "Mid",
        "TargetPriority": "General"
    },
    "Sylas": {
        "buildtype": "Assassin",
        "ExpectedTimeLive": [
            9,
            5,
            2.5
        ],
        "ExtraSurvivingTime": 0,
        "ADchampion": false,
        "Jungling": false,
        "Supporting": false,
        "BuildTankyEarly": false,
        "BuildDamageEarly": false,
        "IgnoreManaEarly": false,
        "IgnoreBoots": false,
        "IA": 0.4,
        "requiredmana": 250,
        "enemyaveragecurrenthp": 0.5,
        "laneorientation": "Mid",
        "TargetPriority": "General"
    },
    "Syndra": {
        "buildtype": "FullDPS",
        "ExpectedTimeLive": [
            9,
            5.5,
            3
        ],
        "ExtraSurvivingTime": 0,
        "ADchampion": false,
        "Jungling": false,
        "Supporting": false,
        "BuildTankyEarly": false,
        "BuildDamageEarly": false,
        "IgnoreManaEarly": false,
        "IgnoreBoots": false,
        "IA": 0.4,
        "requiredmana": 400,
        "enemyaveragecurrenthp": 0.40,
        "laneorientation": "Mid",
        "TargetPriority": "General"
    },
    "TahmKench": {
        "buildtype": "Duelist",
        "ExpectedTimeLive": [
            9,
            5,
            2.5
        ],
        "ExtraSurvivingTime": 0,
        "ADchampion": false,
        "Jungling": false,
        "Supporting": false,
        "BuildTankyEarly": false,
        "BuildDamageEarly": false,
        "IgnoreManaEarly": false,
        "IgnoreBoots": false,
        "IA": 0.4,
        "requiredmana": 100,
        "enemyaveragecurrenthp": 0.54,
        "laneorientation": "Top",
        "TargetPriority": "General"
    },
    "Taliyah": {
        "buildtype": "FullDPS",
        "ExpectedTimeLive": [
            9,
            5.5,
            3
        ],
        "ExtraSurvivingTime": 0,
        "ADchampion": false,
        "Jungling": false,
        "Supporting": false,
        "BuildTankyEarly": false,
        "BuildDamageEarly": false,
        "IgnoreManaEarly": false,
        "IgnoreBoots": false,
        "IA": 0.4,
        "requiredmana": 450,
        "enemyaveragecurrenthp": 0.47,
        "laneorientation": "Mid",
        "TargetPriority": "General"
    },
    "Talon": {
        "buildtype": "Assassin",
        "ExpectedTimeLive": [
            9,
            5,
            2.5
        ],
        "ExtraSurvivingTime": 1,
        "ADchampion": true,
        "Jungling": false,
        "Supporting": false,
        "BuildTankyEarly": false,
        "BuildDamageEarly": false,
        "IgnoreManaEarly": false,
        "IgnoreBoots": false,
        "IA": 0.4,
        "requiredmana": 0,
        "enemyaveragecurrenthp": 0.5,
        "laneorientation": "Mid",
        "TargetPriority": "Squishy"
    },
    "Taric": {
        "buildtype": "Tank",
        "ExpectedTimeLive": [
            9,
            5,
            2.5
        ],
        "ExtraSurvivingTime": 2.5,
        "ADchampion": true,
        "Jungling": false,
        "Supporting": true,
        "BuildTankyEarly": false,
        "BuildDamageEarly": false,
        "IgnoreManaEarly": false,
        "IgnoreBoots": false,
        "IA": 0.4,
        "requiredmana": 300,
        "enemyaveragecurrenthp": 0.5,
        "laneorientation": "Support",
        "TargetPriority": "General"
    },
    "Teemo": {
        "buildtype": "FullDPS",
        "ExpectedTimeLive": [
            9,
            5.5,
            3
        ],
        "ExtraSurvivingTime": 0,
        "ADchampion": false,
        "Jungling": false,
        "Supporting": false,
        "BuildTankyEarly": false,
        "BuildDamageEarly": false,
        "IgnoreManaEarly": false,
        "IgnoreBoots": false,
        "IA": 0.3,
        "requiredmana": 100,
        "enemyaveragecurrenthp": 0.55,
        "laneorientation": "Top",
        "TargetPriority": "General"
    },
    "Thresh": {
        "buildtype": "Tank",
        "ExpectedTimeLive": [
            9,
            6,
            4
        ],
        "ExtraSurvivingTime": 0,
        "ADchampion": false,
        "Jungling": false,
        "Supporting": true,
        "BuildTankyEarly": false,
        "BuildDamageEarly": false,
        "IgnoreManaEarly": false,
        "IgnoreBoots": false,
        "IA": 0.4,
        "requiredmana": 100,
        "enemyaveragecurrenthp": 0.5,
        "laneorientation": "Support",
        "TargetPriority": "General"
    },
    "Tristana": {
        "buildtype": "FullDPS",
        "ExpectedTimeLive": [
            9,
            5.5,
            3
        ],
        "ExtraSurvivingTime": 0,
        "ADchampion": true,
        "Jungling": false,
        "Supporting": false,
        "BuildTankyEarly": false,
        "BuildDamageEarly": false,
        "IgnoreManaEarly": false,
        "IgnoreBoots": false,
        "IA": 0.3,
        "requiredmana": 0,
        "enemyaveragecurrenthp": 0.5,
        "laneorientation": "Bot",
        "TargetPriority": "Tanky"
    },
    "Trundle": {
        "buildtype": "Duelist",
        "ExpectedTimeLive": [
            9,
            5,
            2.5
        ],
        "ExtraSurvivingTime": 0,
        "ADchampion": true,
        "Jungling": false,
        "Supporting": false,
        "BuildTankyEarly": false,
        "BuildDamageEarly": false,
        "IgnoreManaEarly": false,
        "IgnoreBoots": false,
        "IA": 0.4,
        "requiredmana": 0,
        "enemyaveragecurrenthp": 0.5,
        "laneorientation": "Top",
        "TargetPriority": "General"
    },
    "Tryndamere": {
        "buildtype": "FullDPS",
        "ExpectedTimeLive": [
            9,
            5,
            2.5
        ],
        "ExtraSurvivingTime": 5,
        "ADchampion": true,
        "Jungling": false,
        "Supporting": false,
        "BuildTankyEarly": false,
        "BuildDamageEarly": false,
        "IgnoreManaEarly": false,
        "IgnoreBoots": false,
        "IA": 0.45,
        "requiredmana": 0,
        "enemyaveragecurrenthp": 0.5,
        "laneorientation": "Top",
        "TargetPriority": "General"
    },
    "TwistedFate": {
        "buildtype": "Assassin",
        "ExpectedTimeLive": [
            9,
            5.5,
            3
        ],
        "ExtraSurvivingTime": 0,
        "ADchampion": false,
        "Jungling": false,
        "Supporting": false,
        "BuildTankyEarly": false,
        "BuildDamageEarly": false,
        "IgnoreManaEarly": false,
        "IgnoreBoots": false,
        "IA": 0.4,
        "requiredmana": 400,
        "enemyaveragecurrenthp": 0.45,
        "laneorientation": "Mid",
        "TargetPriority": "General"
    },
    "Twitch": {
        "buildtype": "FullDPS",
        "ExpectedTimeLive": [
            9,
            5.5,
            3
        ],
        "ExtraSurvivingTime": 0,
        "ADchampion": true,
        "Jungling": false,
        "Supporting": false,
        "BuildTankyEarly": false,
        "BuildDamageEarly": false,
        "IgnoreManaEarly": false,
        "IgnoreBoots": false,
        "IA": 0.3,
        "requiredmana": 0,
        "enemyaveragecurrenthp": 0.54,
        "laneorientation": "Bot",
        "TargetPriority": "Tanky"
    },
    "Udyr": {
        "buildtype": [
            0.8,
            1
        ],
        "ExpectedTimeLive": [
            9,
            5,
            2.5
        ],
        "ExtraSurvivingTime": 0,
        "ADchampion": true,
        "Jungling": true,
        "Supporting": false,
        "BuildTankyEarly": false,
        "BuildDamageEarly": false,
        "IgnoreManaEarly": false,
        "IgnoreBoots": false,
        "IA": 0.4,
        "requiredmana": 0,
        "enemyaveragecurrenthp": 0.5,
        "laneorientation": "Jungle",
        "TargetPriority": "General"
    },
    "Urgot": {
        "buildtype": [
            1,
            0.8
        ],
        "ExpectedTimeLive": [
            9,
            5,
            2.5
        ],
        "ExtraSurvivingTime": 0,
        "ADchampion": true,
        "Jungling": false,
        "Supporting": false,
        "BuildTankyEarly": false,
        "BuildDamageEarly": false,
        "IgnoreManaEarly": false,
        "IgnoreBoots": false,
        "IA": 0.35,
        "requiredmana": 150,
        "enemyaveragecurrenthp": 0.60,
        "laneorientation": "Top",
        "TargetPriority": "General"
    },
    "Varus": {
        "buildtype": "FullDPS",
        "ExpectedTimeLive": [
            9,
            5.5,
            3
        ],
        "ExtraSurvivingTime": 0,
        "ADchampion": true,
        "Jungling": false,
        "Supporting": false,
        "BuildTankyEarly": false,
        "BuildDamageEarly": false,
        "IgnoreManaEarly": false,
        "IgnoreBoots": false,
        "IA": 0.3,
        "requiredmana": 100,
        "enemyaveragecurrenthp": 0.5,
        "laneorientation": "Bot",
        "TargetPriority": "General"
    },
    "Vayne": {
        "buildtype": "FullDPS",
        "ExpectedTimeLive": [
            9,
            5.5,
            3
        ],
        "ExtraSurvivingTime": 0,
        "ADchampion": true,
        "Jungling": false,
        "Supporting": false,
        "BuildTankyEarly": false,
        "BuildDamageEarly": false,
        "IgnoreManaEarly": false,
        "IgnoreBoots": false,
        "IA": 0.3,
        "requiredmana": 0,
        "enemyaveragecurrenthp": 0.5,
        "laneorientation": "Bot",
        "TargetPriority": "Tanky"
    },
    "Veigar": {
        "buildtype": "FullDPS",
        "ExpectedTimeLive": [
            9,
            5.5,
            3
        ],
        "ExtraSurvivingTime": 0,
        "ADchampion": false,
        "Jungling": false,
        "Supporting": false,
        "BuildTankyEarly": false,
        "BuildDamageEarly": false,
        "IgnoreManaEarly": false,
        "IgnoreBoots": false,
        "IA": 0.3,
        "requiredmana": 600,
        "enemyaveragecurrenthp": 0.4,
        "laneorientation": "Mid",
        "TargetPriority": "Squishy"
    },
    "Velkoz": {
        "buildtype": "FullDPS",
        "ExpectedTimeLive": [
            9,
            5.5,
            3
        ],
        "ExtraSurvivingTime": 0,
        "ADchampion": false,
        "Jungling": false,
        "Supporting": false,
        "BuildTankyEarly": false,
        "BuildDamageEarly": false,
        "IgnoreManaEarly": false,
        "IgnoreBoots": false,
        "IA": 0.3,
        "requiredmana": 400,
        "enemyaveragecurrenthp": 0.5,
        "laneorientation": "Mid",
        "TargetPriority": "General"
    },
    "Vi": {
        "buildtype": "Duelist",
        "ExpectedTimeLive": [
            9,
            5,
            2.5
        ],
        "ExtraSurvivingTime": 0,
        "ADchampion": true,
        "Jungling": true,
        "Supporting": false,
        "BuildTankyEarly": false,
        "BuildDamageEarly": false,
        "IgnoreManaEarly": false,
        "IgnoreBoots": false,
        "IA": 0.4,
        "requiredmana": 50,
        "enemyaveragecurrenthp": 0.45,
        "laneorientation": "Jungle",
        "TargetPriority": "Squishy"
    },
    "Viktor": {
        "buildtype": "FullDPS",
        "ExpectedTimeLive": [
            9,
            5.5,
            3
        ],
        "ExtraSurvivingTime": 0,
        "ADchampion": false,
        "Jungling": false,
        "Supporting": false,
        "BuildTankyEarly": false,
        "BuildDamageEarly": false,
        "IgnoreManaEarly": false,
        "IgnoreBoots": false,
        "IA": 0.3,
        "requiredmana": 300,
        "enemyaveragecurrenthp": 0.44,
        "laneorientation": "Mid",
        "TargetPriority": "Squishy"
    },
    "Volibear": {
        "buildtype": "Duelist",
        "ExpectedTimeLive": [
            9,
            5,
            2.5
        ],
        "ExtraSurvivingTime": 0,
        "ADchampion": true,
        "Jungling": false,
        "Supporting": false,
        "BuildTankyEarly": false,
        "BuildDamageEarly": false,
        "IgnoreManaEarly": false,
        "IgnoreBoots": false,
        "IA": 0.4,
        "requiredmana": 0,
        "enemyaveragecurrenthp": 0.50,
        "laneorientation": "Top",
        "TargetPriority": "General"
    },
    "Vladimir": {
        "buildtype": [
            1,
            0.75
        ],
        "ExpectedTimeLive": [
            11,
            7,
            4.5
        ],
        "ExtraSurvivingTime": 2,
        "ADchampion": false,
        "Jungling": false,
        "Supporting": false,
        "BuildTankyEarly": false,
        "BuildDamageEarly": false,
        "IgnoreManaEarly": false,
        "IgnoreBoots": false,
        "IA": 0.4,
        "requiredmana": 0,
        "enemyaveragecurrenthp": 0.5,
        "laneorientation": "Top",
        "TargetPriority": "General"
    },
    "Warwick": {
        "buildtype": "Duelist",
        "ExpectedTimeLive": [
            9,
            5,
            2.5
        ],
        "ExtraSurvivingTime": 0,
        "ADchampion": false,
        "Jungling": true,
        "Supporting": false,
        "BuildTankyEarly": false,
        "BuildDamageEarly": false,
        "IgnoreManaEarly": false,
        "IgnoreBoots": false,
        "IA": 0.4,
        "requiredmana": 200,
        "enemyaveragecurrenthp": 0.5,
        "laneorientation": "Jungle",
        "TargetPriority": "Squishy"
    },
    "MonkeyKing": {
        "buildtype": "Assassin",
        "ExpectedTimeLive": [
            9,
            5,
            2.5
        ],
        "ExtraSurvivingTime": 0,
        "ADchampion": true,
        "Jungling": false,
        "Supporting": false,
        "BuildTankyEarly": false,
        "BuildDamageEarly": false,
        "IgnoreManaEarly": false,
        "IgnoreBoots": false,
        "IA": 0.4,
        "requiredmana": 100,
        "enemyaveragecurrenthp": 0.5,
        "laneorientation": "Top",
        "TargetPriority": "Squishy"
    },
    "Xayah": {
        "buildtype": "FullDPS",
        "ExpectedTimeLive": [
            9,
            5.5,
            3
        ],
        "ExtraSurvivingTime": 0,
        "ADchampion": true,
        "Jungling": false,
        "Supporting": false,
        "BuildTankyEarly": false,
        "BuildDamageEarly": false,
        "IgnoreManaEarly": false,
        "IgnoreBoots": false,
        "IA": 0.3,
        "requiredmana": 0,
        "enemyaveragecurrenthp": 0.50,
        "laneorientation": "Bot",
        "TargetPriority": "General"
    },
    "Xerath": {
        "buildtype": "FullDPS",
        "ExpectedTimeLive": [
            9,
            5.5,
            3
        ],
        "ExtraSurvivingTime": 0,
        "ADchampion": false,
        "Jungling": false,
        "Supporting": false,
        "BuildTankyEarly": false,
        "BuildDamageEarly": false,
        "IgnoreManaEarly": false,
        "IgnoreBoots": false,
        "IA": 0.3,
        "requiredmana": 300,
        "enemyaveragecurrenthp": 0.5,
        "laneorientation": "Mid",
        "TargetPriority": "General"
    },
    "XinZhao": {
        "buildtype": [
            1,
            0.85
        ],
        "ExpectedTimeLive": [
            9,
            5,
            2.5
        ],
        "ExtraSurvivingTime": 0,
        "ADchampion": true,
        "Jungling": true,
        "Supporting": false,
        "BuildTankyEarly": false,
        "BuildDamageEarly": false,
        "IgnoreManaEarly": false,
        "IgnoreBoots": false,
        "IA": 0.4,
        "requiredmana": 0,
        "enemyaveragecurrenthp": 0.5,
        "laneorientation": "Jungle",
        "TargetPriority": "Squishy"
    },
    "Yasuo": {
        "buildtype": "Assassin",
        "ExpectedTimeLive": [
            9,
            5,
            2.5
        ],
        "ExtraSurvivingTime": 0,
        "ADchampion": true,
        "Jungling": false,
        "Supporting": false,
        "BuildTankyEarly": false,
        "BuildDamageEarly": false,
        "IgnoreManaEarly": false,
        "IgnoreBoots": false,
        "IA": 0.4,
        "requiredmana": 0,
        "enemyaveragecurrenthp": 0.5,
        "laneorientation": "Top",
        "TargetPriority": "General"
    },
    "Yorick": {
        "buildtype": [
            1,
            0.8
        ],
        "ExpectedTimeLive": [
            9,
            5,
            2.5
        ],
        "ExtraSurvivingTime": 0,
        "ADchampion": true,
        "Jungling": false,
        "Supporting": false,
        "BuildTankyEarly": false,
        "BuildDamageEarly": false,
        "IgnoreManaEarly": false,
        "IgnoreBoots": false,
        "IA": 0.4,
        "requiredmana": 200,
        "enemyaveragecurrenthp": 0.5,
        "laneorientation": "Top",
        "TargetPriority": "General"
    },
    "Yuumi": {
        "buildtype": [
            1,
            0.15
        ],
        "ExpectedTimeLive": [
            9,
            6,
            4
        ],
        "ExtraSurvivingTime": 0,
        "ADchampion": false,
        "Jungling": false,
        "Supporting": true,
        "BuildTankyEarly": false,
        "BuildDamageEarly": false,
        "IgnoreManaEarly": false,
        "IgnoreBoots": false,
        "IA": 0.2,
        "requiredmana": 400,
        "enemyaveragecurrenthp": 0.5,
        "laneorientation": "Support",
        "TargetPriority": "General"
    },
    "Zac": {
        "buildtype": "Tank",
        "ExpectedTimeLive": [
            9,
            5,
            2.5
        ],
        "ExtraSurvivingTime": 0,
        "ADchampion": false,
        "Jungling": true,
        "Supporting": false,
        "BuildTankyEarly": false,
        "BuildDamageEarly": false,
        "IgnoreManaEarly": false,
        "IgnoreBoots": false,
        "IA": 0.4,
        "requiredmana": 0,
        "enemyaveragecurrenthp": 0.5,
        "laneorientation": "Jungle",
        "TargetPriority": "General"
    },
    "Ziggs": {
        "buildtype": "FullDPS",
        "ExpectedTimeLive": [
            9,
            5.5,
            3
        ],
        "ExtraSurvivingTime": 0,
        "ADchampion": false,
        "Jungling": false,
        "Supporting": false,
        "BuildTankyEarly": false,
        "BuildDamageEarly": false,
        "IgnoreManaEarly": false,
        "IgnoreBoots": false,
        "IA": 0.3,
        "requiredmana": 400,
        "enemyaveragecurrenthp": 0.5,
        "laneorientation": "Mid",
        "TargetPriority": "General"
    },
    "Zilean": {
        "buildtype": "Assassin",
        "ExpectedTimeLive": [
            9,
            5.5,
            3
        ],
        "ExtraSurvivingTime": 0,
        "ADchampion": false,
        "Jungling": false,
        "Supporting": false,
        "BuildTankyEarly": false,
        "BuildDamageEarly": false,
        "IgnoreManaEarly": false,
        "IgnoreBoots": false,
        "IA": 0.3,
        "requiredmana": 450,
        "enemyaveragecurrenthp": 0.5,
        "laneorientation": "Mid",
        "TargetPriority": "General"
    },
    "Zed": {
        "buildtype": "Assassin",
        "ExpectedTimeLive": [
            9,
            5,
            2.5
        ],
        "ExtraSurvivingTime": 0,
        "ADchampion": true,
        "Jungling": false,
        "Supporting": false,
        "BuildTankyEarly": false,
        "BuildDamageEarly": false,
        "IgnoreManaEarly": false,
        "IgnoreBoots": false,
        "IA": 0.4,
        "requiredmana": 0,
        "enemyaveragecurrenthp": 0.58,
        "laneorientation": "Mid",
        "TargetPriority": "Squishy"
    },
    "Zoe": {
        "buildtype": "FullDPS",
        "ExpectedTimeLive": [
            9,
            5.5,
            3
        ],
        "ExtraSurvivingTime": 0,
        "ADchampion": false,
        "Jungling": false,
        "Supporting": false,
        "BuildTankyEarly": false,
        "BuildDamageEarly": false,
        "IgnoreManaEarly": false,
        "IgnoreBoots": false,
        "IA": 0.3,
        "requiredmana": 300,
        "enemyaveragecurrenthp": 0.53,
        "laneorientation": "Mid",
        "TargetPriority": "General"
    },
    "Zyra": {
        "buildtype": "FullDPS",
        "ExpectedTimeLive": [
            9,
            5.5,
            3
        ],
        "ExtraSurvivingTime": 0,
        "ADchampion": false,
        "Jungling": false,
        "Supporting": true,
        "BuildTankyEarly": false,
        "BuildDamageEarly": false,
        "IgnoreManaEarly": false,
        "IgnoreBoots": false,
        "IA": 0.3,
        "requiredmana": 200,
        "enemyaveragecurrenthp": 0.5,
        "laneorientation": "Support",
        "TargetPriority": "General"
    }
}