{ "Game_Level":[{"early":9, "mid":13, "late":17}], 
"Aatrox":[
{"physical":0.6832030313174735, "magical":0.3167969686825265, "trued":0, "hp":1160.6999999999998, "armor":58.995999999999995, "mr":54.025000000000006},
{"physical":0.7388947371507146, "magical":0.2611052628492854, "trued":0, "hp":2018.5500000000002, "armor":134.994, "mr":165.2875},
{"physical":0.768458610122595, "magical":0.231541389877405, "trued":0, "hp":3474, "armor":153.12, "mr":177.25}
],
"Ahri":[
{"physical":0.10022913614690032, "magical":0.6602377143691507, "trued":0.23953314948394894, "hp":1461.6, "armor":44.47, "mr":30},
{"physical":0.05459057535153939, "magical":0.8113778100191122, "trued":0.13403161462934857, "hp":1846.4, "armor":59.205, "mr":90},
{"physical":0.035503124193010674, "magical":0.8410809156786285, "trued":0.12341596012836073, "hp":2276, "armor":120.9, "mr":90}
],
"Akali":[
{"physical":0.25879601378205896, "magical":0.7412039862179409, "trued":0, "hp":1268.6999999999998, "armor":49.97, "mr":54.025000000000006},
{"physical":0.23789708338852095, "magical":0.7621029166114791, "trued":0, "hp":1674.5500000000002, "armor":64.705, "mr":125.2875},
{"physical":0.19243244808390536, "magical":0.8075675519160946, "trued":0, "hp":2128, "armor":126.4, "mr":137.25}
],
"Alistar":[
{"physical":0.32318617980498576, "magical":0.6768138201950142, "trued":0, "hp":1549.8000000000002, "armor":105.57, "mr":57.08500000000001},
{"physical":0.23498384270737915, "magical":0.7650161572926208, "trued":0, "hp":2396.06, "armor":120.305, "mr":97.3475},
{"physical":0.16836236077188038, "magical":0.8316376392281196, "trued":0, "hp":3401.6800000000003, "armor":237, "mr":158.31}
],
"Amumu":[
{"physical":0.25915269150363207, "magical":0.7408473084963678, "trued":0, "hp":1869.28, "armor":61.30800000000001, "mr":45.025000000000006},
{"physical":0.08337827799726294, "magical":0.9166217220027371, "trued":0, "hp":3219.586666666667, "armor":76.464, "mr":75.2875},
{"physical":0.048998264287739554, "magical":0.9510017357122604, "trued":0, "hp":3696.9333333333334, "armor":193.63600000000002, "mr":141.25}
],
"Anivia":[
{"physical":0.054124793722999526, "magical":0.9458752062770004, "trued":0, "hp":1347.4, "armor":48.18, "mr":30},
{"physical":0.016487331924025402, "magical":0.9835126680759746, "trued":0, "hp":1690.1000000000001, "armor":65.02000000000001, "mr":90},
{"physical":0.011785575355142849, "magical":0.9882144246448571, "trued":0, "hp":2072, "armor":129.1, "mr":90}
],
"Annie":[
{"physical":0.1024607483543244, "magical":0.8975392516456757, "trued":0, "hp":1523.92, "armor":46.18, "mr":30},
{"physical":0.020714872765406997, "magical":0.979285127234593, "trued":0, "hp":1999.88, "armor":63.02000000000001, "mr":90},
{"physical":0.015066980092897137, "magical":0.9849330199071029, "trued":0, "hp":2710.4, "armor":127.10000000000001, "mr":90}
],
"Ashe":[
{"physical":0.9628935399860781, "magical":0.03710646001392192, "trued":0, "hp":1060.18, "armor":53.128, "mr":43.5},
{"physical":0.8899397786744478, "magical":0.11006022132555222, "trued":0, "hp":1392.77, "armor":67.44200000000001, "mr":49.5},
{"physical":0.9192946439806071, "magical":0.08070535601939285, "trued":0, "hp":2069.6000000000004, "armor":83.66, "mr":55.5}
],
"AurelionSol":[
{"physical":0.14567101095778326, "magical":0.8543289890422167, "trued":0, "hp":1589.2, "armor":43.264, "mr":43.5},
{"physical":0.0687181841670592, "magical":0.9312818158329408, "trued":0, "hp":2082, "armor":103.42, "mr":49.5},
{"physical":0.0525633894579232, "magical":0.9474366105420766, "trued":0, "hp":2911.6000000000004, "armor":120.59200000000001, "mr":115.49999999999999}
],
"Azir":[
{"physical":0.04565029613321976, "magical":0.9543497038667802, "trued":0, "hp":1171.6, "armor":39.26, "mr":30},
{"physical":0, "magical":1, "trued":0, "hp":1556.4, "armor":51.88999999999999, "mr":30},
{"physical":0, "magical":1, "trued":0, "hp":2386, "armor":66.2, "mr":30}
],
"Bard":[
{"physical":0.2765279106873396, "magical":0.7234720893126604, "trued":0, "hp":1361.8200000000002, "armor":105.96000000000001, "mr":42.06},
{"physical":0.42978413752259054, "magical":0.5702158624774094, "trued":0, "hp":2503.3500000000004, "armor":122.79999999999998, "mr":97.06},
{"physical":0.4141654792414886, "magical":0.5858345207585114, "trued":0, "hp":2946.96, "armor":231.88, "mr":142.06}
],
"Blitzcrank":[
{"physical":0.42185199089801023, "magical":0.5781480091019897, "trued":0, "hp":1444.9, "armor":113.62000000000002, "mr":49.525000000000006},
{"physical":0.36777692667262857, "magical":0.6322230733273715, "trued":0, "hp":1844.85, "armor":160.46, "mr":91.7875},
{"physical":0.2522009424338893, "magical":0.7477990575661106, "trued":0, "hp":2698, "armor":279.54, "mr":134.75}
],
"Brand":[
{"physical":0.08761174933096118, "magical":0.9123882506690388, "trued":0, "hp":1427.92, "armor":45.47, "mr":30},
{"physical":0.03395375521217471, "magical":0.9660462447878253, "trued":0, "hp":2195.88, "armor":60.205, "mr":30},
{"physical":0.02705372328383427, "magical":0.9729462767161656, "trued":0, "hp":2606.4, "armor":121.9, "mr":90}
],
"Braum":[
{"physical":0.15810729897286785, "magical":0.8418927010271321, "trued":0, "hp":1834.54, "armor":86.18814285714285, "mr":60.65414285714287},
{"physical":0.12595635018425744, "magical":0.8740436498157425, "trued":0, "hp":2600.81, "armor":135.776, "mr":101.66664285714286},
{"physical":0.08030958858856921, "magical":0.9196904114114307, "trued":0, "hp":3815.8, "armor":265.12093636363636, "mr":111.48532727272728}
],
"Caitlyn":[
{"physical":0.9610692807046466, "magical":0.038930719295353355, "trued":0, "hp":1063.6, "armor":55.47, "mr":43.5},
{"physical":0.8900041970908966, "magical":0.10999580290910348, "trued":0, "hp":1400.4, "armor":70.205, "mr":49.5},
{"physical":0.9146368540747453, "magical":0.08536314592525482, "trued":0, "hp":1782, "armor":86.9, "mr":55.5}
],
"Cassiopeia":[
{"physical":0, "magical":1, "trued":0, "hp":1515.82, "armor":49.18000000000001, "mr":30},
{"physical":0, "magical":1, "trued":0, "hp":2383.25, "armor":66.02000000000001, "mr":90},
{"physical":0, "magical":1, "trued":0, "hp":3289, "armor":145.1, "mr":190}
],
"Chogath":[
{"physical":0.1425683936920525, "magical":0.7570265045062888, "trued":0.10040510180165861, "hp":1621.6, "armor":112.47, "mr":85.525},
{"physical":0.11220583814301494, "magical":0.6704333798411335, "trued":0.21736078201585168, "hp":2966.4, "armor":127.20500000000001, "mr":115.7875},
{"physical":0.06746886518325994, "magical":0.6871505100823532, "trued":0.24538062473438682, "hp":4056, "armor":243.89999999999998, "mr":176.75}
],
"Corki":[
{"physical":0.3041846440671461, "magical":0.6958153559328538, "trued":0, "hp":1315.44, "armor":55.97, "mr":43.5},
{"physical":0.21784230894781814, "magical":0.7821576910521818, "trued":0, "hp":1660.66, "armor":70.705, "mr":84.5},
{"physical":0.223599109964629, "magical":0.7764008900353708, "trued":0, "hp":2701.8, "armor":87.39999999999999, "mr":90.5}
],
"Darius":[
{"physical":0.8214426128399828, "magical":0.03681302859999834, "trued":0.14174435856001893, "hp":1556.24, "armor":65.84, "mr":40.525000000000006},
{"physical":0.8130508277513921, "magical":0.026101992819367776, "trued":0.1608471794292402, "hp":2477.24, "armor":112.68, "mr":100.7875},
{"physical":0.828044063481578, "magical":0.024251127656982282, "trued":0.14770480886143975, "hp":3604.24, "armor":131.76, "mr":106.75}
],
"Diana":[
{"physical":0.2007101304800907, "magical":0.7992898695199093, "trued":0, "hp":1303.8000000000002, "armor":50.312, "mr":100.525},
{"physical":0.09800980366183833, "magical":0.9019901963381617, "trued":0, "hp":2030.7000000000003, "armor":65.468, "mr":105.7875},
{"physical":0.06804659214296215, "magical":0.9319534078570378, "trued":0, "hp":2508, "armor":82.64, "mr":111.75}
],
"Draven":[
{"physical":1, "magical":0, "trued":0, "hp":1110.44, "armor":56.786, "mr":43.5},
{"physical":1, "magical":0, "trued":0, "hp":1455.66, "armor":70.679, "mr":84.5},
{"physical":1, "magical":0, "trued":0, "hp":1846.8, "armor":86.42, "mr":90.5}
],
"DrMundo":[
{"physical":0.20924194836342616, "magical":0.7907580516365738, "trued":0, "hp":1868.38, "armor":50.47, "mr":109.025},
{"physical":0.23859559749641845, "magical":0.7614044025035815, "trued":0, "hp":3591.07, "armor":125.20500000000001, "mr":120.2875},
{"physical":0.2692220496790154, "magical":0.7307779503209846, "trued":0, "hp":4463.6, "armor":241.90000000000003, "mr":167.25}
],
"Ekko":[
{"physical":0.22742832040174948, "magical":0.7725716795982506, "trued":0, "hp":1777.2, "armor":97.22, "mr":40.525000000000006},
{"physical":0.17283899600135993, "magical":0.82716100399864, "trued":0, "hp":2962, "armor":109.84999999999998, "mr":105.78749999999998},
{"physical":0.15590229927079305, "magical":0.8440977007292069, "trued":0, "hp":3391.6000000000004, "armor":224.16, "mr":111.75}
],
"Elise":[
{"physical":0.17747560334128584, "magical":0.8225243966587141, "trued":0, "hp":1268.6, "armor":58.207, "mr":48},
{"physical":0.1459786561678134, "magical":0.8540213438321866, "trued":0, "hp":2072.0666666666666, "armor":102.31049999999999, "mr":89},
{"physical":0.11767301937658745, "magical":0.8823269806234126, "trued":0, "hp":2820.3333333333335, "armor":118.29, "mr":155}
],
"Evelynn":[
{"physical":0.4507861240398967, "magical":0.5492138759601033, "trued":0, "hp":1137.8000000000002, "armor":61.111999999999995, "mr":40.525000000000006},
{"physical":0.5438378274519534, "magical":0.4561621725480465, "trued":0, "hp":1766.7000000000003, "armor":77.11, "mr":45.7875},
{"physical":0.5376042176155085, "magical":0.4623957823844915, "trued":0, "hp":2196, "armor":95.23599999999999, "mr":169.25}
],
"Ezreal":[
{"physical":0.8472420814827188, "magical":0.15275791851728115, "trued":0, "hp":1273.6, "armor":54.47, "mr":43.5},
{"physical":0.8528637076561063, "magical":0.1471362923438937, "trued":0, "hp":1610.4, "armor":69.205, "mr":49.5},
{"physical":0.7858453391899156, "magical":0.21415466081008433, "trued":0, "hp":1992, "armor":85.9, "mr":55.5}
],
"Fiddlesticks":[
{"physical":0, "magical":1, "trued":0, "hp":1171.6, "armor":44.47, "mr":30},
{"physical":0, "magical":1, "trued":0, "hp":1556.4, "armor":59.205, "mr":90},
{"physical":0, "magical":1, "trued":0, "hp":1986, "armor":120.9, "mr":90}
],
"Fiora":[
{"physical":0.856403170439961, "magical":0.036101490882168616, "trued":0.10749533867787048, "hp":1122.9, "armor":56.59, "mr":40.525000000000006},
{"physical":0.8831094123770689, "magical":0.022513013011348955, "trued":0.09437757461158217, "hp":1730.75, "armor":71.325, "mr":45.7875},
{"physical":0.8300088414702105, "magical":0.040110905958174986, "trued":0.12988025257161462, "hp":2136.2, "armor":88.02000000000001, "mr":111.75}
],
"Fizz":[
{"physical":0.18052828656590747, "magical":0.8194717134340925, "trued":0, "hp":1246.12, "armor":45.328, "mr":40.525000000000006},
{"physical":0.12689428814256917, "magical":0.8731057118574308, "trued":0, "hp":1656.18, "armor":59.64200000000001, "mr":105.7875},
{"physical":0.13408542242150068, "magical":0.8659145775784994, "trued":0, "hp":2114.4, "armor":120.85999999999999, "mr":111.75}
],
"Galio":[
{"physical":0.14111372468343186, "magical":0.858886275316568, "trued":0, "hp":1650.6999999999998, "armor":71.47, "mr":119.585},
{"physical":0.03643425434013781, "magical":0.9635657456598622, "trued":0, "hp":2008.5500000000002, "armor":93.405, "mr":192.0475},
{"physical":0.013637179994187463, "magical":0.9863628200058125, "trued":0, "hp":2414, "armor":238.9, "mr":226.81}
],
"Gangplank":[
{"physical":0.8408893579524667, "magical":0.07867397780104658, "trued":0.08043666424648682, "hp":1342.68, "armor":55.22, "mr":40.525000000000006},
{"physical":0.8424816325843033, "magical":0.1186157748629805, "trued":0.03890259255271636, "hp":1687.9, "armor":67.85, "mr":45.7875},
{"physical":0.8507414191170193, "magical":0.11905800113027257, "trued":0.030200579752708123, "hp":2079.04, "armor":82.16, "mr":51.75}
],
"Garen":[
{"physical":0.857686440606757, "magical":0.14231355939324294, "trued":0, "hp":1484.125, "armor":77.98958, "mr":61.75858000000001},
{"physical":0.802688909430114, "magical":0.1973110905698861, "trued":0, "hp":2238.8175, "armor":129.386, "mr":110.7875},
{"physical":0.6715790697558348, "magical":0.32842093024416524, "trued":0, "hp":3040.69, "armor":243.696, "mr":116.75}
],
"Gnar":[
{"physical":0.9254511755284192, "magical":0.07454882447158082, "trued":0, "hp":1527.792, "armor":58.938, "mr":48.513000000000005},
{"physical":0.8862600277399606, "magical":0.11373997226003946, "trued":0, "hp":3210.06, "armor":74.51500000000001, "mr":113.8275},
{"physical":0.8781351700820204, "magical":0.1218648299179797, "trued":0, "hp":3643.1760000000004, "armor":182.164, "mr":170.514}
],
"Gragas":[
{"physical":0.11996231017387747, "magical":0.8800376898261226, "trued":0, "hp":1997.5800000000002, "armor":54.812, "mr":45.025000000000006},
{"physical":0.2203619802921278, "magical":0.7796380197078723, "trued":0, "hp":3424.1366666666668, "armor":134.96800000000002, "mr":50.2875},
{"physical":0.1720240346524115, "magical":0.8279759653475885, "trued":0, "hp":3980.5333333333338, "armor":252.14, "mr":81.25}
],
"Graves":[
{"physical":0.9257560143067658, "magical":0.07424398569323407, "trued":0, "hp":1117.28, "armor":83.292, "mr":70.5},
{"physical":0.9420904951721266, "magical":0.057909504827873395, "trued":0, "hp":1720.92, "armor":124.60600000000001, "mr":103.5},
{"physical":0.9354656360489162, "magical":0.06453436395108383, "trued":0, "hp":2121.6, "armor":140.824, "mr":144.5}
],
"Hecarim":[
{"physical":0.8047326862405223, "magical":0.19526731375947765, "trued":0, "hp":2000.8, "armor":58.18, "mr":45.025000000000006},
{"physical":0.8553254087241159, "magical":0.14467459127588414, "trued":0, "hp":2799.066666666667, "armor":75.02000000000001, "mr":75.2875},
{"physical":0.690230830591271, "magical":0.30976916940872906, "trued":0, "hp":3360.2333333333336, "armor":254.1, "mr":126.25}
],
"Heimerdinger":[
{"physical":0.0736415372097289, "magical":0.926358462790271, "trued":0, "hp":1481.5, "armor":39.26, "mr":30},
{"physical":0.019427344769816234, "magical":0.9805726552301838, "trued":0, "hp":1953.25, "armor":96.89, "mr":30},
{"physical":0.011275790046950378, "magical":0.9887242099530498, "trued":0, "hp":2359, "armor":111.19999999999999, "mr":30}
],
"Illaoi":[
{"physical":0.9203456824755976, "magical":0.012554807457124298, "trued":0.06709951006727818, "hp":1525.9, "armor":60.611999999999995, "mr":40.525000000000006},
{"physical":0.8962763806557711, "magical":0.01157138163978993, "trued":0.092152237704439, "hp":2425.85, "armor":106.60999999999999, "mr":100.7875},
{"physical":0.8865151514700004, "magical":0.014642114686518784, "trued":0.09884273384348082, "hp":3679, "armor":184.736, "mr":151.75}
],
"Irelia":[
{"physical":0.6926492222985481, "magical":0.07207075680801694, "trued":0.23528002089343508, "hp":1513.8000000000002, "armor":59.575, "mr":40.525000000000006},
{"physical":0.7186172942550906, "magical":0.095609465084865, "trued":0.18577324066004436, "hp":2392.7000000000003, "armor":105.36250000000001, "mr":100.7875},
{"physical":0.7615969790036599, "magical":0.09067383577056125, "trued":0.147729185225779, "hp":3222, "armor":183.25, "mr":151.75}
],
"Janna":[
{"physical":0.3531734526569937, "magical":0.6468265473430066, "trued":0, "hp":1234.76, "armor":83.096, "mr":30},
{"physical":0.19534896624034773, "magical":0.8046510337596526, "trued":0, "hp":1563.14, "armor":99.094, "mr":65},
{"physical":0.09240120208852279, "magical":0.9075987979114776, "trued":0, "hp":1935.2, "armor":117.22000000000001, "mr":65}
],
"JarvanIV":[
{"physical":0.8227132708906075, "magical":0.17728672910939236, "trued":0, "hp":1867.8000000000002, "armor":66.76400000000001, "mr":45.025000000000006},
{"physical":0.8868043299283508, "magical":0.1131956700716492, "trued":0, "hp":2610.866666666667, "armor":81.92, "mr":75.2875},
{"physical":0.8450373605673815, "magical":0.1549626394326185, "trued":0, "hp":3576.8333333333335, "armor":159.092, "mr":126.25}
],
"Jax":[
{"physical":0.5919642644403641, "magical":0.4080357355596359, "trued":0, "hp":1215.6999999999998, "armor":99.68, "mr":77.32500000000002},
{"physical":0.6941926093052521, "magical":0.30580739069474794, "trued":0, "hp":2323.55, "armor":138.31, "mr":153.5875},
{"physical":0.7581761193123666, "magical":0.24182388068763327, "trued":0, "hp":2729, "armor":190.62, "mr":215.55}
],
"Jayce":[
{"physical":0.8288821752565282, "magical":0.17111782474347176, "trued":0, "hp":1177.8000000000002, "armor":63.97, "mr":52.5},
{"physical":0.8847502877407724, "magical":0.1152497122592277, "trued":0, "hp":1556.7000000000003, "armor":84.705, "mr":64.5},
{"physical":0.877205218553847, "magical":0.1227947814461529, "trued":0, "hp":2286, "armor":107.4, "mr":76.5}
],
"Jhin":[
{"physical":0.9671156291392278, "magical":0.03288437086077225, "trued":0, "hp":1112.9, "armor":52.59, "mr":43.5},
{"physical":0.922273053777606, "magical":0.0777269462223941, "trued":0, "hp":1470.75, "armor":67.325, "mr":49.5},
{"physical":0.8935079188854224, "magical":0.10649208111457772, "trued":0, "hp":1876.2, "armor":84.02000000000001, "mr":55.49999999999999}
],
"Jinx":[
{"physical":0.9634568305372924, "magical":0.036543169462707775, "trued":0, "hp":1070.44, "armor":55.47, "mr":43.5},
{"physical":0.989446920771001, "magical":0.010553079228998969, "trued":0, "hp":1415.66, "armor":70.20500000000001, "mr":49.5},
{"physical":0.9076682778633729, "magical":0.09233172213662708, "trued":0, "hp":1806.8, "armor":86.9, "mr":55.49999999999999}
],
"Kalista":[
{"physical":0.9525461329462983, "magical":0.04745386705370168, "trued":0, "hp":1077.18, "armor":51.602000000000004, "mr":43.5},
{"physical":0.9859181242656783, "magical":0.014081875734321651, "trued":0, "hp":1426.6100000000001, "armor":66.337, "mr":49.5},
{"physical":0.8939839550738398, "magical":0.10601604492616015, "trued":0, "hp":1822.52, "armor":83.03200000000001, "mr":55.5}
],
"Karma":[
{"physical":0.05881689527165292, "magical":0.9411831047283471, "trued":0, "hp":1189.8600000000001, "armor":45.995999999999995, "mr":30},
{"physical":0.03878212484494652, "magical":0.9612178751550535, "trued":0, "hp":1887.2900000000002, "armor":61.994, "mr":30},
{"physical":0.028803828971383522, "magical":0.9711961710286164, "trued":0, "hp":2331.2, "armor":80.12, "mr":55}
],
"Karthus":[
{"physical":0.02488357765704412, "magical":0.9751164223429558, "trued":0, "hp":1544.7, "armor":44.47, "mr":30},
{"physical":0.021991387507123296, "magical":0.9780086124928766, "trued":0, "hp":2293.25, "armor":59.205, "mr":30},
{"physical":0.017270783026894422, "magical":0.9827292169731057, "trued":0, "hp":3099, "armor":75.9, "mr":90}
],
"Kassadin":[
{"physical":0.1989233967978573, "magical":0.8010766032021426, "trued":0, "hp":1596.48, "armor":44.944, "mr":30},
{"physical":0.08439900236831846, "magical":0.9156009976316816, "trued":0, "hp":2074.1400000000003, "armor":58.41600000000001, "mr":90},
{"physical":0.05742232609425359, "magical":0.9425776739057463, "trued":0, "hp":2494.2, "armor":118.68, "mr":90}
],
"Katarina":[
{"physical":0.06662918044760091, "magical":0.9333708195523991, "trued":0, "hp":1177.42, "armor":50.47, "mr":40.525000000000006},
{"physical":0.011178100747385955, "magical":0.9888218992526141, "trued":0, "hp":1874.8500000000001, "armor":65.205, "mr":45.7875},
{"physical":0.008658708797593246, "magical":0.9913412912024068, "trued":0, "hp":2318.76, "armor":126.9, "mr":111.75}
],
"Kayle":[
{"physical":0.47337640698569955, "magical":0.5266235930143005, "trued":0, "hp":1201.06, "armor":59.47, "mr":30},
{"physical":0.2843362817037439, "magical":0.7156637182962561, "trued":0, "hp":1592.5900000000001, "armor":74.205, "mr":30},
{"physical":0.19755983841722694, "magical":0.8024401615827731, "trued":0, "hp":2036.2, "armor":90.9, "mr":90}
],
"Kennen":[
{"physical":0.12238958273552206, "magical":0.877610417264478, "trued":0, "hp":1176.18, "armor":94.575, "mr":43.5},
{"physical":0.05687628898500051, "magical":0.9431237110149996, "trued":0, "hp":1556.77, "armor":110.36250000000001, "mr":109.5},
{"physical":0.039882011526662306, "magical":0.9601179884733377, "trued":0, "hp":2281.6000000000004, "armor":128.25, "mr":115.5}
],
"Khazix":[
{"physical":0.8777501168530066, "magical":0.12224988314699355, "trued":0, "hp":1145.6999999999998, "armor":53.260000000000005, "mr":40.525000000000006},
{"physical":0.8795040689328072, "magical":0.12049593106719289, "trued":0, "hp":1503.5500000000002, "armor":65.89, "mr":70.7875},
{"physical":0.8950084207476139, "magical":0.10499157925238617, "trued":0, "hp":2409, "armor":130.2, "mr":76.75}
],
"Kindred":[
{"physical":1, "magical":0, "trued":0, "hp":1112.9, "armor":52.59, "mr":43.5},
{"physical":1, "magical":0, "trued":0, "hp":1470.75, "armor":67.325, "mr":49.5},
{"physical":0.9187745471368403, "magical":0.08122545286315967, "trued":0, "hp":1876.2, "armor":84.02000000000002, "mr":55.5}
],
"Kled":[
{"physical":1, "magical":0, "trued":0, "hp":1949.9, "armor":61.96, "mr":40.525000000000006},
{"physical":1, "magical":0, "trued":0, "hp":2518.25, "armor":108.80000000000001, "mr":45.7875},
{"physical":1, "magical":0, "trued":0, "hp":3162.2000000000003, "armor":127.88, "mr":91.75}
],
"KogMaw":[
{"physical":0.40426288761458123, "magical":0.5957371123854187, "trued":0, "hp":1070.44, "armor":52.47, "mr":43.5},
{"physical":0.3511326204468326, "magical":0.6488673795531675, "trued":0, "hp":1415.66, "armor":67.205, "mr":49.5},
{"physical":0.40189458159017794, "magical":0.598105418409822, "trued":0, "hp":1806.8, "armor":83.9, "mr":55.49999999999999}
],
"Leblanc":[
{"physical":0.08356560398272574, "magical":0.9164343960172743, "trued":0, "hp":1129.5, "armor":45.47, "mr":30},
{"physical":0.02750223359461032, "magical":0.9724977664053898, "trued":0, "hp":1493.25, "armor":60.205, "mr":90},
{"physical":0.016866653777720068, "magical":0.98313334622228, "trued":0, "hp":1899, "armor":76.9, "mr":90}
],
"LeeSin":[
{"physical":0.9600407479028852, "magical":0.03995925209711477, "trued":0, "hp":1343.6999999999998, "armor":62.654, "mr":45.025000000000006},
{"physical":0.9002672283653138, "magical":0.09973277163468618, "trued":0, "hp":1768.216666666667, "armor":108.23100000000002, "mr":50.287499999999994},
{"physical":0.8639835071325541, "magical":0.136016492867446, "trued":0, "hp":2740.3333333333335, "armor":125.88000000000001, "mr":151.25}
],
"Leona":[
{"physical":0.39627478547385064, "magical":0.6037252145261494, "trued":0, "hp":1834.54, "armor":104.74171428571428, "mr":85.78214285714286},
{"physical":0.2840166505447533, "magical":0.7159833494552467, "trued":0, "hp":3000.81, "armor":152.46914285714286, "mr":97.55892857142857},
{"physical":0.19506948684324857, "magical":0.8049305131567515, "trued":0, "hp":3915.8, "armor":278.21257142857144, "mr":169.75}
],
"Lissandra":[
{"physical":0.1131283500196213, "magical":0.8868716499803787, "trued":0, "hp":1180.28, "armor":45.15400000000001, "mr":30},
{"physical":0.022890557832320267, "magical":0.9771094421676797, "trued":0, "hp":1581.92, "armor":60.731000000000016, "mr":90},
{"physical":0.01320141152871962, "magical":0.9867985884712803, "trued":0, "hp":2030.6, "armor":78.38000000000001, "mr":90}
],
"Lucian":[
{"physical":0.9426685502588633, "magical":0.05733144974113658, "trued":0, "hp":1093.6, "armor":53.260000000000005, "mr":43.5},
{"physical":0.9713283504315007, "magical":0.028671649568499248, "trued":0, "hp":1430.4, "armor":65.89000000000001, "mr":49.5},
{"physical":0.9037648297682892, "magical":0.09623517023171065, "trued":0, "hp":1812, "armor":80.19999999999999, "mr":55.5}
],
"Lulu":[
{"physical":0.18607802640606558, "magical":0.8139219735939344, "trued":0, "hp":1511.445, "armor":44.154, "mr":30},
{"physical":0.13290811944189612, "magical":0.8670918805581038, "trued":0, "hp":2062.318333333333, "armor":59.731000000000016, "mr":30},
{"physical":0.09700280319222034, "magical":0.9029971968077797, "trued":0, "hp":2782.73875, "armor":77.38000000000001, "mr":30}
],
"Lux":[
{"physical":0.14202563709246796, "magical":0.857974362907532, "trued":0, "hp":1118.18, "armor":45.68000000000001, "mr":30},
{"physical":0.048081351561553326, "magical":0.9519186484384468, "trued":0, "hp":1498.77, "armor":62.52, "mr":55},
{"physical":0.023215449087759712, "magical":0.9767845509122403, "trued":0, "hp":1923.6000000000001, "armor":126.6, "mr":55}
],
"Malphite":[
{"physical":0.24328001696329188, "magical":0.7567199830367082, "trued":0, "hp":1252.8000000000002, "armor":179.80825000000002, "mr":40.525000000000006},
{"physical":0.18862049881623302, "magical":0.8113795011837669, "trued":0, "hp":2031.7000000000003, "armor":197.96387500000003, "mr":105.7875},
{"physical":0.16228010884007063, "magical":0.8377198911599293, "trued":0, "hp":2761, "armor":377.039, "mr":181.75}
],
"Malzahar":[
{"physical":0.14201299204397647, "magical":0.8579870079560236, "trued":0, "hp":1553.6, "armor":45.47, "mr":30},
{"physical":0.12870274952059194, "magical":0.7712972504794081, "trued":0, "hp":2346.4, "armor":54.1845, "mr":27},
{"physical":0.10307765755906245, "magical":0.8969223424409376, "trued":0, "hp":3176, "armor":76.9, "mr":90}
],
"MasterYi":[
{"physical":0.8764093967443538, "magical":0, "trued":0.12359060325564625, "hp":1218.6399999999999, "armor":53.26, "mr":54.025000000000006},
{"physical":0.7851728615462175, "magical":0, "trued":0.21482713845378243, "hp":1905.96, "armor":65.89, "mr":65.2875},
{"physical":0.8480212396916272, "magical":0, "trued":0.15197876030837282, "hp":2344.8, "armor":80.2, "mr":77.25}
],
"Maokai":[
{"physical":0.2209124515032682, "magical":0.7790875484967319, "trued":0, "hp":1678.8000000000002, "armor":64.68, "mr":40.525000000000006},
{"physical":0.1581666945758512, "magical":0.8418333054241489, "trued":0, "hp":3357.7000000000003, "armor":81.52000000000001, "mr":100.7875},
{"physical":0.10653575639690359, "magical":0.8934642436030965, "trued":0, "hp":3787, "armor":200.6, "mr":166.75}
],
"MissFortune":[
{"physical":0.9578381265029865, "magical":0.04216187349701349, "trued":0, "hp":1102.9, "armor":53.26, "mr":43.5},
{"physical":0.9794157193685201, "magical":0.020584280631479865, "trued":0, "hp":1760.75, "armor":65.89, "mr":84.49999999999999},
{"physical":0.9774304950455597, "magical":0.022569504954440375, "trued":0, "hp":2166.2, "armor":80.2, "mr":90.50000000000001}
],
"Mordekaiser":[
{"physical":0.1989634454608887, "magical":0.8010365545391113, "trued":0, "hp":1464.2, "armor":54.275000000000006, "mr":40.525000000000006},
{"physical":0.1734545590798851, "magical":0.826545440920115, "trued":0, "hp":1801, "armor":70.0625, "mr":105.7875},
{"physical":0.12805650323741655, "magical":0.8719434967625835, "trued":0, "hp":2182.6000000000004, "armor":87.94999999999999, "mr":111.75000000000001}
],
"Morgana":[
{"physical":0.1419774804418844, "magical":0.8580225195581156, "trued":0, "hp":1435.12, "armor":50.995999999999995, "mr":30},
{"physical":0.07824332504083682, "magical":0.9217566749591632, "trued":0, "hp":1845.18, "armor":66.994, "mr":90},
{"physical":0.03333565115570718, "magical":0.9666643488442928, "trued":0, "hp":2603.4, "armor":130.12, "mr":90}
],
"Nami":[
{"physical":0.23308958462264506, "magical":0.766910415377355, "trued":0, "hp":1138.08, "armor":100.68, "mr":30},
{"physical":0.14705290581140937, "magical":0.8529470941885906, "trued":0, "hp":1849.6200000000001, "armor":117.52000000000002, "mr":125},
{"physical":0.10952201322084246, "magical":0.8904779867791577, "trued":0, "hp":2502.6, "armor":136.6, "mr":125}
],
"Nasus":[
{"physical":0.9381933905541233, "magical":0.06180660944587667, "trued":0, "hp":1767.8000000000002, "armor":57.47, "mr":40.525000000000006},
{"physical":0.751237929389607, "magical":0.24876207061039304, "trued":0, "hp":2796.7000000000003, "armor":172.205, "mr":100.7875},
{"physical":0.6336268902003014, "magical":0.3663731097996986, "trued":0, "hp":4176, "armor":248.9, "mr":151.75}
],
"Nautilus":[
{"physical":0.26612494866796776, "magical":0.7338750513320322, "trued":0, "hp":1656.12, "armor":117.365, "mr":40.525000000000006},
{"physical":0.21153980277199297, "magical":0.7884601972280071, "trued":0, "hp":3318.1800000000003, "armor":131.0475, "mr":100.7875},
{"physical":0.19763917142753873, "magical":0.8023608285724613, "trued":0, "hp":3728.4, "armor":206.55, "mr":186.75}
],
"Nidalee":[
{"physical":0.03599894845925455, "magical":0.9640010515407454, "trued":0, "hp":1250.2, "armor":59.97, "mr":34.5},
{"physical":0.022816053009008637, "magical":0.9771839469909914, "trued":0, "hp":1653.6666666666667, "armor":74.705, "mr":34.5},
{"physical":0.015826496540421432, "magical":0.9841735034595787, "trued":0, "hp":2101.9333333333334, "armor":91.4, "mr":94.49999999999999}
],
"Nocturne":[
{"physical":0.8984082015457555, "magical":0.10159179845424443, "trued":0, "hp":1205.6999999999998, "armor":59.47, "mr":54.025000000000006},
{"physical":0.9072083353799176, "magical":0.09279166462008226, "trued":0, "hp":1813.5500000000002, "armor":74.205, "mr":65.2875},
{"physical":0.8960608959446843, "magical":0.10393910405531576, "trued":0, "hp":2219, "armor":90.9, "mr":77.25}
],
"Nunu":[
{"physical":0.18821555440387885, "magical":0.8117844455961212, "trued":0, "hp":2019.0800000000002, "armor":54.47, "mr":45.025000000000006},
{"physical":0.3038546048613641, "magical":0.6961453951386358, "trued":0, "hp":3449.846666666667, "armor":134.20499999999998, "mr":50.2875},
{"physical":0.24396317222339778, "magical":0.7560368277766023, "trued":0, "hp":4011.0133333333333, "armor":250.9, "mr":81.25}
],
"Olaf":[
{"physical":0.6347578853311302, "magical":0, "trued":0.3652421146688698, "hp":1524.06, "armor":69.25999999999999, "mr":54.525000000000006},
{"physical":0.7201187285917879, "magical":0, "trued":0.27988127140821206, "hp":3215.59, "armor":88.88999999999999, "mr":121.78750000000001},
{"physical":0.6420655407232246, "magical":0.1268738621714166, "trued":0.2310605971053589, "hp":3659.2, "armor":270.2, "mr":179.75}
],
"Orianna":[
{"physical":0.1261517778640347, "magical":0.8738482221359654, "trued":0, "hp":1158.18, "armor":42.26, "mr":35},
{"physical":0.04142288644954649, "magical":0.9585771135504535, "trued":0, "hp":1838.77, "armor":54.89, "mr":35},
{"physical":0.020248856335519847, "magical":0.9797511436644801, "trued":0, "hp":2263.6000000000004, "armor":76.7, "mr":42.5}
],
"Pantheon":[
{"physical":0.8921897186084051, "magical":0.1078102813915949, "trued":0, "hp":1165.54, "armor":62.938, "mr":40.525000000000006},
{"physical":0.8813611768255221, "magical":0.11863882317447799, "trued":0, "hp":1831.81, "armor":79.357, "mr":70.7875},
{"physical":0.8695724776837934, "magical":0.13042752231620658, "trued":0, "hp":2246.8, "armor":97.96, "mr":76.75}
],
"Poppy":[
{"physical":0.6996502309201102, "magical":0.30034976907988975, "trued":0, "hp":1646.6, "armor":135.0239, "mr":49.035250000000005},
{"physical":0.721670748011424, "magical":0.27832925198857594, "trued":0, "hp":3325.5, "armor":152.85325, "mr":121.95287499999999},
{"physical":0.5901692947270726, "magical":0.4098307052729274, "trued":0, "hp":3754.8, "armor":366.65419999999995, "mr":183.6175}
],
"Quinn":[
{"physical":1, "magical":0, "trued":0, "hp":1105.6999999999998, "armor":55.97, "mr":43.5},
{"physical":1, "magical":0, "trued":0, "hp":1463.5500000000002, "armor":70.705, "mr":49.5},
{"physical":0.9341569095732007, "magical":0.0658430904267993, "trued":0, "hp":1869, "armor":87.4, "mr":55.49999999999999}
],
"Rammus":[
{"physical":0.5024043650891379, "magical":0.49759563491086206, "trued":0, "hp":1834.12, "armor":128.64600000000002, "mr":87.025},
{"physical":0.26412444888466846, "magical":0.7358755511153314, "trued":0, "hp":3192.846666666667, "armor":188.74899999999997, "mr":159.2875},
{"physical":0.18968736814145715, "magical":0.8103126318585427, "trued":0, "hp":3679.7333333333336, "armor":369.26, "mr":210.25}
],
"Reksai":[
{"physical":0.6666898601850739, "magical":0.29872553178941647, "trued":0.034584608025509535, "hp":1866.6, "armor":67.07499999999999, "mr":58.525000000000006},
{"physical":0.4772736618800328, "magical":0.20687417120457452, "trued":0.015852166915392752, "hp":3242.166666666667, "armor":58.003750000000004, "mr":66.35125},
{"physical":0.5751925701598204, "magical":0.4248074298401796, "trued":0, "hp":3748.133333333333, "armor":260.75, "mr":151.75}
],
"Renekton":[
{"physical":0.9726093496485342, "magical":0.02739065035146576, "trued":0, "hp":1758.54, "armor":60.196, "mr":40.525000000000006},
{"physical":0.9448283270687232, "magical":0.055171672931276776, "trued":0, "hp":2774.81, "armor":106.194, "mr":80.7875},
{"physical":0.9447665974071072, "magical":0.0552334025928928, "trued":0, "hp":3889.8, "armor":184.32, "mr":131.75}
],
"Rengar":[
{"physical":0.8486704980337635, "magical":0.15132950196623657, "trued":0, "hp":1192.8000000000002, "armor":64.47, "mr":60.02500000000001},
{"physical":0.9049653314315189, "magical":0.09503466856848113, "trued":0, "hp":1571.7000000000003, "armor":80.205, "mr":72.2875},
{"physical":0.881644232420354, "magical":0.11835576757964603, "trued":0, "hp":2301, "armor":109.9, "mr":97.25}
],
"Riven":[
{"physical":0.940797894800284, "magical":0.05920210519971613, "trued":0, "hp":1138.12, "armor":54.944, "mr":40.525000000000006},
{"physical":0.9353499377487209, "magical":0.06465006225127906, "trued":0, "hp":1800.18, "armor":68.41600000000001, "mr":45.7875},
{"physical":0.9323759570549404, "magical":0.06762404294505962, "trued":0, "hp":2210.4, "armor":113.68, "mr":91.75}
],
"Rumble":[
{"physical":0.058569470881831474, "magical":0.9414305291181686, "trued":0, "hp":1423.6, "armor":58.47, "mr":40.525000000000006},
{"physical":0.04708043541568334, "magical":0.9529195645843167, "trued":0, "hp":1760.4, "armor":118.205, "mr":45.7875},
{"physical":0.030028439078547714, "magical":0.9699715609214523, "trued":0, "hp":2442, "armor":134.9, "mr":111.75}
],
"Ryze":[
{"physical":0.01930054320855673, "magical":0.9806994567914433, "trued":0, "hp":1560.12, "armor":50.772, "mr":30},
{"physical":0.01565852608517031, "magical":0.9843414739148296, "trued":0, "hp":2000.18, "armor":63.401999999999994, "mr":30},
{"physical":0.013986070922427651, "magical":0.9860139290775723, "trued":0, "hp":2410.4, "armor":167.712, "mr":90}
],
"Sejuani":[
{"physical":0.26613660427139674, "magical":0.7338633957286033, "trued":0, "hp":1930.3000000000002, "armor":78.25999999999999, "mr":45.025000000000006},
{"physical":0.13162789445022732, "magical":0.8683721055497726, "trued":0, "hp":3326.916666666667, "armor":95.89, "mr":75.2875},
{"physical":0.10525230065578564, "magical":0.8947476993442143, "trued":0, "hp":4431.733333333334, "armor":215.2, "mr":136.25}
],
"Shaco":[
{"physical":0.610689293409117, "magical":0.38931070659088296, "trued":0, "hp":1148.28, "armor":57.47, "mr":40.525000000000006},
{"physical":0.7259324104814691, "magical":0.27406758951853094, "trued":0, "hp":1751.92, "armor":72.205, "mr":45.7875},
{"physical":0.739708668750681, "magical":0.260291331249319, "trued":0, "hp":2152.6, "armor":88.9, "mr":51.75}
],
"Shen":[
{"physical":0.45182231979228715, "magical":0.5481776802077128, "trued":0, "hp":1604.02, "armor":92.524, "mr":54.025000000000006},
{"physical":0.4945863594997804, "magical":0.5054136405002195, "trued":0, "hp":3211.35, "armor":103.47, "mr":120.2875},
{"physical":0.4006366397205182, "magical":0.5993633602794819, "trued":0, "hp":3559.56, "armor":215.872, "mr":157.25}
],
"Shyvana":[
{"physical":0.36119692223534255, "magical":0.6388030777646574, "trued":0, "hp":1924.9, "armor":78.707, "mr":60.025000000000006},
{"physical":0.40142829537899194, "magical":0.5985717046210082, "trued":0, "hp":3321.5166666666664, "armor":100.31050000000002, "mr":97.7875},
{"physical":0.3603079147496835, "magical":0.6396920852503165, "trued":0, "hp":4426.333333333334, "armor":223.79000000000002, "mr":166.25}
],
"Sion":[
{"physical":0.5923811062680695, "magical":0.4076188937319305, "trued":0, "hp":1746.9958000000001, "armor":52.26, "mr":40.525000000000006},
{"physical":0.5460955287034635, "magical":0.4539044712965366, "trued":0, "hp":2763.5226, "armor":94.88999999999999, "mr":100.7875},
{"physical":0.4079660500139598, "magical":0.5920339499860401, "trued":0, "hp":3392.5006, "armor":269.20000000000005, "mr":151.75}
],
"Singed":[
{"physical":0.18826352828098628, "magical":0.8117364717190138, "trued":0, "hp":1872.415, "armor":84.97, "mr":65.025},
{"physical":0.05944407255846522, "magical":0.9405559274415347, "trued":0, "hp":2753.164166666667, "armor":110.205, "mr":105.7875},
{"physical":0.05010467671872139, "magical":0.9498953232812786, "trued":0, "hp":3664.633333333333, "armor":207.9, "mr":177.75}
],
"Sivir":[
{"physical":1, "magical":0, "trued":0, "hp":1068.44, "armor":53.115, "mr":43.5},
{"physical":1, "magical":0, "trued":0, "hp":1413.66, "armor":66.79750000000001, "mr":49.5},
{"physical":1, "magical":0, "trued":0, "hp":1804.8, "armor":82.30000000000001, "mr":55.49999999999999}
],
"Skarner":[
{"physical":0.4695535949385736, "magical":0.5304464050614265, "trued":0, "hp":1897.88, "armor":68.496, "mr":45.025000000000006},
{"physical":0.5970651111799603, "magical":0.4029348888200397, "trued":0, "hp":3560.9466666666667, "armor":84.494, "mr":50.2875},
{"physical":0.5003063070673464, "magical":0.49969369293265364, "trued":0, "hp":4066.9133333333334, "armor":262.62, "mr":101.25}
],
"Sona":[
{"physical":0.17515353165273911, "magical":0.8248464683472609, "trued":0, "hp":1201.3400000000001, "armor":51.786, "mr":30},
{"physical":0.11032830160719471, "magical":0.8896716983928054, "trued":0, "hp":1525.5100000000002, "armor":65.679, "mr":30},
{"physical":0.09887664636002517, "magical":0.9011233536399746, "trued":0, "hp":2292.8, "armor":141.42000000000002, "mr":110}
],
"Soraka":[
{"physical":0.31293410726968285, "magical":0.6870658927303173, "trued":0, "hp":1204.76, "armor":66.096, "mr":30},
{"physical":0.20277343262405556, "magical":0.7972265673759444, "trued":0, "hp":2033.14, "armor":82.094, "mr":120},
{"physical":0.13412152290350962, "magical":0.8658784770964905, "trued":0, "hp":2405.2, "armor":145.22, "mr":120}
],
"Swain":[
{"physical":0.11451299391645933, "magical":0.8854870060835407, "trued":0, "hp":1639.2399999999998, "armor":49.68, "mr":30},
{"physical":0.06309294011675727, "magical":0.9369070598832429, "trued":0, "hp":2657.54, "armor":111.52000000000001, "mr":85},
{"physical":0.03884569389300656, "magical":0.9611543061069935, "trued":0, "hp":3134.84, "armor":130.6, "mr":145}
],
"Syndra":[
{"physical":0.08332276006492971, "magical":0.9166772399350702, "trued":0, "hp":1144.76, "armor":47.628, "mr":30},
{"physical":0.03849865687974681, "magical":0.9615013431202533, "trued":0, "hp":1521.14, "armor":61.94200000000001, "mr":90},
{"physical":0.006981960682052635, "magical":0.9930180393179473, "trued":0, "hp":2241.2, "armor":78.16, "mr":90}
],
"TahmKench":[
{"physical":0.08480343233848947, "magical":0.9151965676615105, "trued":0, "hp":1750.3000000000002, "armor":109.59, "mr":40.525000000000006},
{"physical":0.08521511965823882, "magical":0.9147848803417611, "trued":0, "hp":3450.25, "armor":124.32499999999999, "mr":100.7875},
{"physical":0.08034185988279358, "magical":0.9196581401172066, "trued":0, "hp":3903.4, "armor":241.01999999999998, "mr":131.75}
],
"Taliyah":[
{"physical":0.15092913120104273, "magical":0.8490708687989572, "trued":0, "hp":1525.5, "armor":40.22, "mr":30},
{"physical":0.07081040814902462, "magical":0.9291895918509754, "trued":0, "hp":1997.25, "armor":52.85, "mr":90},
{"physical":0.05093816397815652, "magical":0.9490618360218435, "trued":0, "hp":2403, "armor":112.16, "mr":90}
],
"Talon":[
{"physical":0.9285075495023438, "magical":0.07149245049765618, "trued":0, "hp":1263.6999999999998, "armor":50.47, "mr":40.525000000000006},
{"physical":0.9442482778251755, "magical":0.055751722174824464, "trued":0, "hp":1969.5500000000002, "armor":65.205, "mr":45.7875},
{"physical":0.9391244876026702, "magical":0.06087551239732983, "trued":0, "hp":2423, "armor":81.9, "mr":76.75}
],
"Taric":[
{"physical":0.3107941150124082, "magical":0.6892058849875916, "trued":0, "hp":1853.6, "armor":77.3955, "mr":54.025000000000006},
{"physical":0.22233247267921238, "magical":0.6348103844636448, "trued":0, "hp":3032.5, "armor":186.95880000000002, "mr":58.75874999999999},
{"physical":0.15078156888110555, "magical":0.7063612882617516, "trued":0, "hp":3461.8, "armor":312.47423999999995, "mr":92.025}
],
"Teemo":[
{"physical":0.21676056447320458, "magical":0.7832394355267955, "trued":0, "hp":1176.44, "armor":49.575, "mr":30},
{"physical":0.1464587083238871, "magical":0.8535412916761129, "trued":0, "hp":1869.66, "armor":65.36250000000001, "mr":30},
{"physical":0.09568172251783291, "magical":0.9043182774821672, "trued":0, "hp":2308.8, "armor":83.25, "mr":30}
],
"Thresh":[
{"physical":0.21364653049801474, "magical":0.7863534695019851, "trued":0, "hp":1337.3400000000001, "armor":114.655, "mr":48},
{"physical":0.13268038313300717, "magical":0.8673196168669929, "trued":0, "hp":2128.87, "armor":158.155, "mr":89},
{"physical":0.12622460549776005, "magical":0.87377539450224, "trued":0, "hp":3872.48, "armor":171.655, "mr":150}
],
"Tristana":[
{"physical":0.8904568846197993, "magical":0.10954311538020063, "trued":0, "hp":1095.44, "armor":51.22, "mr":43.5},
{"physical":0.9473118723110363, "magical":0.05268812768896369, "trued":0, "hp":1440.66, "armor":63.85, "mr":49.5},
{"physical":0.8956530153578552, "magical":0.10434698464214481, "trued":0, "hp":1831.8, "armor":78.16, "mr":55.5}
],
"Trundle":[
{"physical":0.6954442094478521, "magical":0.3045557905521478, "trued":0, "hp":1763.32, "armor":116.30114285714288, "mr":61.675000000000004},
{"physical":0.5419328481555885, "magical":0.4580671518444116, "trued":0, "hp":2167.48, "armor":231.881, "mr":98.6005},
{"physical":0.4674937515892419, "magical":0.5325062484107581, "trued":0, "hp":3125.4, "armor":310.1600000000001, "mr":214.607}
],
"Tryndamere":[
{"physical":0.8864747670057772, "magical":0.11352523299422282, "trued":0, "hp":1286.1599999999999, "armor":54.002, "mr":54.025000000000006},
{"physical":0.8862731753092252, "magical":0.11372682469077473, "trued":0, "hp":1698.7400000000002, "armor":67.05300000000001, "mr":65.2875},
{"physical":0.9112640620808918, "magical":0.08873593791910826, "trued":0, "hp":2166.2000000000003, "armor":81.84, "mr":77.25}
],
"TwistedFate":[
{"physical":0.10719027325363027, "magical":0.8928097267463697, "trued":0, "hp":1182.44, "armor":41.773, "mr":30},
{"physical":0.09592704644816749, "magical":0.9040729535518324, "trued":0, "hp":1575.66, "armor":55.03450000000001, "mr":90},
{"physical":0.09679623813620442, "magical":0.9032037618637956, "trued":0, "hp":2014.8, "armor":115.06, "mr":90}
],
"Twitch":[
{"physical":0.9017043829344913, "magical":0, "trued":0.0982956170655087, "hp":1071.02, "armor":52.26, "mr":43.5},
{"physical":0.9470247220828893, "magical":0, "trued":0.05297527791711065, "hp":1412.0300000000002, "armor":64.89, "mr":49.5},
{"physical":0.911633179376814, "magical":0.05183723935084451, "trued":0.03652958127234145, "hp":1798.4, "armor":79.2, "mr":55.49999999999999}
],
"Udyr":[
{"physical":1, "magical":0, "trued":0, "hp":1460.58, "armor":65.93, "mr":45.025000000000006},
{"physical":1, "magical":0, "trued":0, "hp":2194.036666666667, "armor":82.77000000000002, "mr":75.2875},
{"physical":1, "magical":0, "trued":0, "hp":3132.9333333333334, "armor":161.85, "mr":126.25}
],
"Urgot":[
{"physical":0.8480754873554264, "magical":0.15192451264457363, "trued":0, "hp":1186.38, "armor":79.786, "mr":67.5},
{"physical":0.9169370002179251, "magical":0.08306299978207493, "trued":0, "hp":2111.07, "armor":105.679, "mr":85.5},
{"physical":0.9322456161875311, "magical":0.06775438381246893, "trued":0, "hp":2535.6000000000004, "armor":133.42000000000002, "mr":143.5}
],
"Varus":[
{"physical":0.9027884705077718, "magical":0.09721152949222817, "trued":0, "hp":1090.44, "armor":55.128, "mr":43.5},
{"physical":0.8538073157401229, "magical":0.14619268425987708, "trued":0, "hp":1735.66, "armor":69.44200000000001, "mr":49.5},
{"physical":0.8738971275791446, "magical":0.1261028724208554, "trued":0, "hp":2126.8, "armor":85.66, "mr":55.5}
],
"Vayne":[
{"physical":0.8514873157392453, "magical":0, "trued":0.14851268426075476, "hp":1057.8600000000001, "armor":50.92799999999999, "mr":43.5},
{"physical":0.7929139798560454, "magical":0, "trued":0.20708602014395452, "hp":1407.2900000000002, "armor":65.242, "mr":49.5},
{"physical":0.8113698388404835, "magical":0.08390334097189661, "trued":0.10472682018761983, "hp":1803.2, "armor":81.46000000000001, "mr":55.5}
],
"Veigar":[
{"physical":0.10590136877771886, "magical":0.8940986312222812, "trued":0, "hp":1453.44, "armor":47.825, "mr":30},
{"physical":0.012483146985360327, "magical":0.9875168530146397, "trued":0, "hp":1846.66, "armor":63.61250000000001, "mr":90},
{"physical":0.01121392349765225, "magical":0.9887860765023477, "trued":0, "hp":2285.8, "armor":81.5, "mr":90}
],
"Velkoz":[
{"physical":0.024897163673694534, "magical":0.8237584099173814, "trued":0.15134442640892398, "hp":1127.92, "armor":45.47, "mr":30},
{"physical":0.007192551857700402, "magical":0.8612292691515284, "trued":0.1315781789907712, "hp":1495.88, "armor":60.205, "mr":30},
{"physical":0.004652285779198109, "magical":0.850252252197863, "trued":0.14509546202293877, "hp":1906.4, "armor":121.9, "mr":30}
],
"Vi":[
{"physical":0.912100093632633, "magical":0.08789990636736703, "trued":0, "hp":1845.6999999999998, "armor":62.97, "mr":45.025000000000006},
{"physical":0.9366941167966816, "magical":0.06330588320331854, "trued":0, "hp":3487.716666666667, "armor":77.705, "mr":50.287499999999994},
{"physical":0.9285246240368795, "magical":0.07147537596312062, "trued":0, "hp":4544.833333333334, "armor":154.4, "mr":156.25}
],
"Viktor":[
{"physical":0.022081177813297593, "magical":0.9779188221867025, "trued":0, "hp":1149.73, "armor":49.68000000000001, "mr":30},
{"physical":0, "magical":1, "trued":0, "hp":1526.1100000000001, "armor":66.52000000000001, "mr":90},
{"physical":0, "magical":1, "trued":0, "hp":1946.17, "armor":130.6, "mr":90}
],
"Volibear":[
{"physical":0.7036854006851283, "magical":0.2963145993148717, "trued":0, "hp":1854.12, "armor":63.47, "mr":45.025000000000006},
{"physical":0.6067704623081903, "magical":0.3932295376918097, "trued":0, "hp":3212.846666666667, "armor":78.205, "mr":75.2875},
{"physical":0.5350825745319838, "magical":0.4649174254680162, "trued":0, "hp":4274.733333333334, "armor":194.9, "mr":136.25}
],
"Vladimir":[
{"physical":0.040322335870728344, "magical":0.9596776641292717, "trued":0, "hp":1547.5499999999997, "armor":45.47, "mr":30},
{"physical":0.019123319080932018, "magical":0.980876680919068, "trued":0, "hp":2103.59, "armor":60.205, "mr":90},
{"physical":0.004782025673966623, "magical":0.9952179743260334, "trued":0, "hp":3531.1698333333334, "armor":76.9, "mr":90}
],
"Warwick":[
{"physical":0.47957995796947295, "magical":0.5204200420305272, "trued":0, "hp":1303.1599999999999, "armor":58.47, "mr":40.525000000000006},
{"physical":0.4631024110976101, "magical":0.5368975889023899, "trued":0, "hp":1715.7400000000002, "armor":103.205, "mr":104.5375},
{"physical":0.43740402403623013, "magical":0.56259597596377, "trued":0, "hp":2683.2000000000003, "armor":179.89999999999998, "mr":210.5}
],
"Wukong":[
{"physical":0.9082461629869116, "magical":0.09175383701308834, "trued":0, "hp":1450.6999999999998, "armor":63.47, "mr":46.525000000000006},
{"physical":0.9055895402363701, "magical":0.09441045976362997, "trued":0, "hp":1808.5500000000002, "armor":88.20499999999998, "mr":86.78750000000001},
{"physical":0.8940069139294026, "magical":0.10599308607059753, "trued":0, "hp":2714, "armor":112.89999999999999, "mr":100.75}
],
"Xerath":[
{"physical":0.041695106839397464, "magical":0.9583048931606025, "trued":0, "hp":1161.6, "armor":45.47, "mr":30},
{"physical":0.02439168768478764, "magical":0.9756083123152123, "trued":0, "hp":1546.4, "armor":60.205, "mr":30},
{"physical":0.017555741658359072, "magical":0.982444258341641, "trued":0, "hp":1976, "armor":121.9, "mr":30}
],
"XinZhao":[
{"physical":0.9168438783055637, "magical":0.08315612169443633, "trued":0, "hp":1420.08, "armor":68.97, "mr":51.025000000000006},
{"physical":0.952945613407719, "magical":0.04705438659228108, "trued":0, "hp":2124.0666666666666, "armor":93.705, "mr":91.2875},
{"physical":0.7736197959592244, "magical":0.22638020404077572, "trued":0, "hp":3029.5733333333333, "armor":224.4, "mr":146.25}
],
"Yasuo":[
{"physical":0.7017952625126055, "magical":0.29820473748739446, "trued":0, "hp":1030, "armor":56.628, "mr":43.5},
{"physical":0.8091887741592173, "magical":0.1908112258407827, "trued":0, "hp":1349.96, "armor":70.94200000000001, "mr":74.5},
{"physical":0.8708726877935746, "magical":0.12912731220642543, "trued":0, "hp":1712.48, "armor":87.16, "mr":80.5}
],
"Yorick":[
{"physical":0.5809469872634916, "magical":0.4190530127365084, "trued":0, "hp":1436.6999999999998, "armor":62.812, "mr":40.525000000000006},
{"physical":0.6905858315209328, "magical":0.3094141684790671, "trued":0, "hp":2294.55, "armor":113.968, "mr":100.7875},
{"physical":0.717159060268901, "magical":0.2828409397310989, "trued":0, "hp":2700, "armor":197.14, "mr":151.75}
],
"Zac":[
{"physical":0.14896162903718355, "magical":0.8510383709628164, "trued":0, "hp":1944.9, "armor":60.97, "mr":45.025000000000006},
{"physical":0.06354189048983311, "magical":0.936458109510167, "trued":0, "hp":3341.5166666666664, "armor":105.705, "mr":50.2875},
{"physical":0.05115765127488096, "magical":0.948842348725119, "trued":0, "hp":4446.333333333334, "armor":182.4, "mr":156.25}
],
"Ziggs":[
{"physical":0.09152829755521596, "magical":0.9084717024447839, "trued":0, "hp":1171.6, "armor":43.786, "mr":30},
{"physical":0.05977827511990312, "magical":0.9402217248800968, "trued":0, "hp":1556.4, "armor":57.67900000000001, "mr":30},
{"physical":0.04653365554624875, "magical":1.0534663444537513, "trued":0, "hp":1986, "armor":130.262, "mr":33}
],
"Zilean":[
{"physical":0.06998745396836105, "magical":0.9300125460316389, "trued":0, "hp":1126.26, "armor":44.745999999999995, "mr":30},
{"physical":0.038676886361123194, "magical":0.9613231136388769, "trued":0, "hp":1498.43, "armor":105.74400000000001, "mr":30},
{"physical":0.03078980924611674, "magical":0.9692101907538833, "trued":0, "hp":2113.7200000000003, "armor":123.87, "mr":30}
],
"Zed":[
{"physical":0.9069690951681353, "magical":0.09303090483186473, "trued":0, "hp":1226.6, "armor":50.47, "mr":40.525000000000006},
{"physical":0.8870262767430946, "magical":0.1129737232569056, "trued":0, "hp":1611.4, "armor":65.205, "mr":70.78750000000001},
{"physical":0.8968575755851419, "magical":0.10314242441485805, "trued":0, "hp":2341, "armor":81.9, "mr":76.75}
],
"Zyra":[
{"physical":0.11752588995347422, "magical":0.8824741100465257, "trued":0, "hp":1255.76, "armor":85.25999999999999, "mr":30},
{"physical":0.054502592290881335, "magical":0.9454974077091187, "trued":0, "hp":1915.3000000000002, "armor":97.88999999999999, "mr":30},
{"physical":0.048978010448969406, "magical":0.9510219895510306, "trued":0, "hp":2716.2799999999997, "armor":112.19999999999999, "mr":65}
]
 }