{
	"Aatrox": 
	{
		"aspd": 0.651,
		"hp": 537.8,
		"hpgrowth": 85,
		"regen": 6.59,
		"regengrowth": 0.5,
		"mp": 0,
		"mpgrowth": 0,
		"mpregen": 0,
		"mpregengrowth": 0,
		"ad": 60.376,
		"adgrowth": 3.2,
		"bonus_aspdgrowth": 0.03,
		"armor": 24.384,
		"armorgrowth": 3.8,
		"mr": 32.1,
		"mrgrowth": 1.25
	},
	"Ahri": 
	{
		"aspd": 0.668,
		"hp": 514.4,
		"hpgrowth": 80,
		"regen": 6.505,
		"regengrowth": 0.6,
		"mp": 334,
		"mpgrowth": 40,
		"mpregen": 6,
		"mpregengrowth": 0.8,
		"ad": 53.04,
		"adgrowth": 3,
		"bonus_aspdgrowth": 0.02,
		"armor": 20.88,
		"armorgrowth": 3.5,
		"mr": 30,
		"mrgrowth": 0
	},
	"Akali": 
	{
		"aspd": 0.694,
		"hp": 587.8,
		"hpgrowth": 85,
		"regen": 8.34,
		"regengrowth": 0.65,
		"mp": 0,
		"mpgrowth": 0,
		"mpregen": 0,
		"mpregengrowth": 0,
		"ad": 58.376,
		"adgrowth": 3.2,
		"bonus_aspdgrowth": 0.031,
		"armor": 26.38,
		"armorgrowth": 3.5,
		"mr": 32.1,
		"mrgrowth": 1.25
	},
	"Alistar": 
	{
		"aspd": 0.625,
		"hp": 613.36,
		"hpgrowth": 106,
		"regen": 8.675,
		"regengrowth": 0.85,
		"mp": 278.84,
		"mpgrowth": 38,
		"mpregen": 8.5,
		"mpregengrowth": 0.8,
		"ad": 61.112,
		"adgrowth": 3.62,
		"bonus_aspdgrowth": 0.0213,
		"armor": 24.38,
		"armorgrowth": 3.5,
		"mr": 32.1,
		"mrgrowth": 1.25
	},
	"Amumu": 
	{
		"aspd": 0.638,
		"hp": 613.12,
		"hpgrowth": 84,
		"regen": 8.875,
		"regengrowth": 0.85,
		"mp": 287.2,
		"mpgrowth": 40,
		"mpregen": 7.38,
		"mpregengrowth": 0.525,
		"ad": 53.384,
		"adgrowth": 3.8,
		"bonus_aspdgrowth": 0.0218,
		"armor": 23.544,
		"armorgrowth": 3.6,
		"mr": 32.1,
		"mrgrowth": 1.25
	},
	"Anivia": 
	{
		"aspd": 0.625,
		"hp": 467.6,
		"hpgrowth": 70,
		"regen": 5.57,
		"regengrowth": 0.55,
		"mp": 396.04,
		"mpgrowth": 50,
		"mpregen": 6,
		"mpregengrowth": 0.8,
		"ad": 51.376,
		"adgrowth": 3.2,
		"bonus_aspdgrowth": 0.0168,
		"armor": 21.22,
		"armorgrowth": 4,
		"mr": 30,
		"mrgrowth": 0
	},
	"Annie": 
	{
		"aspd": 0.579,
		"hp": 511.68,
		"hpgrowth": 76,
		"regen": 5.42,
		"regengrowth": 0.55,
		"mp": 334,
		"mpgrowth": 50,
		"mpregen": 6,
		"mpregengrowth": 0.8,
		"ad": 50.41,
		"adgrowth": 2.625,
		"bonus_aspdgrowth": 0.0136,
		"armor": 19.22,
		"armorgrowth": 4,
		"mr": 30,
		"mrgrowth": 0
	},
	"Ashe": 
	{
		"aspd": 0.658,
		"hp": 527.72,
		"hpgrowth": 79,
		"regen": 5.42,
		"regengrowth": 0.55,
		"mp": 280,
		"mpgrowth": 32,
		"mpregen": 6.97,
		"mpregengrowth": 0.4,
		"ad": 56.5,
		"adgrowth": 2.26,
		"bonus_aspdgrowth": 0.0333,
		"armor": 21.212,
		"armorgrowth": 3.4,
		"mr": 30,
		"mrgrowth": 0
	},
	"AurelionSol": 
	{
		"aspd": 0.625,
		"hp": 550,
		"hpgrowth": 80,
		"regen": 6.5,
		"regengrowth": 0.6,
		"mp": 350,
		"mpgrowth": 50,
		"mpregen": 6,
		"mpregengrowth": 0.8,
		"ad": 57,
		"adgrowth": 3.2,
		"bonus_aspdgrowth": 0.0101,
		"armor": 19,
		"armorgrowth": 3.6,
		"mr": 30,
		"mrgrowth": 0
	},
	"Azir": 
	{
		"aspd": 0.625,
		"hp": 524.4,
		"hpgrowth": 80,
		"regen": 6.92,
		"regengrowth": 0.55,
		"mp": 350.56,
		"mpgrowth": 42,
		"mpregen": 6,
		"mpregengrowth": 0.8,
		"ad": 52,
		"adgrowth": 2.8,
		"bonus_aspdgrowth": 0.015,
		"armor": 19.04,
		"armorgrowth": 3,
		"mr": 30,
		"mrgrowth": 0
	},
	"Bard": 
	{
		"aspd": 0.625,
		"hp": 535,
		"hpgrowth": 93,
		"regen": 5.4,
		"regengrowth": 0.55,
		"mp": 350,
		"mpgrowth": 50,
		"mpregen": 6,
		"mpregengrowth": 0.45,
		"ad": 52,
		"adgrowth": 3,
		"bonus_aspdgrowth": 0.01,
		"armor": 25,
		"armorgrowth": 4,
		"mr": 30,
		"mrgrowth": 0
	},
	"Blitzcrank": 
	{
		"aspd": 0.625,
		"hp": 582.6,
		"hpgrowth": 95,
		"regen": 8.51,
		"regengrowth": 0.75,
		"mp": 267.2,
		"mpgrowth": 40,
		"mpregen": 8.5,
		"mpregengrowth": 0.8,
		"ad": 61.54,
		"adgrowth": 3.5,
		"bonus_aspdgrowth": 0.0113,
		"armor": 24.38,
		"armorgrowth": 4,
		"mr": 32.1,
		"mrgrowth": 1.25
	},
	"Brand": 
	{
		"aspd": 0.625,
		"hp": 507.68,
		"hpgrowth": 76,
		"regen": 5.42,
		"regengrowth": 0.55,
		"mp": 375.6,
		"mpgrowth": 42,
		"mpregen": 8.005,
		"mpregengrowth": 0.6,
		"ad": 57.04,
		"adgrowth": 3,
		"bonus_aspdgrowth": 0.0136,
		"armor": 21.88,
		"armorgrowth": 3.5,
		"mr": 30,
		"mrgrowth": 0
	},
	"Braum": 
	{
		"aspd": 0.644,
		"hp": 576.16,
		"hpgrowth": 87,
		"regen": 8.18,
		"regengrowth": 1,
		"mp": 310.6,
		"mpgrowth": 45,
		"mpregen": 6,
		"mpregengrowth": 0.8,
		"ad": 55.376,
		"adgrowth": 3.2,
		"bonus_aspdgrowth": 0.035,
		"armor": 26.72,
		"armorgrowth": 4.5,
		"mr": 32.1,
		"mrgrowth": 1.25
	},
	"Caitlyn": 
	{
		"aspd": 0.568,
		"hp": 524.4,
		"hpgrowth": 80,
		"regen": 5.67,
		"regengrowth": 0.55,
		"mp": 313.8,
		"mpgrowth": 35,
		"mpregen": 7.42,
		"mpregengrowth": 0.55,
		"ad": 53.66,
		"adgrowth": 2.18,
		"bonus_aspdgrowth": 0.04,
		"armor": 22.88,
		"armorgrowth": 3.5,
		"mr": 30,
		"mrgrowth": 0
	},
	"Cassiopeia": 
	{
		"aspd": 0.647,
		"hp": 506,
		"hpgrowth": 75,
		"regen": 5.69,
		"regengrowth": 0.5,
		"mp": 370.8,
		"mpgrowth": 60,
		"mpregen": 8.36,
		"mpregengrowth": 0.75,
		"ad": 52.376,
		"adgrowth": 3.2,
		"bonus_aspdgrowth": 0.0168,
		"armor": 22.22,
		"armorgrowth": 4,
		"mr": 30,
		"mrgrowth": 0
	},
	"Chogath": 
	{
		"aspd": 0.625,
		"hp": 574.4,
		"hpgrowth": 80,
		"regen": 8.925,
		"regengrowth": 0.85,
		"mp": 272.2,
		"mpgrowth": 40,
		"mpregen": 7.205,
		"mpregengrowth": 0.45,
		"ad": 61.156,
		"adgrowth": 4.2,
		"bonus_aspdgrowth": 0.0144,
		"armor": 28.88,
		"armorgrowth": 3.5,
		"mr": 32.1,
		"mrgrowth": 1.25
	},
	"Corki": 
	{
		"aspd": 0.625,
		"hp": 512.76,
		"hpgrowth": 82,
		"regen": 5.42,
		"regengrowth": 0.55,
		"mp": 350.16,
		"mpgrowth": 34,
		"mpregen": 7.42,
		"mpregengrowth": 0.55,
		"ad": 56,
		"adgrowth": 3.5,
		"bonus_aspdgrowth": 0.023,
		"armor": 23.38,
		"armorgrowth": 3.5,
		"mr": 30,
		"mrgrowth": 0
	},
	"Darius": 
	{
		"aspd": 0.625,
		"hp": 582.24,
		"hpgrowth": 100,
		"regen": 9.845,
		"regengrowth": 0.95,
		"mp": 263,
		"mpgrowth": 37.5,
		"mpregen": 6.585,
		"mpregengrowth": 0.35,
		"ad": 55.88,
		"adgrowth": 5,
		"bonus_aspdgrowth": 0.01,
		"armor": 29.88,
		"armorgrowth": 4,
		"mr": 32.1,
		"mrgrowth": 1.25
	},
	"Diana": 
	{
		"aspd": 0.625,
		"hp": 589.2,
		"hpgrowth": 90,
		"regen": 7.425,
		"regengrowth": 0.85,
		"mp": 297.2,
		"mpgrowth": 40,
		"mpregen": 6,
		"mpregengrowth": 0.8,
		"ad": 53.04,
		"adgrowth": 3,
		"bonus_aspdgrowth": 0.0225,
		"armor": 26.048,
		"armorgrowth": 3.6,
		"mr": 32.1,
		"mrgrowth": 1.25
	},
	"Draven": 
	{
		"aspd": 0.679,
		"hp": 557.76,
		"hpgrowth": 82,
		"regen": 6.175,
		"regengrowth": 0.7,
		"mp": 360.56,
		"mpgrowth": 39,
		"mpregen": 8.04,
		"mpregengrowth": 0.65,
		"ad": 55.8,
		"adgrowth": 2.91,
		"bonus_aspdgrowth": 0.027,
		"armor": 25.544,
		"armorgrowth": 3.3,
		"mr": 30,
		"mrgrowth": 0
	},
	"DrMundo": 
	{
		"aspd": 0.625,
		"hp": 582.52,
		"hpgrowth": 89,
		"regen": 7.76,
		"regengrowth": 0.75,
		"mp": 0,
		"mpgrowth": 0,
		"mpregen": 0,
		"mpregengrowth": 0,
		"ad": 61.27,
		"adgrowth": 3,
		"bonus_aspdgrowth": 0.028,
		"armor": 26.88,
		"armorgrowth": 3.5,
		"mr": 32.1,
		"mrgrowth": 1.25
	},
	"Ekko": 
	{
		"aspd": 0.625,
		"hp": 580,
		"hpgrowth": 80,
		"regen": 9,
		"regengrowth": 0.9,
		"mp": 280,
		"mpgrowth": 50,
		"mpregen": 6,
		"mpregengrowth": 0.8,
		"ad": 55,
		"adgrowth": 3,
		"bonus_aspdgrowth": 0.033,
		"armor": 27,
		"armorgrowth": 3,
		"mr": 32.1,
		"mrgrowth": 1.25
	},
	"Elise": 
	{
		"aspd": 0.625,
		"hp": 529.4,
		"hpgrowth": 80,
		"regen": 5.705,
		"regengrowth": 0.6,
		"mp": 324,
		"mpgrowth": 50,
		"mpregen": 6,
		"mpregengrowth": 0.8,
		"ad": 50.54,
		"adgrowth": 3,
		"bonus_aspdgrowth": 0.0175,
		"armor": 22.128,
		"armorgrowth": 3.35,
		"mr": 30,
		"mrgrowth": 0
	},
	"Evelynn": 
	{
		"aspd": 0.625,
		"hp": 531.2,
		"hpgrowth": 90,
		"regen": 9.82,
		"regengrowth": 0.55,
		"mp": 315.6,
		"mpgrowth": 42,
		"mpregen": 8.105,
		"mpregengrowth": 0.6,
		"ad": 53.88,
		"adgrowth": 3.5,
		"bonus_aspdgrowth": 0.036,
		"armor": 26.5,
		"armorgrowth": 3.8,
		"mr": 32.1,
		"mrgrowth": 1.25
	},
	"Ezreal": 
	{
		"aspd": 0.625,
		"hp": 484.4,
		"hpgrowth": 80,
		"regen": 6.42,
		"regengrowth": 0.55,
		"mp": 360.56,
		"mpgrowth": 39,
		"mpregen": 8.09,
		"mpregengrowth": 0.65,
		"ad": 55.6,
		"adgrowth": 2.41,
		"bonus_aspdgrowth": 0.028,
		"armor": 21.88,
		"armorgrowth": 3.5,
		"mr": 30,
		"mrgrowth": 0
	},
	"Fiddlesticks": 
	{
		"aspd": 0.625,
		"hp": 524.4,
		"hpgrowth": 80,
		"regen": 5.605,
		"regengrowth": 0.6,
		"mp": 400.12,
		"mpgrowth": 56,
		"mpregen": 6,
		"mpregengrowth": 0.8,
		"ad": 48.36,
		"adgrowth": 2.625,
		"bonus_aspdgrowth": 0.0211,
		"armor": 20.88,
		"armorgrowth": 3.5,
		"mr": 30,
		"mrgrowth": 0
	},
	"Fiora": 
	{
		"aspd": 0.672,
		"hp": 550,
		"hpgrowth": 85,
		"regen": 8.25,
		"regengrowth": 0.55,
		"mp": 300,
		"mpgrowth": 40,
		"mpregen": 8,
		"mpregengrowth": 0.7,
		"ad": 60,
		"adgrowth": 3.3,
		"bonus_aspdgrowth": 0.032,
		"armor": 24,
		"armorgrowth": 3.5,
		"mr": 32.1,
		"mrgrowth": 1.25
	},
	"Fizz": 
	{
		"aspd": 0.658,
		"hp": 558.48,
		"hpgrowth": 86,
		"regen": 8.175,
		"regengrowth": 0.7,
		"mp": 317.2,
		"mpgrowth": 37,
		"mpregen": 6,
		"mpregengrowth": 0.8,
		"ad": 58.04,
		"adgrowth": 3,
		"bonus_aspdgrowth": 0.031,
		"armor": 22.412,
		"armorgrowth": 3.4,
		"mr": 32.1,
		"mrgrowth": 1.25
	},
	"Galio": 
	{
		"aspd": 0.638,
		"hp": 577.8,
		"hpgrowth": 85,
		"regen": 8.71,
		"regengrowth": 0.75,
		"mp": 369,
		"mpgrowth": 47,
		"mpregen": 6,
		"mpregengrowth": 0.8,
		"ad": 61.97,
		"adgrowth": 3.375,
		"bonus_aspdgrowth": 0.012,
		"armor": 26.88,
		"armorgrowth": 3.5,
		"mr": 32.1,
		"mrgrowth": 1.25
	},
	"Gangplank": 
	{
		"aspd": 0.651,
		"hp": 540,
		"hpgrowth": 82,
		"regen": 6,
		"regengrowth": 0.6,
		"mp": 282,
		"mpgrowth": 40,
		"mpregen": 7.5,
		"mpregengrowth": 0.7,
		"ad": 56,
		"adgrowth": 3,
		"bonus_aspdgrowth": 0.032,
		"armor": 26,
		"armorgrowth": 3,
		"mr": 32.1,
		"mrgrowth": 1.25
	},
	"Garen": 
	{
		"aspd": 0.625,
		"hp": 616.28,
		"hpgrowth": 84.25,
		"regen": 7.84,
		"regengrowth": 0.5,
		"mp": 0,
		"mpgrowth": 0,
		"mpregen": 0,
		"mpregengrowth": 0,
		"ad": 57.88,
		"adgrowth": 4.5,
		"bonus_aspdgrowth": 0.029,
		"armor": 27.536,
		"armorgrowth": 3,
		"mr": 32.1,
		"mrgrowth": 1.25
	},
	"Gnar": 
	{
		"aspd": 0.625,
		"hp": 540,
		"hpgrowth": 65,
		"regen": 2.5,
		"regengrowth": 0.5,
		"mp": 0,
		"mpgrowth": 0,
		"mpregen": 0,
		"mpregengrowth": 0,
		"ad": 51,
		"adgrowth": 3,
		"bonus_aspdgrowth": 0.005,
		"armor": 25,
		"armorgrowth": 3.7,
		"mr": 32,
		"mrgrowth": 2.45
	},
	"Gragas": 
	{
		"aspd": 0.651,
		"hp": 583.52,
		"hpgrowth": 89,
		"regen": 5.5,
		"regengrowth": 0.5,
		"mp": 400,
		"mpgrowth": 47,
		"mpregen": 6,
		"mpregengrowth": 0.8,
		"ad": 61.38,
		"adgrowth": 3.5,
		"bonus_aspdgrowth": 0.0205,
		"armor": 26.048,
		"armorgrowth": 3.6,
		"mr": 32.1,
		"mrgrowth": 1.25
	},
	"Graves": 
	{
		"aspd": 0.481,
		"hp": 551.12,
		"hpgrowth": 84,
		"regen": 6.675,
		"regengrowth": 0.7,
		"mp": 322.2,
		"mpgrowth": 40,
		"mpregen": 7.925,
		"mpregengrowth": 0.7,
		"ad": 60.83,
		"adgrowth": 2.41,
		"bonus_aspdgrowth": 0.029,
		"armor": 24.376,
		"armorgrowth": 3.4,
		"mr": 30,
		"mrgrowth": 0
	},
	"Hecarim": 
	{
		"aspd": 0.67,
		"hp": 580,
		"hpgrowth": 90,
		"regen": 7,
		"regengrowth": 0.75,
		"mp": 327.2,
		"mpgrowth": 37,
		"mpregen": 6.505,
		"mpregengrowth": 0.6,
		"ad": 58,
		"adgrowth": 3.2,
		"bonus_aspdgrowth": 0.025,
		"armor": 26.72,
		"armorgrowth": 4,
		"mr": 32.1,
		"mrgrowth": 1.25
	},
	"Heimerdinger": 
	{
		"aspd": 0.625,
		"hp": 476,
		"hpgrowth": 75,
		"regen": 11.005,
		"regengrowth": 1.75,
		"mp": 307.2,
		"mpgrowth": 40,
		"mpregen": 6,
		"mpregengrowth": 0.8,
		"ad": 55.536,
		"adgrowth": 2.7,
		"bonus_aspdgrowth": 0.0136,
		"armor": 19.04,
		"armorgrowth": 3,
		"mr": 30,
		"mrgrowth": 0
	},
	"Illaoi": 
	{
		"aspd": 0.571,
		"hp": 585.6,
		"hpgrowth": 95,
		"regen": 9.5,
		"regengrowth": 0.8,
		"mp": 300,
		"mpgrowth": 40,
		"mpregen": 7.5,
		"mpregengrowth": 0.75,
		"ad": 60,
		"adgrowth": 5,
		"bonus_aspdgrowth": 0.025,
		"armor": 26,
		"armorgrowth": 3.8,
		"mr": 32.1,
		"mrgrowth": 1.25
	},
	"Irelia": 
	{
		"aspd": 0.665,
		"hp": 607.2,
		"hpgrowth": 90,
		"regen": 8.59,
		"regengrowth": 0.65,
		"mp": 338.8,
		"mpgrowth": 32,
		"mpregen": 8.09,
		"mpregengrowth": 0.65,
		"ad": 61.544,
		"adgrowth": 3.3,
		"bonus_aspdgrowth": 0.032,
		"armor": 25.3,
		"armorgrowth": 3.75,
		"mr": 32.1,
		"mrgrowth": 1.25
	},
	"Janna": 
	{
		"aspd": 0.625,
		"hp": 487.04,
		"hpgrowth": 78,
		"regen": 5.42,
		"regengrowth": 0.55,
		"mp": 409.52,
		"mpgrowth": 64,
		"mpregen": 11.5,
		"mpregengrowth": 0.4,
		"ad": 51.956,
		"adgrowth": 2.61,
		"bonus_aspdgrowth": 0.0214,
		"armor": 19.384,
		"armorgrowth": 3.8,
		"mr": 30,
		"mrgrowth": 0
	},
	"JarvanIV": 
	{
		"aspd": 0.658,
		"hp": 571.2,
		"hpgrowth": 90,
		"regen": 8.175,
		"regengrowth": 0.7,
		"mp": 302.2,
		"mpgrowth": 40,
		"mpregen": 6.755,
		"mpregengrowth": 0.45,
		"ad": 55.712,
		"adgrowth": 3.4,
		"bonus_aspdgrowth": 0.025,
		"armor": 29,
		"armorgrowth": 3.6,
		"mr": 32.1,
		"mrgrowth": 1.25
	},
	"Jax": 
	{
		"aspd": 0.638,
		"hp": 592.8,
		"hpgrowth": 85,
		"regen": 8.37,
		"regengrowth": 0.55,
		"mp": 338.8,
		"mpgrowth": 32,
		"mpregen": 7.575,
		"mpregengrowth": 0.7,
		"ad": 61.97,
		"adgrowth": 3.375,
		"bonus_aspdgrowth": 0.034,
		"armor": 27.04,
		"armorgrowth": 3,
		"mr": 32.1,
		"mrgrowth": 1.25
	},
	"Jayce": 
	{
		"aspd": 0.658,
		"hp": 571.2,
		"hpgrowth": 90,
		"regen": 7.34,
		"regengrowth": 0.8,
		"mp": 357.2,
		"mpgrowth": 37,
		"mpregen": 6,
		"mpregengrowth": 0.8,
		"ad": 50.38,
		"adgrowth": 3.5,
		"bonus_aspdgrowth": 0.03,
		"armor": 22.38,
		"armorgrowth": 3.5,
		"mr": 30,
		"mrgrowth": 0
	},
	"Jhin": 
	{
		"aspd": 0.625,
		"hp": 540,
		"hpgrowth": 85,
		"regen": 6,
		"regengrowth": 0.55,
		"mp": 300,
		"mpgrowth": 50,
		"mpregen": 6,
		"mpregengrowth": 0.8,
		"ad": 53,
		"adgrowth": 3.5,
		"bonus_aspdgrowth": 0.03,
		"armor": 20,
		"armorgrowth": 3.5,
		"mr": 30,
		"mrgrowth": 0
	},
	"Jinx": 
	{
		"aspd": 0.625,
		"hp": 517.76,
		"hpgrowth": 82,
		"regen": 5.84,
		"regengrowth": 0.5,
		"mp": 245.6,
		"mpgrowth": 45,
		"mpregen": 6.68,
		"mpregengrowth": 1,
		"ad": 58.46,
		"adgrowth": 2.41,
		"bonus_aspdgrowth": 0.01,
		"armor": 22.88,
		"armorgrowth": 3.5,
		"mr": 30,
		"mrgrowth": 0
	},
	"Kalista": 
	{
		"aspd": 0.644,
		"hp": 517.76,
		"hpgrowth": 83,
		"regen": 6,
		"regengrowth": 0.55,
		"mp": 231.8,
		"mpgrowth": 35,
		"mpregen": 6.3,
		"mpregengrowth": 0.4,
		"ad": 62.92,
		"adgrowth": 2.91,
		"bonus_aspdgrowth": 0.025,
		"armor": 19.012,
		"armorgrowth": 3.5,
		"mr": 30,
		"mrgrowth": 0
	},
	"Karma": 
	{
		"aspd": 0.625,
		"hp": 522.44,
		"hpgrowth": 83,
		"regen": 5.62,
		"regengrowth": 0.55,
		"mp": 374,
		"mpgrowth": 50,
		"mpregen": 8.5,
		"mpregengrowth": 0.8,
		"ad": 53.544,
		"adgrowth": 3.3,
		"bonus_aspdgrowth": 0.023,
		"armor": 20.384,
		"armorgrowth": 3.8,
		"mr": 30,
		"mrgrowth": 0
	},
	"Karthus": 
	{
		"aspd": 0.625,
		"hp": 516,
		"hpgrowth": 75,
		"regen": 6.42,
		"regengrowth": 0.55,
		"mp": 372.48,
		"mpgrowth": 61,
		"mpregen": 6,
		"mpregengrowth": 0.8,
		"ad": 45.66,
		"adgrowth": 3.25,
		"bonus_aspdgrowth": 0.0211,
		"armor": 20.88,
		"armorgrowth": 3.5,
		"mr": 30,
		"mrgrowth": 0
	},
	"Kassadin": 
	{
		"aspd": 0.64,
		"hp": 564.04,
		"hpgrowth": 78,
		"regen": 7.79,
		"regengrowth": 0.5,
		"mp": 397.6,
		"mpgrowth": 67,
		"mpregen": 6,
		"mpregengrowth": 0.8,
		"ad": 58.852,
		"adgrowth": 3.9,
		"bonus_aspdgrowth": 0.037,
		"armor": 23.376,
		"armorgrowth": 3.2,
		"mr": 30,
		"mrgrowth": 0
	},
	"Katarina": 
	{
		"aspd": 0.658,
		"hp": 510,
		"hpgrowth": 83,
		"regen": 4.5,
		"regengrowth": 0.55,
		"mp": 0,
		"mpgrowth": 0,
		"mpregen": 0,
		"mpregengrowth": 0,
		"ad": 58.376,
		"adgrowth": 3.2,
		"bonus_aspdgrowth": 0.0274,
		"armor": 26.88,
		"armorgrowth": 3.5,
		"mr": 32.1,
		"mrgrowth": 1.25
	},
	"Kayle": 
	{
		"aspd": 0.638,
		"hp": 574.24,
		"hpgrowth": 93,
		"regen": 8.26,
		"regengrowth": 0.525,
		"mp": 322.2,
		"mpgrowth": 40,
		"mpregen": 6,
		"mpregengrowth": 0.8,
		"ad": 51,
		"adgrowth": 2.8,
		"bonus_aspdgrowth": 0.022,
		"armor": 26.88,
		"armorgrowth": 3.5,
		"mr": 30,
		"mrgrowth": 0
	},
	"Kennen": 
	{
		"aspd": 0.69,
		"hp": 535.72,
		"hpgrowth": 79,
		"regen": 5.59,
		"regengrowth": 0.65,
		"mp": 0,
		"mpgrowth": 0,
		"mpregen": 0,
		"mpregengrowth": 0,
		"ad": 50.544,
		"adgrowth": 3.3,
		"bonus_aspdgrowth": 0.034,
		"armor": 24.3,
		"armorgrowth": 3.75,
		"mr": 30,
		"mrgrowth": 0
	},
	"Khazix": 
	{
		"aspd": 0.668,
		"hp": 572.8,
		"hpgrowth": 85,
		"regen": 7.51,
		"regengrowth": 0.75,
		"mp": 327.2,
		"mpgrowth": 40,
		"mpregen": 7.59,
		"mpregengrowth": 0.5,
		"ad": 55.208,
		"adgrowth": 3.1,
		"bonus_aspdgrowth": 0.027,
		"armor": 24.04,
		"armorgrowth": 3,
		"mr": 32.1,
		"mrgrowth": 1.25
	},
	"Kindred": 
	{
		"aspd": 0.625,
		"hp": 540,
		"hpgrowth": 85,
		"regen": 10,
		"regengrowth": 0.55,
		"mp": 300,
		"mpgrowth": 35,
		"mpregen": 6.95,
		"mpregengrowth": 0.4,
		"ad": 54.42,
		"adgrowth": 1.61,
		"bonus_aspdgrowth": 0.025,
		"armor": 20,
		"armorgrowth": 3.5,
		"mr": 30,
		"mrgrowth": 0
	},
	"Kled": 
	{
		"aspd": 0.625,
		"hp": 340,
		"hpgrowth": 70,
		"regen": 6,
		"regengrowth": 0.75,
		"mp": 0,
		"mpgrowth": 0,
		"mpregen": 0,
		"mpregengrowth": 0,
		"ad": 55,
		"adgrowth": 3,
		"bonus_aspdgrowth": 0.035,
		"armor": 26,
		"armorgrowth": 4,
		"mr": 32.1,
		"mrgrowth": 1.25
	},
	"KogMaw": 
	{
		"aspd": 0.665,
		"hp": 517.76,
		"hpgrowth": 82,
		"regen": 5.92,
		"regengrowth": 0.55,
		"mp": 322.2,
		"mpgrowth": 40,
		"mpregen": 8.675,
		"mpregengrowth": 0.7,
		"ad": 57.46,
		"adgrowth": 2.41,
		"bonus_aspdgrowth": 0.0265,
		"armor": 19.88,
		"armorgrowth": 3.5,
		"mr": 30,
		"mrgrowth": 0
	},
	"Leblanc": 
	{
		"aspd": 0.625,
		"hp": 516,
		"hpgrowth": 75,
		"regen": 7.42,
		"regengrowth": 0.55,
		"mp": 334,
		"mpgrowth": 50,
		"mpregen": 6,
		"mpregengrowth": 0.8,
		"ad": 54.88,
		"adgrowth": 3.5,
		"bonus_aspdgrowth": 0.014,
		"armor": 21.88,
		"armorgrowth": 3.5,
		"mr": 30,
		"mrgrowth": 0
	},
	"LeeSin": 
	{
		"aspd": 0.651,
		"hp": 570.8,
		"hpgrowth": 85,
		"regen": 7.425,
		"regengrowth": 0.7,
		"mp": 0,
		"mpgrowth": 0,
		"mpregen": 0,
		"mpregengrowth": 0,
		"ad": 61.176,
		"adgrowth": 3.2,
		"bonus_aspdgrowth": 0.03,
		"armor": 24.216,
		"armorgrowth": 3.7,
		"mr": 32.1,
		"mrgrowth": 1.25
	},
	"Leona": 
	{
		"aspd": 0.625,
		"hp": 576.16,
		"hpgrowth": 87,
		"regen": 8.425,
		"regengrowth": 0.85,
		"mp": 302.2,
		"mpgrowth": 40,
		"mpregen": 6,
		"mpregengrowth": 0.8,
		"ad": 60.04,
		"adgrowth": 3,
		"bonus_aspdgrowth": 0.029,
		"armor": 27.208,
		"armorgrowth": 3.6,
		"mr": 32.1,
		"mrgrowth": 1.25
	},
	"Lissandra": 
	{
		"aspd": 0.625,
		"hp": 506.12,
		"hpgrowth": 75,
		"regen": 6.92,
		"regengrowth": 0.55,
		"mp": 304,
		"mpgrowth": 50,
		"mpregen": 5.67,
		"mpregengrowth": 0.4,
		"ad": 50.536,
		"adgrowth": 2.7,
		"bonus_aspdgrowth": 0.0136,
		"armor": 20.216,
		"armorgrowth": 3.7,
		"mr": 30,
		"mrgrowth": 0
	},
	"Lucian": 
	{
		"aspd": 0.638,
		"hp": 554.4,
		"hpgrowth": 80,
		"regen": 6.19,
		"regengrowth": 0.65,
		"mp": 348.88,
		"mpgrowth": 38,
		"mpregen": 8.175,
		"mpregengrowth": 0.7,
		"ad": 57.42,
		"adgrowth": 2.41,
		"bonus_aspdgrowth": 0.033,
		"armor": 24.04,
		"armorgrowth": 3,
		"mr": 30,
		"mrgrowth": 0
	},
	"Lulu": 
	{
		"aspd": 0.625,
		"hp": 552.76,
		"hpgrowth": 74,
		"regen": 8.5,
		"regengrowth": 0.8,
		"mp": 350,
		"mpgrowth": 55,
		"mpregen": 11,
		"mpregengrowth": 0.8,
		"ad": 46.368,
		"adgrowth": 2.6,
		"bonus_aspdgrowth": 0.0225,
		"armor": 19.216,
		"armorgrowth": 3.7,
		"mr": 30,
		"mrgrowth": 0
	},
	"Lux": 
	{
		"aspd": 0.625,
		"hp": 477.72,
		"hpgrowth": 79,
		"regen": 5.42,
		"regengrowth": 0.55,
		"mp": 384,
		"mpgrowth": 47,
		"mpregen": 6,
		"mpregengrowth": 0.8,
		"ad": 53.544,
		"adgrowth": 3.3,
		"bonus_aspdgrowth": 0.0136,
		"armor": 18.72,
		"armorgrowth": 4,
		"mr": 30,
		"mrgrowth": 0
	},
	"Malphite": 
	{
		"aspd": 0.638,
		"hp": 574.2,
		"hpgrowth": 90,
		"regen": 7,
		"regengrowth": 0.55,
		"mp": 282.2,
		"mpgrowth": 40,
		"mpregen": 7.32,
		"mpregengrowth": 0.55,
		"ad": 61.97,
		"adgrowth": 3.375,
		"bonus_aspdgrowth": 0.034,
		"armor": 28.3,
		"armorgrowth": 3.75,
		"mr": 32.1,
		"mrgrowth": 1.25
	},
	"Malzahar": 
	{
		"aspd": 0.625,
		"hp": 514.4,
		"hpgrowth": 80,
		"regen": 5.42,
		"regengrowth": 0.55,
		"mp": 325.6,
		"mpgrowth": 45,
		"mpregen": 6,
		"mpregengrowth": 0.8,
		"ad": 54.7,
		"adgrowth": 3,
		"bonus_aspdgrowth": 0.0136,
		"armor": 21.88,
		"armorgrowth": 3.5,
		"mr": 30,
		"mrgrowth": 0
	},
	"MasterYi": 
	{
		"aspd": 0.679,
		"hp": 598.56,
		"hpgrowth": 92,
		"regen": 7.59,
		"regengrowth": 0.65,
		"mp": 250.56,
		"mpgrowth": 42,
		"mpregen": 7.255,
		"mpregengrowth": 0.45,
		"ad": 60.04,
		"adgrowth": 3,
		"bonus_aspdgrowth": 0.02,
		"armor": 24.04,
		"armorgrowth": 3,
		"mr": 32.1,
		"mrgrowth": 1.25
	},
	"Maokai": 
	{
		"aspd": 0.694,
		"hp": 572.2,
		"hpgrowth": 90,
		"regen": 7,
		"regengrowth": 0.75,
		"mp": 377.28,
		"mpgrowth": 43,
		"mpregen": 7.205,
		"mpregengrowth": 0.45,
		"ad": 63.544,
		"adgrowth": 3.3,
		"bonus_aspdgrowth": 0.0213,
		"armor": 28.72,
		"armorgrowth": 4,
		"mr": 32.1,
		"mrgrowth": 1.25
	},
	"MissFortune": 
	{
		"aspd": 0.656,
		"hp": 530,
		"hpgrowth": 85,
		"regen": 6.19,
		"regengrowth": 0.65,
		"mp": 325.84,
		"mpgrowth": 35,
		"mpregen": 8.04,
		"mpregengrowth": 0.65,
		"ad": 46,
		"adgrowth": 1,
		"bonus_aspdgrowth": 0.0301,
		"armor": 24.04,
		"armorgrowth": 3,
		"mr": 30,
		"mrgrowth": 0
	},
	"Mordekaiser": 
	{
		"aspd": 0.601,
		"hp": 525,
		"hpgrowth": 80,
		"regen": 4,
		"regengrowth": 0.3,
		"mp": 0,
		"mpgrowth": 0,
		"mpregen": 0,
		"mpregengrowth": 0,
		"ad": 61,
		"adgrowth": 5,
		"bonus_aspdgrowth": 0.03,
		"armor": 20,
		"armorgrowth": 3.75,
		"mr": 32.1,
		"mrgrowth": 1.25
	},
	"Morgana": 
	{
		"aspd": 0.625,
		"hp": 547.48,
		"hpgrowth": 86,
		"regen": 5.705,
		"regengrowth": 0.6,
		"mp": 340.8,
		"mpgrowth": 60,
		"mpregen": 8.5,
		"mpregengrowth": 0.8,
		"ad": 55.46,
		"adgrowth": 3.5,
		"bonus_aspdgrowth": 0.0153,
		"armor": 25.384,
		"armorgrowth": 3.8,
		"mr": 30,
		"mrgrowth": 0
	},
	"Nami": 
	{
		"aspd": 0.644,
		"hp": 489.32,
		"hpgrowth": 74,
		"regen": 5.42,
		"regengrowth": 0.55,
		"mp": 377.24,
		"mpgrowth": 43,
		"mpregen": 11.5,
		"mpregengrowth": 0.4,
		"ad": 51.208,
		"adgrowth": 3.1,
		"bonus_aspdgrowth": 0.0261,
		"armor": 19.72,
		"armorgrowth": 4,
		"mr": 30,
		"mrgrowth": 0
	},
	"Nasus": 
	{
		"aspd": 0.638,
		"hp": 561.2,
		"hpgrowth": 90,
		"regen": 9.01,
		"regengrowth": 0.9,
		"mp": 325.6,
		"mpgrowth": 42,
		"mpregen": 7.44,
		"mpregengrowth": 0.5,
		"ad": 59.18,
		"adgrowth": 3.5,
		"bonus_aspdgrowth": 0.0348,
		"armor": 24.88,
		"armorgrowth": 3.5,
		"mr": 32.1,
		"mrgrowth": 1.25
	},
	"Nautilus": 
	{
		"aspd": 0.613,
		"hp": 576.48,
		"hpgrowth": 86,
		"regen": 8.37,
		"regengrowth": 0.55,
		"mp": 334,
		"mpgrowth": 47,
		"mpregen": 8.625,
		"mpregengrowth": 0.7,
		"ad": 57.544,
		"adgrowth": 3.3,
		"bonus_aspdgrowth": 0.01,
		"armor": 26.46,
		"armorgrowth": 3.25,
		"mr": 32.1,
		"mrgrowth": 1.25
	},
	"Nidalee": 
	{
		"aspd": 0.638,
		"hp": 511,
		"hpgrowth": 80,
		"regen": 6.005,
		"regengrowth": 0.6,
		"mp": 295.6,
		"mpgrowth": 45,
		"mpregen": 6,
		"mpregengrowth": 0.8,
		"ad": 47.88,
		"adgrowth": 3.5,
		"bonus_aspdgrowth": 0.0322,
		"armor": 22.88,
		"armorgrowth": 3.5,
		"mr": 30,
		"mrgrowth": 0
	},
	"Nocturne": 
	{
		"aspd": 0.668,
		"hp": 582.8,
		"hpgrowth": 85,
		"regen": 8.26,
		"regengrowth": 0.75,
		"mp": 273.8,
		"mpgrowth": 35,
		"mpregen": 6.755,
		"mpregengrowth": 0.45,
		"ad": 66,
		"adgrowth": 3.1,
		"bonus_aspdgrowth": 0.027,
		"armor": 26.88,
		"armorgrowth": 3.5,
		"mr": 32.1,
		"mrgrowth": 1.25
	},
	"Nunu": 
	{
		"aspd": 0.625,
		"hp": 598.28,
		"hpgrowth": 90,
		"regen": 8.39,
		"regengrowth": 0.8,
		"mp": 283.56,
		"mpgrowth": 42,
		"mpregen": 7.44,
		"mpregengrowth": 0.5,
		"ad": 56.856,
		"adgrowth": 3.45,
		"bonus_aspdgrowth": 0.0225,
		"armor": 26.38,
		"armorgrowth": 3.5,
		"mr": 32.1,
		"mrgrowth": 1.25
	},
	"Olaf": 
	{
		"aspd": 0.694,
		"hp": 597.24,
		"hpgrowth": 93,
		"regen": 8.51,
		"regengrowth": 0.9,
		"mp": 315.6,
		"mpgrowth": 42,
		"mpregen": 7.465,
		"mpregengrowth": 0.575,
		"ad": 59.98,
		"adgrowth": 3.5,
		"bonus_aspdgrowth": 0.027,
		"armor": 26.04,
		"armorgrowth": 3,
		"mr": 32.1,
		"mrgrowth": 1.25
	},
	"Orianna": 
	{
		"aspd": 0.658,
		"hp": 517.72,
		"hpgrowth": 79,
		"regen": 6.87,
		"regengrowth": 0.55,
		"mp": 334,
		"mpgrowth": 50,
		"mpregen": 6,
		"mpregengrowth": 0.8,
		"ad": 38,
		"adgrowth": 2.6,
		"bonus_aspdgrowth": 0.035,
		"armor": 17.04,
		"armorgrowth": 3,
		"mr": 30,
		"mrgrowth": 0
	},
	"Pantheon": 
	{
		"aspd": 0.644,
		"hp": 579.16,
		"hpgrowth": 87,
		"regen": 7.84,
		"regengrowth": 0.65,
		"mp": 317.12,
		"mpgrowth": 31,
		"mpregen": 7.355,
		"mpregengrowth": 0.45,
		"ad": 55.572,
		"adgrowth": 2.9,
		"bonus_aspdgrowth": 0.0295,
		"armor": 27.652,
		"armorgrowth": 3.9,
		"mr": 32.1,
		"mrgrowth": 1.25
	},
	"Poppy": 
	{
		"aspd": 0.625,
		"hp": 540,
		"hpgrowth": 90,
		"regen": 8,
		"regengrowth": 0.8,
		"mp": 280,
		"mpgrowth": 40,
		"mpregen": 7,
		"mpregengrowth": 0.7,
		"ad": 56,
		"adgrowth": 4,
		"bonus_aspdgrowth": 0.025,
		"armor": 29,
		"armorgrowth": 3.5,
		"mr": 32.1,
		"mrgrowth": 1.25
	},
	"Quinn": 
	{
		"aspd": 0.668,
		"hp": 532.8,
		"hpgrowth": 85,
		"regen": 5.42,
		"regengrowth": 0.55,
		"mp": 268.8,
		"mpgrowth": 35,
		"mpregen": 6.97,
		"mpregengrowth": 0.4,
		"ad": 56.46,
		"adgrowth": 2.41,
		"bonus_aspdgrowth": 0.031,
		"armor": 23.38,
		"armorgrowth": 3.5,
		"mr": 30,
		"mrgrowth": 0
	},
	"Rammus": 
	{
		"aspd": 0.625,
		"hp": 564.48,
		"hpgrowth": 86,
		"regen": 7.92,
		"regengrowth": 0.55,
		"mp": 310.44,
		"mpgrowth": 33,
		"mpregen": 7.84,
		"mpregengrowth": 0.5,
		"ad": 55.88,
		"adgrowth": 3.5,
		"bonus_aspdgrowth": 0.0222,
		"armor": 31.384,
		"armorgrowth": 4.3,
		"mr": 32.1,
		"mrgrowth": 1.25
	},
	"Reksai": 
	{
		"aspd": 0.667,
		"hp": 570,
		"hpgrowth": 90,
		"regen": 7.35,
		"regengrowth": 0.65,
		"mp": 0,
		"mpgrowth": 0,
		"mpregen": 0,
		"mpregengrowth": 0,
		"ad": 55.628,
		"adgrowth": 3.35,
		"bonus_aspdgrowth": 0.02,
		"armor": 24,
		"armorgrowth": 3.4	,
		"mr": 32.1,
		"mrgrowth": 1.25
	},
	"Renekton": 
	{
		"aspd": 0.665,
		"hp": 572.16,
		"hpgrowth": 87,
		"regen": 7.96,
		"regengrowth": 0.75,
		"mp": 0,
		"mpgrowth": 0,
		"mpregen": 0,
		"mpregengrowth": 0,
		"ad": 58.328,
		"adgrowth": 3.1,
		"bonus_aspdgrowth": 0.0265,
		"armor": 25.584,
		"armorgrowth": 3.8,
		"mr": 32.1,
		"mrgrowth": 1.25
	},
	"Rengar": 
	{
		"aspd": 0.679,
		"hp": 586.2,
		"hpgrowth": 90,
		"regen": 4.27,
		"regengrowth": 0.4,
		"mp": 0,
		"mpgrowth": 0,
		"mpregen": 0,
		"mpregengrowth": 0,
		"ad": 60.04,
		"adgrowth": 3,
		"bonus_aspdgrowth": 0.0285,
		"armor": 25.88,
		"armorgrowth": 3.5,
		"mr": 32.1,
		"mrgrowth": 1.25
	},
	"Riven": 
	{
		"aspd": 0.625,
		"hp": 558.48,
		"hpgrowth": 86,
		"regen": 5.4,
		"regengrowth": 0.5,
		"mp": 0,
		"mpgrowth": 0,
		"mpregen": 0,
		"mpregengrowth": 0,
		"ad": 56.04,
		"adgrowth": 3,
		"bonus_aspdgrowth": 0.035,
		"armor": 24.376,
		"armorgrowth": 3.2,
		"mr": 32.1,
		"mrgrowth": 1.25
	},
	"Rumble": 
	{
		"aspd": 0.644,
		"hp": 584.4,
		"hpgrowth": 80,
		"regen": 8.005,
		"regengrowth": 0.6,
		"mp": 0,
		"mpgrowth": 0,
		"mpregen": 0,
		"mpregengrowth": 0,
		"ad": 61.036,
		"adgrowth": 3.2,
		"bonus_aspdgrowth": 0.0185,
		"armor": 25.88,
		"armorgrowth": 3.5,
		"mr": 32.1,
		"mrgrowth": 1.25
	},
	"Ryze": 
	{
		"aspd": 0.625,
		"hp": 558.48,
		"hpgrowth": 86,
		"regen": 5.27,
		"regengrowth": 0.55,
		"mp": 400,
		"mpgrowth": 50,
		"mpregen": 6,
		"mpregengrowth": 1,
		"ad": 55.04,
		"adgrowth": 3,
		"bonus_aspdgrowth": 0.0211,
		"armor": 21.552,
		"armorgrowth": 3,
		"mr": 30,
		"mrgrowth": 0
	},
	"Sejuani": 
	{
		"aspd": 0.67,
		"hp": 600,
		"hpgrowth": 95,
		"regen": 8.675,
		"regengrowth": 0.85,
		"mp": 400,
		"mpgrowth": 40,
		"mpregen": 7.205,
		"mpregengrowth": 0.45,
		"ad": 57.544,
		"adgrowth": 3.3,
		"bonus_aspdgrowth": 0.0144,
		"armor": 29.54,
		"armorgrowth": 3,
		"mr": 32.1,
		"mrgrowth": 1.25
	},
	"Shaco": 
	{
		"aspd": 0.694,
		"hp": 582.12,
		"hpgrowth": 84,
		"regen": 8.37,
		"regengrowth": 0.55,
		"mp": 297.2,
		"mpgrowth": 40,
		"mpregen": 7.155,
		"mpregengrowth": 0.45,
		"ad": 57.58,
		"adgrowth": 3.5,
		"bonus_aspdgrowth": 0.03,
		"armor": 24.88,
		"armorgrowth": 3.5,
		"mr": 32.1,
		"mrgrowth": 1.25
	},
	"Shen": 
	{
		"aspd": 0.651,
		"hp": 540,
		"hpgrowth": 73,
		"regen": 8.5,
		"regengrowth": 0.75,
		"mp": 0,
		"mpgrowth": 0,
		"mpregen": 0,
		"mpregengrowth": 0,
		"ad": 60,
		"adgrowth": 3,
		"bonus_aspdgrowth": 0.02,
		"armor": 25,
		"armorgrowth": 2.6,
		"mr": 32.1,
		"mrgrowth": 1.25
	},
	"Shyvana": 
	{
		"aspd": 0.658,
		"hp": 594.6,
		"hpgrowth": 95,
		"regen": 8.59,
		"regengrowth": 0.8,
		"mp": 0,
		"mpgrowth": 0,
		"mpregen": 0,
		"mpregengrowth": 0,
		"ad": 60.712,
		"adgrowth": 3.4,
		"bonus_aspdgrowth": 0.025,
		"armor": 27.628,
		"armorgrowth": 3.35,
		"mr": 32.1,
		"mrgrowth": 1.25
	},
	"Sion": 
	{
		"aspd": 0.679,
		"hp": 542.64,
		"hpgrowth": 73,
		"regen": 10.18,
		"regengrowth": 0.8,
		"mp": 325.6,
		"mpgrowth": 42,
		"mpregen": 8.005,
		"mpregengrowth": 0.6,
		"ad": 59.72,
		"adgrowth": 4,
		"bonus_aspdgrowth": 0.013,
		"armor": 23.04,
		"armorgrowth": 3,
		"mr": 32.1,
		"mrgrowth": 1.25
	},
	"Singed": 
	{
		"aspd": 0.613,
		"hp": 542.76,
		"hpgrowth": 82,
		"regen": 8.02,
		"regengrowth": 0.55,
		"mp": 290.6,
		"mpgrowth": 45,
		"mpregen": 7.52,
		"mpregengrowth": 0.55,
		"ad": 62.32,
		"adgrowth": 3.375,
		"bonus_aspdgrowth": 0.0181,
		"armor": 27.88,
		"armorgrowth": 3.5,
		"mr": 32.1,
		"mrgrowth": 1.25
	},
	"Sivir": 
	{
		"aspd": 0.625,
		"hp": 515.76,
		"hpgrowth": 82,
		"regen": 5.17,
		"regengrowth": 0.55,
		"mp": 284,
		"mpgrowth": 50,
		"mpregen": 8.01,
		"mpregengrowth": 0.9,
		"ad": 57.46,
		"adgrowth": 2.41,
		"bonus_aspdgrowth": 0.016,
		"armor": 22.21,
		"armorgrowth": 3.25,
		"mr": 30,
		"mrgrowth": 0
	},
	"Skarner": 
	{
		"aspd": 0.625,
		"hp": 601.28,
		"hpgrowth": 90,
		"regen": 8.925,
		"regengrowth": 0.85,
		"mp": 272.2,
		"mpgrowth": 40,
		"mpregen": 7.205,
		"mpregengrowth": 0.45,
		"ad": 57,
		"adgrowth": 4.5,
		"bonus_aspdgrowth": 0.021,
		"armor": 29.384,
		"armorgrowth": 3.8,
		"mr": 32.1,
		"mrgrowth": 1.25
	},
	"Sona": 
	{
		"aspd": 0.644,
		"hp": 482.36,
		"hpgrowth": 77,
		"regen": 5.42,
		"regengrowth": 0.55,
		"mp": 340.6,
		"mpgrowth": 45,
		"mpregen": 11.5,
		"mpregengrowth": 0.4,
		"ad": 50.04,
		"adgrowth": 3,
		"bonus_aspdgrowth": 0.023,
		"armor": 20.544,
		"armorgrowth": 3.3,
		"mr": 30,
		"mrgrowth": 0
	},
	"Soraka": 
	{
		"aspd": 0.625,
		"hp": 529.04,
		"hpgrowth": 78,
		"regen": 2.5,
		"regengrowth": 0.5,
		"mp": 350.8,
		"mpgrowth": 60,
		"mpregen": 11.5,
		"mpregengrowth": 0.4,
		"ad": 50.04,
		"adgrowth": 3,
		"bonus_aspdgrowth": 0.0214,
		"armor": 23.384,
		"armorgrowth": 3.8,
		"mr": 30,
		"mrgrowth": 0
	},
	"Swain": 
	{
		"aspd": 0.625,
		"hp": 516.04,
		"hpgrowth": 90,
		"regen": 7.84,
		"regengrowth": 0.65,
		"mp": 374,
		"mpgrowth": 47,
		"mpregen": 6,
		"mpregengrowth": 0.8,
		"ad": 52.04,
		"adgrowth": 3,
		"bonus_aspdgrowth": 0.0211,
		"armor": 22.72,
		"armorgrowth": 4,
		"mr": 30,
		"mrgrowth": 0
	},
	"Syndra": 
	{
		"aspd": 0.625,
		"hp": 511.04,
		"hpgrowth": 78,
		"regen": 6.505,
		"regengrowth": 0.6,
		"mp": 384,
		"mpgrowth": 60,
		"mpregen": 6,
		"mpregengrowth": 0.8,
		"ad": 53.872,
		"adgrowth": 2.9,
		"bonus_aspdgrowth": 0.02,
		"armor": 24.712,
		"armorgrowth": 3.4,
		"mr": 30,
		"mrgrowth": 0
	},
	"TahmKench": 
	{
		"aspd": 0.658,
		"hp": 610,
		"hpgrowth": 95,
		"regen": 6.5,
		"regengrowth": 0.55,
		"mp": 325,
		"mpgrowth": 40,
		"mpregen": 8,
		"mpregengrowth": 1,
		"ad": 56,
		"adgrowth": 3.2,
		"bonus_aspdgrowth": 0.025,
		"armor": 27,
		"armorgrowth": 3.5,
		"mr": 32.1,
		"mrgrowth": 1.25
	},
	"Taliyah": 
	{
		"aspd": 0.625,
		"hp": 520,
		"hpgrowth": 75,
		"regen": 6,
		"regengrowth": 0.7,
		"mp": 340,
		"mpgrowth": 60,
		"mpregen": 7,
		"mpregengrowth": 0.85,
		"ad": 56,
		"adgrowth": 3.3,
		"bonus_aspdgrowth": 0.012,
		"armor": 20,
		"armorgrowth": 3,
		"mr": 30,
		"mrgrowth": 0
	},
	"Talon": 
	{
		"aspd": 0.668,
		"hp": 582.8,
		"hpgrowth": 85,
		"regen": 8.51,
		"regengrowth": 0.75,
		"mp": 377.2,
		"mpgrowth": 37,
		"mpregen": 7.59,
		"mpregengrowth": 0.5,
		"ad": 55.208,
		"adgrowth": 3.1,
		"bonus_aspdgrowth": 0.027,
		"armor": 26.88,
		"armorgrowth": 3.5,
		"mr": 32.1,
		"mrgrowth": 1.25
	},
	"Taric": 
	{
		"aspd": 0.625,
		"hp": 575,
		"hpgrowth": 90,
		"regen": 6,
		"regengrowth": 0.5,
		"mp": 250,
		"mpgrowth": 60,
		"mpregen": 5,
		"mpregengrowth": 1,
		"ad": 55,
		"adgrowth": 3.5,
		"bonus_aspdgrowth": 0.0202,
		"armor": 25,
		"armorgrowth": 3.4,
		"mr": 32.1,
		"mrgrowth": 1.25
	},
	"Teemo": 
	{
		"aspd": 0.69,
		"hp": 515.76,
		"hpgrowth": 82,
		"regen": 5.74,
		"regengrowth": 0.65,
		"mp": 267.2,
		"mpgrowth": 40,
		"mpregen": 7.205,
		"mpregengrowth": 0.65,
		"ad": 49.54,
		"adgrowth": 3,
		"bonus_aspdgrowth": 0.0338,
		"armor": 24.3,
		"armorgrowth": 3.75,
		"mr": 30,
		"mrgrowth": 0
	},
	"Thresh": 
	{
		"aspd": 0.625,
		"hp": 560.52,
		"hpgrowth": 93,
		"regen": 6.92,
		"regengrowth": 0.55,
		"mp": 273.92,
		"mpgrowth": 44,
		"mpregen": 6,
		"mpregengrowth": 0.8,
		"ad": 47.696,
		"adgrowth": 2.2,
		"bonus_aspdgrowth": 0.035,
		"armor": 16,
		"armorgrowth": 0,
		"mr": 30,
		"mrgrowth": 0
	},
	"Tristana": 
	{
		"aspd": 0.656,
		"hp": 542.76,
		"hpgrowth": 82,
		"regen": 6.19,
		"regengrowth": 0.65,
		"mp": 246.76,
		"mpgrowth": 32,
		"mpregen": 7.205,
		"mpregengrowth": 0.65,
		"ad": 57.06,
		"adgrowth": 2.41,
		"bonus_aspdgrowth": 0.015,
		"armor": 22,
		"armorgrowth": 3,
		"mr": 30,
		"mrgrowth": 0
	},
	"Trundle": 
	{
		"aspd": 0.67,
		"hp": 616.28,
		"hpgrowth": 96,
		"regen": 6,
		"regengrowth": 0.85,
		"mp": 281.6,
		"mpgrowth": 45,
		"mpregen": 7.505,
		"mpregengrowth": 0.6,
		"ad": 60.04,
		"adgrowth": 3,
		"bonus_aspdgrowth": 0.029,
		"armor": 27.536,
		"armorgrowth": 2.7,
		"mr": 32.1,
		"mrgrowth": 1.25
	},
	"Tryndamere": 
	{
		"aspd": 0.67,
		"hp": 625.64,
		"hpgrowth": 98,
		"regen": 8.51,
		"regengrowth": 0.9,
		"mp": 0,
		"mpgrowth": 0,
		"mpregen": 0,
		"mpregengrowth": 0,
		"ad": 61.376,
		"adgrowth": 3.2,
		"bonus_aspdgrowth": 0.029,
		"armor": 24.108,
		"armorgrowth": 3.1,
		"mr": 32.1,
		"mrgrowth": 1.25
	},
	"TwistedFate": 
	{
		"aspd": 0.651,
		"hp": 521.76,
		"hpgrowth": 82,
		"regen": 5.505,
		"regengrowth": 0.6,
		"mp": 265.84,
		"mpgrowth": 38,
		"mpregen": 6,
		"mpregengrowth": 0.8,
		"ad": 49.954,
		"adgrowth": 3.3,
		"bonus_aspdgrowth": 0.0322,
		"armor": 20.542,
		"armorgrowth": 3.15,
		"mr": 30,
		"mrgrowth": 0
	},
	"Twitch": 
	{
		"aspd": 0.679,
		"hp": 525.08,
		"hpgrowth": 81,
		"regen": 6.005,
		"regengrowth": 0.6,
		"mp": 287.2,
		"mpgrowth": 40,
		"mpregen": 7.255,
		"mpregengrowth": 0.45,
		"ad": 54.46,
		"adgrowth": 2.41,
		"bonus_aspdgrowth": 0.0338,
		"armor": 23.04,
		"armorgrowth": 3,
		"mr": 30,
		"mrgrowth": 0
	},
	"Udyr": 
	{
		"aspd": 0.658,
		"hp": 593.32,
		"hpgrowth": 99,
		"regen": 6,
		"regengrowth": 0.75,
		"mp": 270.4,
		"mpgrowth": 30,
		"mpregen": 7.505,
		"mpregengrowth": 0.45,
		"ad": 58.286,
		"adgrowth": 3.2,
		"bonus_aspdgrowth": 0.0267,
		"armor": 25.47,
		"armorgrowth": 4,
		"mr": 32.1,
		"mrgrowth": 1.25
	},
	"Urgot": 
	{
		"aspd": 0.644,
		"hp": 586.52,
		"hpgrowth": 89,
		"regen": 6.505,
		"regengrowth": 0.6,
		"mp": 312.4,
		"mpgrowth": 55,
		"mpregen": 8.59,
		"mpregengrowth": 0.65,
		"ad": 54,
		"adgrowth": 3.5,
		"bonus_aspdgrowth": 0.029,
		"armor": 24.544,
		"armorgrowth": 3.3,
		"mr": 30,
		"mrgrowth": 0
	},
	"Varus": 
	{
		"aspd": 0.658,
		"hp": 537.76,
		"hpgrowth": 82,
		"regen": 5.42,
		"regengrowth": 0.55,
		"mp": 360,
		"mpgrowth": 33,
		"mpregen": 7.34,
		"mpregengrowth": 0.8,
		"ad": 54.46,
		"adgrowth": 2.41,
		"bonus_aspdgrowth": 0.03,
		"armor": 23.212,
		"armorgrowth": 3.4,
		"mr": 30,
		"mrgrowth": 0
	},
	"Vayne": 
	{
		"aspd": 0.658,
		"hp": 498.44,
		"hpgrowth": 83,
		"regen": 5.42,
		"regengrowth": 0.55,
		"mp": 231.8,
		"mpgrowth": 35,
		"mpregen": 6.97,
		"mpregengrowth": 0.4,
		"ad": 56.88,
		"adgrowth": 1.66,
		"bonus_aspdgrowth": 0.04,
		"armor": 19.012,
		"armorgrowth": 3.4,
		"mr": 30,
		"mrgrowth": 0
	},
	"Veigar": 
	{
		"aspd": 0.625,
		"hp": 492.76,
		"hpgrowth": 82,
		"regen": 5.42,
		"regengrowth": 0.55,
		"mp": 392.4,
		"mpgrowth": 52,
		"mpregen": 6,
		"mpregengrowth": 0.8,
		"ad": 50.71,
		"adgrowth": 2.625,
		"bonus_aspdgrowth": 0.0224,
		"armor": 22.55,
		"armorgrowth": 3.75,
		"mr": 30,
		"mrgrowth": 0
	},
	"Velkoz": 
	{
		"aspd": 0.625,
		"hp": 507.68,
		"hpgrowth": 76,
		"regen": 5.42,
		"regengrowth": 0.55,
		"mp": 375.6,
		"mpgrowth": 42,
		"mpregen": 6,
		"mpregengrowth": 0.8,
		"ad": 54.938,
		"adgrowth": 3.142,
		"bonus_aspdgrowth": 0.0136,
		"armor": 21.88,
		"armorgrowth": 3.5,
		"mr": 30,
		"mrgrowth": 0
	},
	"Vi": 
	{
		"aspd": 0.644,
		"hp": 582.8,
		"hpgrowth": 85,
		"regen": 9.01,
		"regengrowth": 0.9,
		"mp": 295.6,
		"mpgrowth": 45,
		"mpregen": 8.09,
		"mpregengrowth": 0.65,
		"ad": 55.88,
		"adgrowth": 3.5,
		"bonus_aspdgrowth": 0.025,
		"armor": 25.88,
		"armorgrowth": 3.5,
		"mr": 32.1,
		"mrgrowth": 1.25
	},
	"Viktor": 
	{
		"aspd": 0.658,
		"hp": 516.01,
		"hpgrowth": 78,
		"regen": 7.84,
		"regengrowth": 0.65,
		"mp": 324,
		"mpgrowth": 50,
		"mpregen": 6,
		"mpregengrowth": 0.8,
		"ad": 52.04,
		"adgrowth": 3,
		"bonus_aspdgrowth": 0.0211,
		"armor": 22.72,
		"armorgrowth": 4,
		"mr": 30,
		"mrgrowth": 0
	},
	"Volibear": 
	{
		"aspd": 0.658,
		"hp": 584.48,
		"hpgrowth": 86,
		"regen": 8.09,
		"regengrowth": 0.65,
		"mp": 270.4,
		"mpgrowth": 30,
		"mpregen": 8.09,
		"mpregengrowth": 0.65,
		"ad": 59.544,
		"adgrowth": 3.3,
		"bonus_aspdgrowth": 0.0267,
		"armor": 26.38,
		"armorgrowth": 3.5,
		"mr": 32.1,
		"mrgrowth": 1.25
	},
	"Vladimir": 
	{
		"aspd": 0.658,
		"hp": 525,
		"hpgrowth": 84,
		"regen": 7.005,
		"regengrowth": 0.6,
		"mp": 0,
		"mpgrowth": 0,
		"mpregen": 0,
		"mpregengrowth": 0,
		"ad": 52,
		"adgrowth": 3,
		"bonus_aspdgrowth": 0.02,
		"armor": 21.88,
		"armorgrowth": 3.5,
		"mr": 30,
		"mrgrowth": 0
	},
	"Warwick": 
	{
		"aspd": 0.679,
		"hp": 592.64,
		"hpgrowth": 98,
		"regen": 8.39,
		"regengrowth": 0.8,
		"mp": 240.4,
		"mpgrowth": 30,
		"mpregen": 8.105,
		"mpregengrowth": 0.6,
		"ad": 62.43,
		"adgrowth": 3.375,
		"bonus_aspdgrowth": 0.0288,
		"armor": 25.88,
		"armorgrowth": 3.5,
		"mr": 32.1,
		"mrgrowth": 1.25
	},
	"Wukong": 
	{
		"aspd": 0.658,
		"hp": 577.8,
		"hpgrowth": 85,
		"regen": 6.19,
		"regengrowth": 0.65,
		"mp": 265.84,
		"mpgrowth": 38,
		"mpregen": 8.04,
		"mpregengrowth": 0.65,
		"ad": 59.876,
		"adgrowth": 3.2,
		"bonus_aspdgrowth": 0.03,
		"armor": 24.88,
		"armorgrowth": 3.5,
		"mr": 32.1,
		"mrgrowth": 1.25
	},
	"Xerath": 
	{
		"aspd": 0.625,
		"hp": 514.4,
		"hpgrowth": 80,
		"regen": 5.42,
		"regengrowth": 0.55,
		"mp": 366.96,
		"mpgrowth": 44,
		"mpregen": 6,
		"mpregengrowth": 0.8,
		"ad": 54.7,
		"adgrowth": 3,
		"bonus_aspdgrowth": 0.0136,
		"armor": 21.88,
		"armorgrowth": 3.5,
		"mr": 30,
		"mrgrowth": 0
	},
	"XinZhao": 
	{
		"aspd": 0.672,
		"hp": 600,
		"hpgrowth": 92,
		"regen": 8.175,
		"regengrowth": 0.7,
		"mp": 273.8,
		"mpgrowth": 35,
		"mpregen": 7.255,
		"mpregengrowth": 0.45,
		"ad": 57.544,
		"adgrowth": 3.3,
		"bonus_aspdgrowth": 0.026,
		"armor": 25.88,
		"armorgrowth": 3.5,
		"mr": 32.1,
		"mrgrowth": 1.25
	},
	"Yasuo": 
	{
		"aspd": 0.670,
		"hp": 517.76,
		"hpgrowth": 76,
		"regen": 6.51,
		"regengrowth": 0.9,
		"mp": 0,
		"mpgrowth": 0,
		"mpregen": 0,
		"mpregengrowth": 0,
		"ad": 55.376,
		"adgrowth": 3.2,
		"bonus_aspdgrowth": 0.025,
		"armor": 24.712,
		"armorgrowth": 3.4,
		"mr": 30,
		"mrgrowth": 0
	},
	"Yorick": 
	{
		"aspd": 0.625,
		"hp": 580,
		"hpgrowth": 100,
		"regen": 8,
		"regengrowth": 0.8,
		"mp": 300,
		"mpgrowth": 40,
		"mpregen": 7.5,
		"mpregengrowth": 0.75,
		"ad": 57,
		"adgrowth": 5,
		"bonus_aspdgrowth": 0.03,
		"armor": 30,
		"armorgrowth": 4,
		"mr": 32.1,
		"mrgrowth": 1.25
	},
	"Zac": 
	{
		"aspd": 0.638,
		"hp": 614.6,
		"hpgrowth": 95,
		"regen": 7.92,
		"regengrowth": 0.55,
		"mp": 0,
		"mpgrowth": 0,
		"mpregen": 0,
		"mpregengrowth": 0,
		"ad": 59.67,
		"adgrowth": 3.375,
		"bonus_aspdgrowth": 0.016,
		"armor": 23.88,
		"armorgrowth": 3.5,
		"mr": 32.1,
		"mrgrowth": 1.25
	},
	"Ziggs": 
	{
		"aspd": 0.656,
		"hp": 524.4,
		"hpgrowth": 80,
		"regen": 6.255,
		"regengrowth": 0.6,
		"mp": 384,
		"mpgrowth": 47,
		"mpregen": 6,
		"mpregengrowth": 0.8,
		"ad": 54.208,
		"adgrowth": 3.1,
		"bonus_aspdgrowth": 0.02,
		"armor": 21.544,
		"armorgrowth": 3.3,
		"mr": 30,
		"mrgrowth": 0
	},
	"Zilean": 
	{
		"aspd": 0.625,
		"hp": 499.28,
		"hpgrowth": 77,
		"regen": 5.44,
		"regengrowth": 0.5,
		"mp": 360.8,
		"mpgrowth": 60,
		"mpregen": 8.5,
		"mpregengrowth": 0.8,
		"ad": 51.64,
		"adgrowth": 3,
		"bonus_aspdgrowth": 0.0213,
		"armor": 19.134,
		"armorgrowth": 3.8,
		"mr": 30,
		"mrgrowth": 0
	},
	"Zed": 
	{
		"aspd": 0.658,
		"hp": 579.4,
		"hpgrowth": 80,
		"regen": 7.09,
		"regengrowth": 0.65,
		"mp": 0,
		"mpgrowth": 0,
		"mpregen": 0,
		"mpregengrowth": 0,
		"ad": 54.712,
		"adgrowth": 3.4,
		"bonus_aspdgrowth": 0.021,
		"armor": 26.88,
		"armorgrowth": 3.5,
		"mr": 32.1,
		"mrgrowth": 1.25
	},
	"Zyra": 
	{
		"aspd": 0.625,
		"hp": 499,
		"hpgrowth": 74,
		"regen": 5.69,
		"regengrowth": 0.5,
		"mp": 334,
		"mpgrowth": 50,
		"mpregen": 8.5,
		"mpregengrowth": 0.8,
		"ad": 53.376,
		"adgrowth": 3.2,
		"bonus_aspdgrowth": 0.0211,
		"armor": 20.04,
		"armorgrowth": 3,
		"mr": 30,
		"mrgrowth": 0
	}
}